[0] MPI startup(): Intel(R) MPI Library, Version 2021.10  Build 20230619 (id: c2e19c2f3e)
[0] MPI startup(): Copyright (C) 2003-2023 Intel Corporation.  All rights reserved.
[0] MPI startup(): library kind: release
[0] MPI startup(): libfabric version: 1.18.0-impi
compute35:rank24 PSM3_IDENTIFY PSM3 v3.0-oneapi-ze built for IEFS OFA DELTA 11_5_0_0_172
compute35:rank24 PSM3_IDENTIFY location /usr/lib64/libfabric/libpsm3-fi.so
compute35:rank24 PSM3_IDENTIFY build date 2023-05-15T09:53:40
compute35:rank24 PSM3_IDENTIFY src checksum 2c3eb379fd92530cd927d9f8b08506d7387c1d59
compute35:rank24 PSM3_IDENTIFY git checksum 97fdceb01fc41231a0a29e1df3f0f8ba760facd7
compute35:rank24 PSM3_IDENTIFY HAL: verbs (RDMA Verbs (oneapi-ze)) built against rv interface v1.4 gpu v1.3 oneapi-ze
compute35:rank24 PSM3_IDENTIFY Global Rank 24 (32 total) Local Rank 8 (16 total)
compute35:rank24 PSM3_IDENTIFY CPU Core 56 NUMA 1 PID 75025
compute35:rank28 PSM3_IDENTIFY PSM3 v3.0-oneapi-ze built for IEFS OFA DELTA 11_5_0_0_172
compute35:rank28 PSM3_IDENTIFY location /usr/lib64/libfabric/libpsm3-fi.so
compute35:rank28 PSM3_IDENTIFY build date 2023-05-15T09:53:40
compute35:rank28 PSM3_IDENTIFY src checksum 2c3eb379fd92530cd927d9f8b08506d7387c1d59
compute35:rank28 PSM3_IDENTIFY git checksum 97fdceb01fc41231a0a29e1df3f0f8ba760facd7
compute35:rank28 PSM3_IDENTIFY HAL: verbs (RDMA Verbs (oneapi-ze)) built against rv interface v1.4 gpu v1.3 oneapi-ze
compute35:rank28 PSM3_IDENTIFY Global Rank 28 (32 total) Local Rank 12 (16 total)
compute35:rank28 PSM3_IDENTIFY CPU Core 84 NUMA 1 PID 75029
compute35:rank31 PSM3_IDENTIFY PSM3 v3.0-oneapi-ze built for IEFS OFA DELTA 11_5_0_0_172
compute35:rank31 PSM3_IDENTIFY location /usr/lib64/libfabric/libpsm3-fi.so
compute35:rank31 PSM3_IDENTIFY build date 2023-05-15T09:53:40
compute35:rank31 PSM3_IDENTIFY src checksum 2c3eb379fd92530cd927d9f8b08506d7387c1d59
compute35:rank31 PSM3_IDENTIFY git checksum 97fdceb01fc41231a0a29e1df3f0f8ba760facd7
compute35:rank31 PSM3_IDENTIFY HAL: verbs (RDMA Verbs (oneapi-ze)) built against rv interface v1.4 gpu v1.3 oneapi-ze
compute35:rank31 PSM3_IDENTIFY Global Rank 31 (32 total) Local Rank 15 (16 total)
compute35:rank31 PSM3_IDENTIFY CPU Core 217 NUMA 1 PID 75032
compute35:rank25 PSM3_IDENTIFY PSM3 v3.0-oneapi-ze built for IEFS OFA DELTA 11_5_0_0_172
compute35:rank25 PSM3_IDENTIFY location /usr/lib64/libfabric/libpsm3-fi.so
compute35:rank25 PSM3_IDENTIFY build date 2023-05-15T09:53:40
compute35:rank25 PSM3_IDENTIFY src checksum 2c3eb379fd92530cd927d9f8b08506d7387c1d59
compute35:rank25 PSM3_IDENTIFY git checksum 97fdceb01fc41231a0a29e1df3f0f8ba760facd7
compute35:rank25 PSM3_IDENTIFY HAL: verbs (RDMA Verbs (oneapi-ze)) built against rv interface v1.4 gpu v1.3 oneapi-ze
compute35:rank25 PSM3_IDENTIFY Global Rank 25 (32 total) Local Rank 9 (16 total)
compute35:rank25 PSM3_IDENTIFY CPU Core 63 NUMA 1 PID 75026
compute35:rank30 PSM3_IDENTIFY PSM3 v3.0-oneapi-ze built for IEFS OFA DELTA 11_5_0_0_172
compute35:rank30 PSM3_IDENTIFY location /usr/lib64/libfabric/libpsm3-fi.so
compute35:rank30 PSM3_IDENTIFY build date 2023-05-15T09:53:40
compute35:rank30 PSM3_IDENTIFY src checksum 2c3eb379fd92530cd927d9f8b08506d7387c1d59
compute35:rank30 PSM3_IDENTIFY git checksum 97fdceb01fc41231a0a29e1df3f0f8ba760facd7
compute35:rank30 PSM3_IDENTIFY HAL: verbs (RDMA Verbs (oneapi-ze)) built against rv interface v1.4 gpu v1.3 oneapi-ze
compute35:rank30 PSM3_IDENTIFY Global Rank 30 (32 total) Local Rank 14 (16 total)
compute35:rank30 PSM3_IDENTIFY CPU Core 98 NUMA 1 PID 75031
compute35:rank16 PSM3_IDENTIFY PSM3 v3.0-oneapi-ze built for IEFS OFA DELTA 11_5_0_0_172
compute35:rank16 PSM3_IDENTIFY location /usr/lib64/libfabric/libpsm3-fi.so
compute35:rank16 PSM3_IDENTIFY build date 2023-05-15T09:53:40
compute35:rank16 PSM3_IDENTIFY src checksum 2c3eb379fd92530cd927d9f8b08506d7387c1d59
compute35:rank16 PSM3_IDENTIFY git checksum 97fdceb01fc41231a0a29e1df3f0f8ba760facd7
compute35:rank16 PSM3_IDENTIFY HAL: verbs (RDMA Verbs (oneapi-ze)) built against rv interface v1.4 gpu v1.3 oneapi-ze
compute35:rank16 PSM3_IDENTIFY Global Rank 16 (32 total) Local Rank 0 (16 total)
compute35:rank16 PSM3_IDENTIFY CPU Core 0 NUMA 0 PID 75017
compute35:rank18 PSM3_IDENTIFY PSM3 v3.0-oneapi-ze built for IEFS OFA DELTA 11_5_0_0_172
compute35:rank18 PSM3_IDENTIFY location /usr/lib64/libfabric/libpsm3-fi.so
compute35:rank18 PSM3_IDENTIFY build date 2023-05-15T09:53:40
compute35:rank18 PSM3_IDENTIFY src checksum 2c3eb379fd92530cd927d9f8b08506d7387c1d59
compute35:rank18 PSM3_IDENTIFY git checksum 97fdceb01fc41231a0a29e1df3f0f8ba760facd7
compute35:rank18 PSM3_IDENTIFY HAL: verbs (RDMA Verbs (oneapi-ze)) built against rv interface v1.4 gpu v1.3 oneapi-ze
compute35:rank18 PSM3_IDENTIFY Global Rank 18 (32 total) Local Rank 2 (16 total)
compute35:rank18 PSM3_IDENTIFY CPU Core 126 NUMA 0 PID 75019
compute35:rank22 PSM3_IDENTIFY PSM3 v3.0-oneapi-ze built for IEFS OFA DELTA 11_5_0_0_172
compute35:rank22 PSM3_IDENTIFY location /usr/lib64/libfabric/libpsm3-fi.so
compute35:rank22 PSM3_IDENTIFY build date 2023-05-15T09:53:40
compute35:rank22 PSM3_IDENTIFY src checksum 2c3eb379fd92530cd927d9f8b08506d7387c1d59
compute35:rank22 PSM3_IDENTIFY git checksum 97fdceb01fc41231a0a29e1df3f0f8ba760facd7
compute35:rank22 PSM3_IDENTIFY HAL: verbs (RDMA Verbs (oneapi-ze)) built against rv interface v1.4 gpu v1.3 oneapi-ze
compute35:rank22 PSM3_IDENTIFY Global Rank 22 (32 total) Local Rank 6 (16 total)
compute35:rank22 PSM3_IDENTIFY CPU Core 42 NUMA 0 PID 75023
compute35:rank27 PSM3_IDENTIFY PSM3 v3.0-oneapi-ze built for IEFS OFA DELTA 11_5_0_0_172
compute35:rank27 PSM3_IDENTIFY location /usr/lib64/libfabric/libpsm3-fi.so
compute35:rank27 PSM3_IDENTIFY build date 2023-05-15T09:53:40
compute35:rank27 PSM3_IDENTIFY src checksum 2c3eb379fd92530cd927d9f8b08506d7387c1d59
compute35:rank27 PSM3_IDENTIFY git checksum 97fdceb01fc41231a0a29e1df3f0f8ba760facd7
compute35:rank27 PSM3_IDENTIFY HAL: verbs (RDMA Verbs (oneapi-ze)) built against rv interface v1.4 gpu v1.3 oneapi-ze
compute35:rank27 PSM3_IDENTIFY Global Rank 27 (32 total) Local Rank 11 (16 total)
compute35:rank27 PSM3_IDENTIFY CPU Core 77 NUMA 1 PID 75028
compute35:rank26 PSM3_IDENTIFY PSM3 v3.0-oneapi-ze built for IEFS OFA DELTA 11_5_0_0_172
compute35:rank26 PSM3_IDENTIFY location /usr/lib64/libfabric/libpsm3-fi.so
compute35:rank26 PSM3_IDENTIFY build date 2023-05-15T09:53:40
compute35:rank26 PSM3_IDENTIFY src checksum 2c3eb379fd92530cd927d9f8b08506d7387c1d59
compute35:rank26 PSM3_IDENTIFY git checksum 97fdceb01fc41231a0a29e1df3f0f8ba760facd7
compute35:rank26 PSM3_IDENTIFY HAL: verbs (RDMA Verbs (oneapi-ze)) built against rv interface v1.4 gpu v1.3 oneapi-ze
compute35:rank26 PSM3_IDENTIFY Global Rank 26 (32 total) Local Rank 10 (16 total)
compute35:rank26 PSM3_IDENTIFY CPU Core 71 NUMA 1 PID 75027
compute35:rank17 PSM3_IDENTIFY PSM3 v3.0-oneapi-ze built for IEFS OFA DELTA 11_5_0_0_172
compute35:rank17 PSM3_IDENTIFY location /usr/lib64/libfabric/libpsm3-fi.so
compute35:rank17 PSM3_IDENTIFY build date 2023-05-15T09:53:40
compute35:rank17 PSM3_IDENTIFY src checksum 2c3eb379fd92530cd927d9f8b08506d7387c1d59
compute35:rank17 PSM3_IDENTIFY git checksum 97fdceb01fc41231a0a29e1df3f0f8ba760facd7
compute35:rank17 PSM3_IDENTIFY HAL: verbs (RDMA Verbs (oneapi-ze)) built against rv interface v1.4 gpu v1.3 oneapi-ze
compute35:rank17 PSM3_IDENTIFY Global Rank 17 (32 total) Local Rank 1 (16 total)
compute35:rank17 PSM3_IDENTIFY CPU Core 120 NUMA 0 PID 75018
compute35:rank20 PSM3_IDENTIFY PSM3 v3.0-oneapi-ze built for IEFS OFA DELTA 11_5_0_0_172
compute35:rank20 PSM3_IDENTIFY location /usr/lib64/libfabric/libpsm3-fi.so
compute35:rank20 PSM3_IDENTIFY build date 2023-05-15T09:53:40
compute35:rank20 PSM3_IDENTIFY src checksum 2c3eb379fd92530cd927d9f8b08506d7387c1d59
compute35:rank20 PSM3_IDENTIFY git checksum 97fdceb01fc41231a0a29e1df3f0f8ba760facd7
compute35:rank20 PSM3_IDENTIFY HAL: verbs (RDMA Verbs (oneapi-ze)) built against rv interface v1.4 gpu v1.3 oneapi-ze
compute35:rank20 PSM3_IDENTIFY Global Rank 20 (32 total) Local Rank 4 (16 total)
compute35:rank20 PSM3_IDENTIFY CPU Core 140 NUMA 0 PID 75021
compute35:rank23 PSM3_IDENTIFY PSM3 v3.0-oneapi-ze built for IEFS OFA DELTA 11_5_0_0_172
compute35:rank23 PSM3_IDENTIFY location /usr/lib64/libfabric/libpsm3-fi.so
compute35:rank23 PSM3_IDENTIFY build date 2023-05-15T09:53:40
compute35:rank23 PSM3_IDENTIFY src checksum 2c3eb379fd92530cd927d9f8b08506d7387c1d59
compute35:rank23 PSM3_IDENTIFY git checksum 97fdceb01fc41231a0a29e1df3f0f8ba760facd7
compute35:rank23 PSM3_IDENTIFY HAL: verbs (RDMA Verbs (oneapi-ze)) built against rv interface v1.4 gpu v1.3 oneapi-ze
compute35:rank23 PSM3_IDENTIFY Global Rank 23 (32 total) Local Rank 7 (16 total)
compute35:rank23 PSM3_IDENTIFY CPU Core 161 NUMA 0 PID 75024
compute31:rank2 PSM3_IDENTIFY PSM3 v3.0-oneapi-ze built for IEFS OFA DELTA 11_5_0_0_172
compute31:rank2 PSM3_IDENTIFY location /usr/lib64/libfabric/libpsm3-fi.so
compute31:rank2 PSM3_IDENTIFY build date 2023-05-15T09:53:40
compute31:rank2 PSM3_IDENTIFY src checksum 2c3eb379fd92530cd927d9f8b08506d7387c1d59
compute31:rank2 PSM3_IDENTIFY git checksum 97fdceb01fc41231a0a29e1df3f0f8ba760facd7
compute31:rank2 PSM3_IDENTIFY HAL: verbs (RDMA Verbs (oneapi-ze)) built against rv interface v1.4 gpu v1.3 oneapi-ze
compute31:rank2 PSM3_IDENTIFY Global Rank 2 (32 total) Local Rank 2 (16 total)
compute31:rank2 PSM3_IDENTIFY CPU Core 126 NUMA 0 PID 82112
compute31:rank3 PSM3_IDENTIFY PSM3 v3.0-oneapi-ze built for IEFS OFA DELTA 11_5_0_0_172
compute31:rank3 PSM3_IDENTIFY location /usr/lib64/libfabric/libpsm3-fi.so
compute31:rank3 PSM3_IDENTIFY build date 2023-05-15T09:53:40
compute31:rank3 PSM3_IDENTIFY src checksum 2c3eb379fd92530cd927d9f8b08506d7387c1d59
compute31:rank3 PSM3_IDENTIFY git checksum 97fdceb01fc41231a0a29e1df3f0f8ba760facd7
compute31:rank3 PSM3_IDENTIFY HAL: verbs (RDMA Verbs (oneapi-ze)) built against rv interface v1.4 gpu v1.3 oneapi-ze
compute31:rank3 PSM3_IDENTIFY Global Rank 3 (32 total) Local Rank 3 (16 total)
compute31:rank3 PSM3_IDENTIFY CPU Core 133 NUMA 0 PID 82113
compute31:rank12 PSM3_IDENTIFY PSM3 v3.0-oneapi-ze built for IEFS OFA DELTA 11_5_0_0_172
compute31:rank12 PSM3_IDENTIFY location /usr/lib64/libfabric/libpsm3-fi.so
compute31:rank12 PSM3_IDENTIFY build date 2023-05-15T09:53:40
compute31:rank12 PSM3_IDENTIFY src checksum 2c3eb379fd92530cd927d9f8b08506d7387c1d59
compute31:rank12 PSM3_IDENTIFY git checksum 97fdceb01fc41231a0a29e1df3f0f8ba760facd7
compute31:rank12 PSM3_IDENTIFY HAL: verbs (RDMA Verbs (oneapi-ze)) built against rv interface v1.4 gpu v1.3 oneapi-ze
compute31:rank12 PSM3_IDENTIFY Global Rank 12 (32 total) Local Rank 12 (16 total)
compute31:rank12 PSM3_IDENTIFY CPU Core 85 NUMA 1 PID 82122
compute31:rank15 PSM3_IDENTIFY PSM3 v3.0-oneapi-ze built for IEFS OFA DELTA 11_5_0_0_172
compute31:rank15 PSM3_IDENTIFY location /usr/lib64/libfabric/libpsm3-fi.so
compute31:rank15 PSM3_IDENTIFY build date 2023-05-15T09:53:40
compute31:rank15 PSM3_IDENTIFY src checksum 2c3eb379fd92530cd927d9f8b08506d7387c1d59
compute31:rank15 PSM3_IDENTIFY git checksum 97fdceb01fc41231a0a29e1df3f0f8ba760facd7
compute31:rank15 PSM3_IDENTIFY HAL: verbs (RDMA Verbs (oneapi-ze)) built against rv interface v1.4 gpu v1.3 oneapi-ze
compute31:rank15 PSM3_IDENTIFY Global Rank 15 (32 total) Local Rank 15 (16 total)
compute31:rank15 PSM3_IDENTIFY CPU Core 105 NUMA 1 PID 82125
compute31:rank13 PSM3_IDENTIFY PSM3 v3.0-oneapi-ze built for IEFS OFA DELTA 11_5_0_0_172
compute31:rank13 PSM3_IDENTIFY location /usr/lib64/libfabric/libpsm3-fi.so
compute31:rank13 PSM3_IDENTIFY build date 2023-05-15T09:53:40
compute31:rank13 PSM3_IDENTIFY src checksum 2c3eb379fd92530cd927d9f8b08506d7387c1d59
compute31:rank13 PSM3_IDENTIFY git checksum 97fdceb01fc41231a0a29e1df3f0f8ba760facd7
compute31:rank13 PSM3_IDENTIFY HAL: verbs (RDMA Verbs (oneapi-ze)) built against rv interface v1.4 gpu v1.3 oneapi-ze
compute31:rank13 PSM3_IDENTIFY Global Rank 13 (32 total) Local Rank 13 (16 total)
compute31:rank13 PSM3_IDENTIFY CPU Core 203 NUMA 1 PID 82123
compute31:rank5 PSM3_IDENTIFY PSM3 v3.0-oneapi-ze built for IEFS OFA DELTA 11_5_0_0_172
compute31:rank5 PSM3_IDENTIFY location /usr/lib64/libfabric/libpsm3-fi.so
compute31:rank5 PSM3_IDENTIFY build date 2023-05-15T09:53:40
compute31:rank5 PSM3_IDENTIFY src checksum 2c3eb379fd92530cd927d9f8b08506d7387c1d59
compute31:rank5 PSM3_IDENTIFY git checksum 97fdceb01fc41231a0a29e1df3f0f8ba760facd7
compute31:rank5 PSM3_IDENTIFY HAL: verbs (RDMA Verbs (oneapi-ze)) built against rv interface v1.4 gpu v1.3 oneapi-ze
compute31:rank5 PSM3_IDENTIFY Global Rank 5 (32 total) Local Rank 5 (16 total)
compute31:rank5 PSM3_IDENTIFY CPU Core 147 NUMA 0 PID 82115
compute31:rank10 PSM3_IDENTIFY PSM3 v3.0-oneapi-ze built for IEFS OFA DELTA 11_5_0_0_172
compute31:rank10 PSM3_IDENTIFY location /usr/lib64/libfabric/libpsm3-fi.so
compute31:rank10 PSM3_IDENTIFY build date 2023-05-15T09:53:40
compute31:rank10 PSM3_IDENTIFY src checksum 2c3eb379fd92530cd927d9f8b08506d7387c1d59
compute31:rank10 PSM3_IDENTIFY git checksum 97fdceb01fc41231a0a29e1df3f0f8ba760facd7
compute31:rank10 PSM3_IDENTIFY HAL: verbs (RDMA Verbs (oneapi-ze)) built against rv interface v1.4 gpu v1.3 oneapi-ze
compute31:rank10 PSM3_IDENTIFY Global Rank 10 (32 total) Local Rank 10 (16 total)
compute31:rank10 PSM3_IDENTIFY CPU Core 70 NUMA 1 PID 82120
compute31:rank14 PSM3_IDENTIFY PSM3 v3.0-oneapi-ze built for IEFS OFA DELTA 11_5_0_0_172
compute31:rank14 PSM3_IDENTIFY location /usr/lib64/libfabric/libpsm3-fi.so
compute31:rank14 PSM3_IDENTIFY build date 2023-05-15T09:53:40
compute31:rank14 PSM3_IDENTIFY src checksum 2c3eb379fd92530cd927d9f8b08506d7387c1d59
compute31:rank14 PSM3_IDENTIFY git checksum 97fdceb01fc41231a0a29e1df3f0f8ba760facd7
compute31:rank14 PSM3_IDENTIFY HAL: verbs (RDMA Verbs (oneapi-ze)) built against rv interface v1.4 gpu v1.3 oneapi-ze
compute31:rank14 PSM3_IDENTIFY Global Rank 14 (32 total) Local Rank 14 (16 total)
compute31:rank14 PSM3_IDENTIFY CPU Core 210 NUMA 1 PID 82124
compute31:rank7 PSM3_IDENTIFY PSM3 v3.0-oneapi-ze built for IEFS OFA DELTA 11_5_0_0_172
compute31:rank7 PSM3_IDENTIFY location /usr/lib64/libfabric/libpsm3-fi.so
compute31:rank7 PSM3_IDENTIFY build date 2023-05-15T09:53:40
compute31:rank7 PSM3_IDENTIFY src checksum 2c3eb379fd92530cd927d9f8b08506d7387c1d59
compute31:rank7 PSM3_IDENTIFY git checksum 97fdceb01fc41231a0a29e1df3f0f8ba760facd7
compute31:rank7 PSM3_IDENTIFY HAL: verbs (RDMA Verbs (oneapi-ze)) built against rv interface v1.4 gpu v1.3 oneapi-ze
compute31:rank7 PSM3_IDENTIFY Global Rank 7 (32 total) Local Rank 7 (16 total)
compute31:rank7 PSM3_IDENTIFY CPU Core 49 NUMA 0 PID 82117
compute31:rank8 PSM3_IDENTIFY PSM3 v3.0-oneapi-ze built for IEFS OFA DELTA 11_5_0_0_172
compute31:rank8 PSM3_IDENTIFY location /usr/lib64/libfabric/libpsm3-fi.so
compute31:rank8 PSM3_IDENTIFY build date 2023-05-15T09:53:40
compute31:rank8 PSM3_IDENTIFY src checksum 2c3eb379fd92530cd927d9f8b08506d7387c1d59
compute31:rank8 PSM3_IDENTIFY git checksum 97fdceb01fc41231a0a29e1df3f0f8ba760facd7
compute31:rank8 PSM3_IDENTIFY HAL: verbs (RDMA Verbs (oneapi-ze)) built against rv interface v1.4 gpu v1.3 oneapi-ze
compute31:rank8 PSM3_IDENTIFY Global Rank 8 (32 total) Local Rank 8 (16 total)
compute31:rank8 PSM3_IDENTIFY CPU Core 56 NUMA 1 PID 82118
compute35:rank19 PSM3_IDENTIFY PSM3 v3.0-oneapi-ze built for IEFS OFA DELTA 11_5_0_0_172
compute35:rank19 PSM3_IDENTIFY location /usr/lib64/libfabric/libpsm3-fi.so
compute35:rank19 PSM3_IDENTIFY build date 2023-05-15T09:53:40
compute35:rank19 PSM3_IDENTIFY src checksum 2c3eb379fd92530cd927d9f8b08506d7387c1d59
compute35:rank19 PSM3_IDENTIFY git checksum 97fdceb01fc41231a0a29e1df3f0f8ba760facd7
compute35:rank19 PSM3_IDENTIFY HAL: verbs (RDMA Verbs (oneapi-ze)) built against rv interface v1.4 gpu v1.3 oneapi-ze
compute35:rank19 PSM3_IDENTIFY Global Rank 19 (32 total) Local Rank 3 (16 total)
compute35:rank19 PSM3_IDENTIFY CPU Core 21 NUMA 0 PID 75020
compute35:rank21 PSM3_IDENTIFY PSM3 v3.0-oneapi-ze built for IEFS OFA DELTA 11_5_0_0_172
compute35:rank21 PSM3_IDENTIFY location /usr/lib64/libfabric/libpsm3-fi.so
compute35:rank21 PSM3_IDENTIFY build date 2023-05-15T09:53:40
compute35:rank21 PSM3_IDENTIFY src checksum 2c3eb379fd92530cd927d9f8b08506d7387c1d59
compute35:rank21 PSM3_IDENTIFY git checksum 97fdceb01fc41231a0a29e1df3f0f8ba760facd7
compute35:rank21 PSM3_IDENTIFY HAL: verbs (RDMA Verbs (oneapi-ze)) built against rv interface v1.4 gpu v1.3 oneapi-ze
compute35:rank21 PSM3_IDENTIFY Global Rank 21 (32 total) Local Rank 5 (16 total)
compute35:rank21 PSM3_IDENTIFY CPU Core 147 NUMA 0 PID 75022
compute35:rank29 PSM3_IDENTIFY PSM3 v3.0-oneapi-ze built for IEFS OFA DELTA 11_5_0_0_172
compute35:rank29 PSM3_IDENTIFY location /usr/lib64/libfabric/libpsm3-fi.so
compute35:rank29 PSM3_IDENTIFY build date 2023-05-15T09:53:40
compute35:rank29 PSM3_IDENTIFY src checksum 2c3eb379fd92530cd927d9f8b08506d7387c1d59
compute35:rank29 PSM3_IDENTIFY git checksum 97fdceb01fc41231a0a29e1df3f0f8ba760facd7
compute35:rank29 PSM3_IDENTIFY HAL: verbs (RDMA Verbs (oneapi-ze)) built against rv interface v1.4 gpu v1.3 oneapi-ze
compute35:rank29 PSM3_IDENTIFY Global Rank 29 (32 total) Local Rank 13 (16 total)
compute35:rank29 PSM3_IDENTIFY CPU Core 91 NUMA 1 PID 75030
[0] MPI startup(): libfabric provider: psm3
compute31:rank0 PSM3_IDENTIFY PSM3 v3.0-oneapi-ze built for IEFS OFA DELTA 11_5_0_0_172
compute31:rank0 PSM3_IDENTIFY location /usr/lib64/libfabric/libpsm3-fi.so
compute31:rank0 PSM3_IDENTIFY build date 2023-05-15T09:53:40
compute31:rank0 PSM3_IDENTIFY src checksum 2c3eb379fd92530cd927d9f8b08506d7387c1d59
compute31:rank0 PSM3_IDENTIFY git checksum 97fdceb01fc41231a0a29e1df3f0f8ba760facd7
compute31:rank0 PSM3_IDENTIFY HAL: verbs (RDMA Verbs (oneapi-ze)) built against rv interface v1.4 gpu v1.3 oneapi-ze
compute31:rank0 PSM3_IDENTIFY Global Rank 0 (32 total) Local Rank 0 (16 total)
compute31:rank0 PSM3_IDENTIFY CPU Core 1 NUMA 0 PID 82110
compute31:rank6 PSM3_IDENTIFY PSM3 v3.0-oneapi-ze built for IEFS OFA DELTA 11_5_0_0_172
compute31:rank6 PSM3_IDENTIFY location /usr/lib64/libfabric/libpsm3-fi.so
compute31:rank6 PSM3_IDENTIFY build date 2023-05-15T09:53:40
compute31:rank6 PSM3_IDENTIFY src checksum 2c3eb379fd92530cd927d9f8b08506d7387c1d59
compute31:rank6 PSM3_IDENTIFY git checksum 97fdceb01fc41231a0a29e1df3f0f8ba760facd7
compute31:rank6 PSM3_IDENTIFY HAL: verbs (RDMA Verbs (oneapi-ze)) built against rv interface v1.4 gpu v1.3 oneapi-ze
compute31:rank6 PSM3_IDENTIFY Global Rank 6 (32 total) Local Rank 6 (16 total)
compute31:rank6 PSM3_IDENTIFY CPU Core 42 NUMA 0 PID 82116
compute31:rank1 PSM3_IDENTIFY PSM3 v3.0-oneapi-ze built for IEFS OFA DELTA 11_5_0_0_172
compute31:rank1 PSM3_IDENTIFY location /usr/lib64/libfabric/libpsm3-fi.so
compute31:rank1 PSM3_IDENTIFY build date 2023-05-15T09:53:40
compute31:rank1 PSM3_IDENTIFY src checksum 2c3eb379fd92530cd927d9f8b08506d7387c1d59
compute31:rank1 PSM3_IDENTIFY git checksum 97fdceb01fc41231a0a29e1df3f0f8ba760facd7
compute31:rank1 PSM3_IDENTIFY HAL: verbs (RDMA Verbs (oneapi-ze)) built against rv interface v1.4 gpu v1.3 oneapi-ze
compute31:rank1 PSM3_IDENTIFY Global Rank 1 (32 total) Local Rank 1 (16 total)
compute31:rank1 PSM3_IDENTIFY CPU Core 119 NUMA 0 PID 82111
compute31:rank4 PSM3_IDENTIFY PSM3 v3.0-oneapi-ze built for IEFS OFA DELTA 11_5_0_0_172
compute31:rank4 PSM3_IDENTIFY location /usr/lib64/libfabric/libpsm3-fi.so
compute31:rank4 PSM3_IDENTIFY build date 2023-05-15T09:53:40
compute31:rank4 PSM3_IDENTIFY src checksum 2c3eb379fd92530cd927d9f8b08506d7387c1d59
compute31:rank4 PSM3_IDENTIFY git checksum 97fdceb01fc41231a0a29e1df3f0f8ba760facd7
compute31:rank4 PSM3_IDENTIFY HAL: verbs (RDMA Verbs (oneapi-ze)) built against rv interface v1.4 gpu v1.3 oneapi-ze
compute31:rank4 PSM3_IDENTIFY Global Rank 4 (32 total) Local Rank 4 (16 total)
compute31:rank4 PSM3_IDENTIFY CPU Core 140 NUMA 0 PID 82114
compute31:rank11 PSM3_IDENTIFY PSM3 v3.0-oneapi-ze built for IEFS OFA DELTA 11_5_0_0_172
compute31:rank11 PSM3_IDENTIFY location /usr/lib64/libfabric/libpsm3-fi.so
compute31:rank11 PSM3_IDENTIFY build date 2023-05-15T09:53:40
compute31:rank11 PSM3_IDENTIFY src checksum 2c3eb379fd92530cd927d9f8b08506d7387c1d59
compute31:rank11 PSM3_IDENTIFY git checksum 97fdceb01fc41231a0a29e1df3f0f8ba760facd7
compute31:rank11 PSM3_IDENTIFY HAL: verbs (RDMA Verbs (oneapi-ze)) built against rv interface v1.4 gpu v1.3 oneapi-ze
compute31:rank11 PSM3_IDENTIFY Global Rank 11 (32 total) Local Rank 11 (16 total)
compute31:rank11 PSM3_IDENTIFY CPU Core 77 NUMA 1 PID 82121
compute31:rank9 PSM3_IDENTIFY PSM3 v3.0-oneapi-ze built for IEFS OFA DELTA 11_5_0_0_172
compute31:rank9 PSM3_IDENTIFY location /usr/lib64/libfabric/libpsm3-fi.so
compute31:rank9 PSM3_IDENTIFY build date 2023-05-15T09:53:40
compute31:rank9 PSM3_IDENTIFY src checksum 2c3eb379fd92530cd927d9f8b08506d7387c1d59
compute31:rank9 PSM3_IDENTIFY git checksum 97fdceb01fc41231a0a29e1df3f0f8ba760facd7
compute31:rank9 PSM3_IDENTIFY HAL: verbs (RDMA Verbs (oneapi-ze)) built against rv interface v1.4 gpu v1.3 oneapi-ze
compute31:rank9 PSM3_IDENTIFY Global Rank 9 (32 total) Local Rank 9 (16 total)
compute31:rank9 PSM3_IDENTIFY CPU Core 63 NUMA 1 PID 82119
compute35:rank24 PSM3_IDENTIFY run-time rv interface v1.4 user_mr gpu v1.3 oneapi-ze
compute35:rank24 PSM3_IDENTIFY NIC 1 (mlx5_1) Port 1 200000 Mbps NUMA 1 LID=38 GID=0xfe80000000000000:946dae0300eb4a8e QP=25905
compute35:rank25 PSM3_IDENTIFY run-time rv interface v1.4 user_mr gpu v1.3 oneapi-ze
compute35:rank30 PSM3_IDENTIFY run-time rv interface v1.4 user_mr gpu v1.3 oneapi-ze
compute35:rank26 PSM3_IDENTIFY run-time rv interface v1.4 user_mr gpu v1.3 oneapi-ze
compute35:rank25 PSM3_IDENTIFY NIC 1 (mlx5_1) Port 1 200000 Mbps NUMA 1 LID=38 GID=0xfe80000000000000:946dae0300eb4a8e QP=25906
compute35:rank30 PSM3_IDENTIFY NIC 1 (mlx5_1) Port 1 200000 Mbps NUMA 1 LID=38 GID=0xfe80000000000000:946dae0300eb4a8e QP=25907
compute35:rank28 PSM3_IDENTIFY run-time rv interface v1.4 user_mr gpu v1.3 oneapi-ze
compute35:rank31 PSM3_IDENTIFY run-time rv interface v1.4 user_mr gpu v1.3 oneapi-ze
compute35:rank17 PSM3_IDENTIFY run-time rv interface v1.4 user_mr gpu v1.3 oneapi-ze
compute35:rank20 PSM3_IDENTIFY run-time rv interface v1.4 user_mr gpu v1.3 oneapi-ze
compute35:rank22 PSM3_IDENTIFY run-time rv interface v1.4 user_mr gpu v1.3 oneapi-ze
compute35:rank23 PSM3_IDENTIFY run-time rv interface v1.4 user_mr gpu v1.3 oneapi-ze
compute31:rank5 PSM3_IDENTIFY run-time rv interface v1.4 user_mr gpu v1.3 oneapi-ze
compute35:rank27 PSM3_IDENTIFY run-time rv interface v1.4 user_mr gpu v1.3 oneapi-ze
compute35:rank26 PSM3_IDENTIFY NIC 1 (mlx5_1) Port 1 200000 Mbps NUMA 1 LID=38 GID=0xfe80000000000000:946dae0300eb4a8e QP=25908
compute31:rank7 PSM3_IDENTIFY run-time rv interface v1.4 user_mr gpu v1.3 oneapi-ze
compute35:rank16 PSM3_IDENTIFY run-time rv interface v1.4 user_mr gpu v1.3 oneapi-ze
compute35:rank28 PSM3_IDENTIFY NIC 1 (mlx5_1) Port 1 200000 Mbps NUMA 1 LID=38 GID=0xfe80000000000000:946dae0300eb4a8e QP=25909
compute31:rank8 PSM3_IDENTIFY run-time rv interface v1.4 user_mr gpu v1.3 oneapi-ze
compute31:rank6 PSM3_IDENTIFY run-time rv interface v1.4 user_mr gpu v1.3 oneapi-ze
compute35:rank29 PSM3_IDENTIFY run-time rv interface v1.4 user_mr gpu v1.3 oneapi-ze
compute35:rank31 PSM3_IDENTIFY NIC 1 (mlx5_1) Port 1 200000 Mbps NUMA 1 LID=38 GID=0xfe80000000000000:946dae0300eb4a8e QP=25910
compute35:rank21 PSM3_IDENTIFY run-time rv interface v1.4 user_mr gpu v1.3 oneapi-ze
compute31:rank1 PSM3_IDENTIFY run-time rv interface v1.4 user_mr gpu v1.3 oneapi-ze
compute31:rank13 PSM3_IDENTIFY run-time rv interface v1.4 user_mr gpu v1.3 oneapi-ze
compute35:rank17 PSM3_IDENTIFY NIC 0 (mlx5_0) Port 1 200000 Mbps NUMA 0 LID=42 GID=0xfe80000000000000:946dae0300eb4aca QP=25905
compute35:rank19 PSM3_IDENTIFY run-time rv interface v1.4 user_mr gpu v1.3 oneapi-ze
compute31:rank10 PSM3_IDENTIFY run-time rv interface v1.4 user_mr gpu v1.3 oneapi-ze
compute35:rank20 PSM3_IDENTIFY NIC 0 (mlx5_0) Port 1 200000 Mbps NUMA 0 LID=42 GID=0xfe80000000000000:946dae0300eb4aca QP=25906
compute35:rank18 PSM3_IDENTIFY run-time rv interface v1.4 user_mr gpu v1.3 oneapi-ze
compute35:rank22 PSM3_IDENTIFY NIC 0 (mlx5_0) Port 1 200000 Mbps NUMA 0 LID=42 GID=0xfe80000000000000:946dae0300eb4aca QP=25907
compute35:rank23 PSM3_IDENTIFY NIC 0 (mlx5_0) Port 1 200000 Mbps NUMA 0 LID=42 GID=0xfe80000000000000:946dae0300eb4aca QP=25908
compute31:rank14 PSM3_IDENTIFY run-time rv interface v1.4 user_mr gpu v1.3 oneapi-ze
compute35:rank27 PSM3_IDENTIFY NIC 1 (mlx5_1) Port 1 200000 Mbps NUMA 1 LID=38 GID=0xfe80000000000000:946dae0300eb4a8e QP=25911
compute31:rank5 PSM3_IDENTIFY NIC 0 (mlx5_0) Port 1 200000 Mbps NUMA 0 LID=35 GID=0xfe80000000000000:b8cef603005e80be QP=24604
compute31:rank2 PSM3_IDENTIFY run-time rv interface v1.4 user_mr gpu v1.3 oneapi-ze
compute31:rank9 PSM3_IDENTIFY run-time rv interface v1.4 user_mr gpu v1.3 oneapi-ze
compute31:rank7 PSM3_IDENTIFY NIC 0 (mlx5_0) Port 1 200000 Mbps NUMA 0 LID=35 GID=0xfe80000000000000:b8cef603005e80be QP=24605
compute31:rank11 PSM3_IDENTIFY run-time rv interface v1.4 user_mr gpu v1.3 oneapi-ze
compute35:rank16 PSM3_IDENTIFY NIC 0 (mlx5_0) Port 1 200000 Mbps NUMA 0 LID=42 GID=0xfe80000000000000:946dae0300eb4aca QP=25909
compute31:rank3 PSM3_IDENTIFY run-time rv interface v1.4 user_mr gpu v1.3 oneapi-ze
compute31:rank6 PSM3_IDENTIFY NIC 0 (mlx5_0) Port 1 200000 Mbps NUMA 0 LID=35 GID=0xfe80000000000000:b8cef603005e80be QP=24606
compute31:rank8 PSM3_IDENTIFY NIC 1 (mlx5_1) Port 1 200000 Mbps NUMA 1 LID=36 GID=0xfe80000000000000:c42a103009450cc QP=24603
compute35:rank29 PSM3_IDENTIFY NIC 1 (mlx5_1) Port 1 200000 Mbps NUMA 1 LID=38 GID=0xfe80000000000000:946dae0300eb4a8e QP=25912
compute31:rank0 PSM3_IDENTIFY run-time rv interface v1.4 user_mr gpu v1.3 oneapi-ze
compute31:rank12 PSM3_IDENTIFY run-time rv interface v1.4 user_mr gpu v1.3 oneapi-ze
compute31:rank1 PSM3_IDENTIFY NIC 0 (mlx5_0) Port 1 200000 Mbps NUMA 0 LID=35 GID=0xfe80000000000000:b8cef603005e80be QP=24607
compute35:rank21 PSM3_IDENTIFY NIC 0 (mlx5_0) Port 1 200000 Mbps NUMA 0 LID=42 GID=0xfe80000000000000:946dae0300eb4aca QP=25910
compute31:rank15 PSM3_IDENTIFY run-time rv interface v1.4 user_mr gpu v1.3 oneapi-ze
compute31:rank4 PSM3_IDENTIFY run-time rv interface v1.4 user_mr gpu v1.3 oneapi-ze
compute35:rank19 PSM3_IDENTIFY NIC 0 (mlx5_0) Port 1 200000 Mbps NUMA 0 LID=42 GID=0xfe80000000000000:946dae0300eb4aca QP=25911
compute31:rank13 PSM3_IDENTIFY NIC 1 (mlx5_1) Port 1 200000 Mbps NUMA 1 LID=36 GID=0xfe80000000000000:c42a103009450cc QP=24604
compute35:rank18 PSM3_IDENTIFY NIC 0 (mlx5_0) Port 1 200000 Mbps NUMA 0 LID=42 GID=0xfe80000000000000:946dae0300eb4aca QP=25912
compute31:rank10 PSM3_IDENTIFY NIC 1 (mlx5_1) Port 1 200000 Mbps NUMA 1 LID=36 GID=0xfe80000000000000:c42a103009450cc QP=24605
compute31:rank14 PSM3_IDENTIFY NIC 1 (mlx5_1) Port 1 200000 Mbps NUMA 1 LID=36 GID=0xfe80000000000000:c42a103009450cc QP=24606
compute31:rank9 PSM3_IDENTIFY NIC 1 (mlx5_1) Port 1 200000 Mbps NUMA 1 LID=36 GID=0xfe80000000000000:c42a103009450cc QP=24607
compute31:rank2 PSM3_IDENTIFY NIC 0 (mlx5_0) Port 1 200000 Mbps NUMA 0 LID=35 GID=0xfe80000000000000:b8cef603005e80be QP=24608
compute31:rank11 PSM3_IDENTIFY NIC 1 (mlx5_1) Port 1 200000 Mbps NUMA 1 LID=36 GID=0xfe80000000000000:c42a103009450cc QP=24608
compute31:rank3 PSM3_IDENTIFY NIC 0 (mlx5_0) Port 1 200000 Mbps NUMA 0 LID=35 GID=0xfe80000000000000:b8cef603005e80be QP=24609
compute31:rank0 PSM3_IDENTIFY NIC 0 (mlx5_0) Port 1 200000 Mbps NUMA 0 LID=35 GID=0xfe80000000000000:b8cef603005e80be QP=24610
compute31:rank12 PSM3_IDENTIFY NIC 1 (mlx5_1) Port 1 200000 Mbps NUMA 1 LID=36 GID=0xfe80000000000000:c42a103009450cc QP=24609
compute31:rank4 PSM3_IDENTIFY NIC 0 (mlx5_0) Port 1 200000 Mbps NUMA 0 LID=35 GID=0xfe80000000000000:b8cef603005e80be QP=24611
compute31:rank15 PSM3_IDENTIFY NIC 1 (mlx5_1) Port 1 200000 Mbps NUMA 1 LID=36 GID=0xfe80000000000000:c42a103009450cc QP=24610
[0] MPI startup(): File "/install/software/oneAPI/2023.2/mpi/2021.10.0/etc/tuning_spr_shm-ofi_psm3.dat" not found
[0] MPI startup(): Load tuning file: "/install/software/oneAPI/2023.2/mpi/2021.10.0/etc/tuning_spr_shm-ofi.dat"
[0] MPI startup(): Rank    Pid      Node name  Pin cpu
[0] MPI startup(): 0       82110    compute31  {0,1,2,3,4,5,6,112,113,114,115,116,117,118}
[0] MPI startup(): 1       82111    compute31  {7,8,9,10,11,12,13,119,120,121,122,123,124,125}
[0] MPI startup(): 2       82112    compute31  {14,15,16,17,18,19,20,126,127,128,129,130,131,132}
[0] MPI startup(): 3       82113    compute31  {21,22,23,24,25,26,27,133,134,135,136,137,138,139}
[0] MPI startup(): 4       82114    compute31  {28,29,30,31,32,33,34,140,141,142,143,144,145,146}
[0] MPI startup(): 5       82115    compute31  {35,36,37,38,39,40,41,147,148,149,150,151,152,153}
[0] MPI startup(): 6       82116    compute31  {42,43,44,45,46,47,48,154,155,156,157,158,159,160}
[0] MPI startup(): 7       82117    compute31  {49,50,51,52,53,54,55,161,162,163,164,165,166,167}
[0] MPI startup(): 8       82118    compute31  {56,57,58,59,60,61,62,168,169,170,171,172,173,174}
[0] MPI startup(): 9       82119    compute31  {63,64,65,66,67,68,69,175,176,177,178,179,180,181}
[0] MPI startup(): 10      82120    compute31  {70,71,72,73,74,75,76,182,183,184,185,186,187,188}
[0] MPI startup(): 11      82121    compute31  {77,78,79,80,81,82,83,189,190,191,192,193,194,195}
[0] MPI startup(): 12      82122    compute31  {84,85,86,87,88,89,90,196,197,198,199,200,201,202}
[0] MPI startup(): 13      82123    compute31  {91,92,93,94,95,96,97,203,204,205,206,207,208,209}
[0] MPI startup(): 14      82124    compute31  {98,99,100,101,102,103,104,210,211,212,213,214,215,216}
[0] MPI startup(): 15      82125    compute31  {105,106,107,108,109,110,111,217,218,219,220,221,222,223}
[0] MPI startup(): 16      75017    compute35  {0,1,2,3,4,5,6,112,113,114,115,116,117,118}
[0] MPI startup(): 17      75018    compute35  {7,8,9,10,11,12,13,119,120,121,122,123,124,125}
[0] MPI startup(): 18      75019    compute35  {14,15,16,17,18,19,20,126,127,128,129,130,131,132}
[0] MPI startup(): 19      75020    compute35  {21,22,23,24,25,26,27,133,134,135,136,137,138,139}
[0] MPI startup(): 20      75021    compute35  {28,29,30,31,32,33,34,140,141,142,143,144,145,146}
[0] MPI startup(): 21      75022    compute35  {35,36,37,38,39,40,41,147,148,149,150,151,152,153}
[0] MPI startup(): 22      75023    compute35  {42,43,44,45,46,47,48,154,155,156,157,158,159,160}
[0] MPI startup(): 23      75024    compute35  {49,50,51,52,53,54,55,161,162,163,164,165,166,167}
[0] MPI startup(): 24      75025    compute35  {56,57,58,59,60,61,62,168,169,170,171,172,173,174}
[0] MPI startup(): 25      75026    compute35  {63,64,65,66,67,68,69,175,176,177,178,179,180,181}
[0] MPI startup(): 26      75027    compute35  {70,71,72,73,74,75,76,182,183,184,185,186,187,188}
[0] MPI startup(): 27      75028    compute35  {77,78,79,80,81,82,83,189,190,191,192,193,194,195}
[0] MPI startup(): 28      75029    compute35  {84,85,86,87,88,89,90,196,197,198,199,200,201,202}
[0] MPI startup(): 29      75030    compute35  {91,92,93,94,95,96,97,203,204,205,206,207,208,209}
[0] MPI startup(): 30      75031    compute35  {98,99,100,101,102,103,104,210,211,212,213,214,215,216}
[0] MPI startup(): 31      75032    compute35  {105,106,107,108,109,110,111,217,218,219,220,221,222,223}
---
 Reference Paper             : The Journal of Chemical Physics 137, 134108 (2012)
 Version Number              : PSolver 1.9
 Timestamp of this run       : 2023-10-31 08:12:05.212
 Root process Hostname       : compute31
 Poisson Kernel Creation:
   Boundary Conditions       : Periodic
   Memory Requirements per MPI task:
     Density (MB)            :  6.75
     Kernel (MB)             :  0.90
     Full Grid Arrays (MB)   :  6.75
 Orbital repartition:
 -  [ 4,  4,  4,  4,  4,  4,  4,  4,  4,  4,  4,  4,  4,  4,  4,  4,  4,  4,  4,  4,  4, 
                                                                                  4,  4, 
                                                                                  4,  4, 
                                                                                  4,  4, 
                                                                                  4,  4, 
                                                                                  4,  4, 
                                                                                  4]
  #Exact exchange calculation:4%; Time (s): Elapsed=0.1844, Remaining=4.4
  #Exact exchange calculation:10%; Time (s): Elapsed=0.4723, Remaining=4.3
  #Exact exchange calculation:16%; Time (s): Elapsed=0.7658, Remaining=4.0
  #Exact exchange calculation:22%; Time (s): Elapsed=1.0725, Remaining=3.8
  #Exact exchange calculation:28%; Time (s): Elapsed=1.3735, Remaining=3.5
  #Exact exchange calculation:34%; Time (s): Elapsed=1.6943, Remaining=3.3
  #Exact exchange calculation:40%; Time (s): Elapsed=2.0383, Remaining=3.1
  #Exact exchange calculation:46%; Time (s): Elapsed=2.3803, Remaining=2.8
  #Exact exchange calculation:52%; Time (s): Elapsed=2.7403, Remaining=2.5
  #Exact exchange calculation:58%; Time (s): Elapsed=3.0638, Remaining=2.2
  #Exact exchange calculation:64%; Time (s): Elapsed=3.3907, Remaining=1.9
  #Exact exchange calculation:70%; Time (s): Elapsed=3.7229, Remaining=1.6
  #Exact exchange calculation:76%; Time (s): Elapsed=4.0551, Remaining=1.3
  #Exact exchange calculation:82%; Time (s): Elapsed=4.3851, Remaining=0.96
  #Exact exchange calculation:88%; Time (s): Elapsed=4.7339, Remaining=0.65
  #Exact exchange calculation:94%; Time (s): Elapsed=5.0701, Remaining=0.32
  #Exact exchange calculation:100%; Time (s): Elapsed=5.3762, Remaining=0.0
 Exact Exchange Energy       :  2.58716368342E+16
 Expected Exchange Energy    :  3.07548491532E+04
 Memory Consumption Report:
   Tot. No. of Allocations             :  2480
   Tot. No. of Deallocations           :  2480
   Remaining Memory (B)                :  0
   Memory occupation:
     Peak Value (MB)                   :  219.497
     for the array                     : zt
     in the routine                    : null
     Memory Peak of process            : 813.084 MB
 Walltime since initialization         :  00:00:06.983991526
 Max No. of dictionaries used          :  583 #( 241 still in use)
 Number of dictionary folders allocated:  1
