[0] MPI startup(): ===== GPU topology on compute23 =====
[0] MPI startup(): NUMA nodes : 2
[0] MPI startup(): GPUs       : 4
[0] MPI startup(): Tiles      : 8
[0] MPI startup(): NUMA Id	GPU Id         Tiles                          Ranks on this NUMA
[0] MPI startup(): 0      	0,1            (0,1)(2,3)                     0
[0] MPI startup(): 1      	2,3            (4,5)(6,7)                     
[0] MPI startup(): ===== GPU pinning on compute23 =====
[0] MPI startup(): Rank	Pin tile
[0] MPI startup(): 0	{0}
[0] MPI startup(): Intel(R) MPI Library, Version 2021.10  Build 20230619 (id: c2e19c2f3e)
[0] MPI startup(): Copyright (C) 2003-2023 Intel Corporation.  All rights reserved.
[0] MPI startup(): library kind: release
[0] MPI startup(): libfabric version: 1.18.0-impi
[0] MPI startup(): libfabric provider: psm3
compute23:rank0 PSM3_IDENTIFY PSM3 v3.0-oneapi-ze built for IEFS OFA DELTA 11_5_0_0_172
compute23:rank0 PSM3_IDENTIFY location /usr/lib64/libfabric/libpsm3-fi.so
compute23:rank0 PSM3_IDENTIFY build date 2023-05-15T09:53:40
compute23:rank0 PSM3_IDENTIFY src checksum 2c3eb379fd92530cd927d9f8b08506d7387c1d59
compute23:rank0 PSM3_IDENTIFY git checksum 97fdceb01fc41231a0a29e1df3f0f8ba760facd7
compute23:rank0 PSM3_IDENTIFY HAL: verbs (RDMA Verbs (oneapi-ze)) built against rv interface v1.4 gpu v1.3 oneapi-ze
compute23:rank0 PSM3_IDENTIFY Global Rank 0 (1 total) Local Rank 0 (1 total)
compute23:rank0 PSM3_IDENTIFY CPU Core 0 NUMA 0 PID 107826
compute23:rank0 PSM3_IDENTIFY run-time rv interface v1.4 user_mr gpu v1.3 oneapi-ze
compute23:rank0 PSM3_IDENTIFY NIC 0 (mlx5_0) Port 1 200000 Mbps NUMA 0 LID=14 GID=0xfe80000000000000:1070fd03005db0f0 QP=5204
[0] MPI startup(): Load tuning file: "/install/software/oneAPI/2023.2/mpi/2021.10.0/etc/tuning_skx_ofi_psm3.dat"
[0] MPI startup(): Rank    Pid      Node name  Pin cpu
[0] MPI startup(): 0       107826   compute23  {0,1,2,3,4,5,6,7,8,9,10,11,12,13,14,15,16,17,18,19,20,21,22,23,24,25,26,27,28,29,
                                 30,31,32,33,34,35,36,37,38,39,40,41,42,43,44,45,46,47,48,49,50,51,52,53,54,55,56
                                 ,57,58,59,60,61,62,63,64,65,66,67,68,69,70,71,72,73,74,75,76,77,78,79,80,81,82,8
                                 3,84,85,86,87,88,89,90,91,92,93,94,95,96,97,98,99,100,101,102,103,104,105,106,10
                                 7,108,109,110,111,112,113,114,115,116,117,118,119,120,121,122,123,124,125,126,12
                                 7,128,129,130,131,132,133,134,135,136,137,138,139,140,141,142,143,144,145,146,14
                                 7,148,149,150,151,152,153,154,155,156,157,158,159,160,161,162,163,164,165,166,16
                                 7,168,169,170,171,172,173,174,175,176,177,178,179,180,181,182,183,184,185,186,18
                                 7,188,189,190,191,192,193,194,195,196,197,198,199,200,201,202,203,204,205,206,20
                                 7,208,209,210,211,212,213,214,215,216,217,218,219,220,221,222,223}
---
 Reference Paper             : The Journal of Chemical Physics 137, 134108 (2012)
 Version Number              : PSolver 1.9
 Timestamp of this run       : 2023-10-31 08:08:05.373
 Root process Hostname       : compute23
 Poisson Kernel Creation:
   Boundary Conditions       : Free
   Memory Requirements per MPI task:
     Density (MB)            :  128.00
     Kernel (MB)             :  129.51
     Full Grid Arrays (MB)   :  128.00
   Kernel Copied on GPU      :  Yes
 Orbital repartition:
 -  [ 64]
  #Exact exchange calculation:100%; Time (s): Elapsed=38.7617, Remaining=0.0
 Exact Exchange Energy       :  1.31115852415E+09
 Expected Exchange Energy    :  3.98942280401E-01
 free_GPU_workarrays 0
 free_GPU_workarrays 1
 free_GPU_workarrays 2
 free_GPU_workarrays 3
 free_GPU_workarrays 4
 free_GPU_workarrays 5
 free_GPU_workarrays 6
 free_GPU_workarrays 7
 free_GPU_workarrays 8
 free_GPU_workarrays 9
 free_GPU_workarrays 10
 free_GPU_workarrays 11
 free_GPU_workarrays 12           2
 free_GPU_workarrays 13            2
 Memory Consumption Report:
   Tot. No. of Allocations             :  310
   Tot. No. of Deallocations           :  310
   Remaining Memory (B)                :  0
   Memory occupation:
     Peak Value (MB)                   :  17026.002
     for the array                     : displ_res
     in the routine                    : null
     Memory Peak of process            : 17916.348 MB
 Walltime since initialization         :  00:00:52.240717963
 Max No. of dictionaries used          :  591 #( 241 still in use)
 Number of dictionary folders allocated:  1
