[0] MPI startup(): Intel(R) MPI Library, Version 2021.10  Build 20230619 (id: c2e19c2f3e)
[0] MPI startup(): Copyright (C) 2003-2023 Intel Corporation.  All rights reserved.
[0] MPI startup(): library kind: release
[0] MPI startup(): libfabric version: 1.18.0-impi
compute41:rank1 PSM3_IDENTIFY PSM3 v3.0-oneapi-ze built for IEFS OFA DELTA 11_5_0_0_172
compute41:rank1 PSM3_IDENTIFY location /usr/lib64/libfabric/libpsm3-fi.so
compute41:rank1 PSM3_IDENTIFY build date 2023-05-15T09:53:40
compute41:rank1 PSM3_IDENTIFY src checksum 2c3eb379fd92530cd927d9f8b08506d7387c1d59
compute41:rank1 PSM3_IDENTIFY git checksum 97fdceb01fc41231a0a29e1df3f0f8ba760facd7
compute41:rank1 PSM3_IDENTIFY HAL: verbs (RDMA Verbs (oneapi-ze)) built against rv interface v1.4 gpu v1.3 oneapi-ze
compute41:rank1 PSM3_IDENTIFY Global Rank 1 (64 total) Local Rank 1 (16 total)
compute41:rank1 PSM3_IDENTIFY CPU Core 119 NUMA 0 PID 223213
compute41:rank6 PSM3_IDENTIFY PSM3 v3.0-oneapi-ze built for IEFS OFA DELTA 11_5_0_0_172
compute41:rank6 PSM3_IDENTIFY location /usr/lib64/libfabric/libpsm3-fi.so
compute41:rank6 PSM3_IDENTIFY build date 2023-05-15T09:53:40
compute41:rank6 PSM3_IDENTIFY src checksum 2c3eb379fd92530cd927d9f8b08506d7387c1d59
compute41:rank6 PSM3_IDENTIFY git checksum 97fdceb01fc41231a0a29e1df3f0f8ba760facd7
compute41:rank6 PSM3_IDENTIFY HAL: verbs (RDMA Verbs (oneapi-ze)) built against rv interface v1.4 gpu v1.3 oneapi-ze
compute41:rank6 PSM3_IDENTIFY Global Rank 6 (64 total) Local Rank 6 (16 total)
compute41:rank6 PSM3_IDENTIFY CPU Core 154 NUMA 0 PID 223218
compute41:rank4 PSM3_IDENTIFY PSM3 v3.0-oneapi-ze built for IEFS OFA DELTA 11_5_0_0_172
compute41:rank4 PSM3_IDENTIFY location /usr/lib64/libfabric/libpsm3-fi.so
compute41:rank4 PSM3_IDENTIFY build date 2023-05-15T09:53:40
compute41:rank4 PSM3_IDENTIFY src checksum 2c3eb379fd92530cd927d9f8b08506d7387c1d59
compute41:rank4 PSM3_IDENTIFY git checksum 97fdceb01fc41231a0a29e1df3f0f8ba760facd7
compute41:rank4 PSM3_IDENTIFY HAL: verbs (RDMA Verbs (oneapi-ze)) built against rv interface v1.4 gpu v1.3 oneapi-ze
compute41:rank4 PSM3_IDENTIFY Global Rank 4 (64 total) Local Rank 4 (16 total)
compute41:rank4 PSM3_IDENTIFY CPU Core 28 NUMA 0 PID 223216
compute41:rank15 PSM3_IDENTIFY PSM3 v3.0-oneapi-ze built for IEFS OFA DELTA 11_5_0_0_172
compute41:rank15 PSM3_IDENTIFY location /usr/lib64/libfabric/libpsm3-fi.so
compute41:rank15 PSM3_IDENTIFY build date 2023-05-15T09:53:40
compute41:rank15 PSM3_IDENTIFY src checksum 2c3eb379fd92530cd927d9f8b08506d7387c1d59
compute41:rank15 PSM3_IDENTIFY git checksum 97fdceb01fc41231a0a29e1df3f0f8ba760facd7
compute41:rank15 PSM3_IDENTIFY HAL: verbs (RDMA Verbs (oneapi-ze)) built against rv interface v1.4 gpu v1.3 oneapi-ze
compute41:rank15 PSM3_IDENTIFY Global Rank 15 (64 total) Local Rank 15 (16 total)
compute41:rank15 PSM3_IDENTIFY CPU Core 105 NUMA 1 PID 223227
compute42:rank29 PSM3_IDENTIFY PSM3 v3.0-oneapi-ze built for IEFS OFA DELTA 11_5_0_0_172
compute42:rank29 PSM3_IDENTIFY location /usr/lib64/libfabric/libpsm3-fi.so
compute42:rank29 PSM3_IDENTIFY build date 2023-05-15T09:53:40
compute42:rank29 PSM3_IDENTIFY src checksum 2c3eb379fd92530cd927d9f8b08506d7387c1d59
compute42:rank29 PSM3_IDENTIFY git checksum 97fdceb01fc41231a0a29e1df3f0f8ba760facd7
compute42:rank29 PSM3_IDENTIFY HAL: verbs (RDMA Verbs (oneapi-ze)) built against rv interface v1.4 gpu v1.3 oneapi-ze
compute42:rank29 PSM3_IDENTIFY Global Rank 29 (64 total) Local Rank 13 (16 total)
compute42:rank29 PSM3_IDENTIFY CPU Core 203 NUMA 1 PID 162157
compute41:rank10 PSM3_IDENTIFY PSM3 v3.0-oneapi-ze built for IEFS OFA DELTA 11_5_0_0_172
compute41:rank10 PSM3_IDENTIFY location /usr/lib64/libfabric/libpsm3-fi.so
compute41:rank10 PSM3_IDENTIFY build date 2023-05-15T09:53:40
compute41:rank10 PSM3_IDENTIFY src checksum 2c3eb379fd92530cd927d9f8b08506d7387c1d59
compute41:rank10 PSM3_IDENTIFY git checksum 97fdceb01fc41231a0a29e1df3f0f8ba760facd7
compute41:rank10 PSM3_IDENTIFY HAL: verbs (RDMA Verbs (oneapi-ze)) built against rv interface v1.4 gpu v1.3 oneapi-ze
compute41:rank10 PSM3_IDENTIFY Global Rank 10 (64 total) Local Rank 10 (16 total)
compute41:rank10 PSM3_IDENTIFY CPU Core 182 NUMA 1 PID 223222
compute41:rank3 PSM3_IDENTIFY PSM3 v3.0-oneapi-ze built for IEFS OFA DELTA 11_5_0_0_172
compute41:rank3 PSM3_IDENTIFY location /usr/lib64/libfabric/libpsm3-fi.so
compute41:rank3 PSM3_IDENTIFY build date 2023-05-15T09:53:40
compute41:rank3 PSM3_IDENTIFY src checksum 2c3eb379fd92530cd927d9f8b08506d7387c1d59
compute41:rank3 PSM3_IDENTIFY git checksum 97fdceb01fc41231a0a29e1df3f0f8ba760facd7
compute41:rank3 PSM3_IDENTIFY HAL: verbs (RDMA Verbs (oneapi-ze)) built against rv interface v1.4 gpu v1.3 oneapi-ze
compute41:rank3 PSM3_IDENTIFY Global Rank 3 (64 total) Local Rank 3 (16 total)
compute41:rank3 PSM3_IDENTIFY CPU Core 21 NUMA 0 PID 223215
compute41:rank2 PSM3_IDENTIFY PSM3 v3.0-oneapi-ze built for IEFS OFA DELTA 11_5_0_0_172
compute41:rank2 PSM3_IDENTIFY location /usr/lib64/libfabric/libpsm3-fi.so
compute41:rank2 PSM3_IDENTIFY build date 2023-05-15T09:53:40
compute41:rank2 PSM3_IDENTIFY src checksum 2c3eb379fd92530cd927d9f8b08506d7387c1d59
compute41:rank2 PSM3_IDENTIFY git checksum 97fdceb01fc41231a0a29e1df3f0f8ba760facd7
compute41:rank2 PSM3_IDENTIFY HAL: verbs (RDMA Verbs (oneapi-ze)) built against rv interface v1.4 gpu v1.3 oneapi-ze
compute41:rank2 PSM3_IDENTIFY Global Rank 2 (64 total) Local Rank 2 (16 total)
compute41:rank2 PSM3_IDENTIFY CPU Core 126 NUMA 0 PID 223214
compute44:rank53 PSM3_IDENTIFY PSM3 v3.0-oneapi-ze built for IEFS OFA DELTA 11_5_0_0_172
compute44:rank53 PSM3_IDENTIFY location /usr/lib64/libfabric/libpsm3-fi.so
compute44:rank53 PSM3_IDENTIFY build date 2023-05-15T09:53:40
compute44:rank53 PSM3_IDENTIFY src checksum 2c3eb379fd92530cd927d9f8b08506d7387c1d59
compute44:rank53 PSM3_IDENTIFY git checksum 97fdceb01fc41231a0a29e1df3f0f8ba760facd7
compute44:rank53 PSM3_IDENTIFY HAL: verbs (RDMA Verbs (oneapi-ze)) built against rv interface v1.4 gpu v1.3 oneapi-ze
compute44:rank53 PSM3_IDENTIFY Global Rank 53 (64 total) Local Rank 5 (16 total)
compute44:rank53 PSM3_IDENTIFY CPU Core 147 NUMA 0 PID 52718
compute41:rank7 PSM3_IDENTIFY PSM3 v3.0-oneapi-ze built for IEFS OFA DELTA 11_5_0_0_172
compute41:rank7 PSM3_IDENTIFY location /usr/lib64/libfabric/libpsm3-fi.so
compute41:rank7 PSM3_IDENTIFY build date 2023-05-15T09:53:40
compute41:rank7 PSM3_IDENTIFY src checksum 2c3eb379fd92530cd927d9f8b08506d7387c1d59
compute41:rank7 PSM3_IDENTIFY git checksum 97fdceb01fc41231a0a29e1df3f0f8ba760facd7
compute41:rank7 PSM3_IDENTIFY HAL: verbs (RDMA Verbs (oneapi-ze)) built against rv interface v1.4 gpu v1.3 oneapi-ze
compute41:rank7 PSM3_IDENTIFY Global Rank 7 (64 total) Local Rank 7 (16 total)
compute41:rank7 PSM3_IDENTIFY CPU Core 49 NUMA 0 PID 223219
compute44:rank56 PSM3_IDENTIFY PSM3 v3.0-oneapi-ze built for IEFS OFA DELTA 11_5_0_0_172
compute44:rank56 PSM3_IDENTIFY location /usr/lib64/libfabric/libpsm3-fi.so
compute44:rank56 PSM3_IDENTIFY build date 2023-05-15T09:53:40
compute44:rank56 PSM3_IDENTIFY src checksum 2c3eb379fd92530cd927d9f8b08506d7387c1d59
compute44:rank56 PSM3_IDENTIFY git checksum 97fdceb01fc41231a0a29e1df3f0f8ba760facd7
compute44:rank56 PSM3_IDENTIFY HAL: verbs (RDMA Verbs (oneapi-ze)) built against rv interface v1.4 gpu v1.3 oneapi-ze
compute44:rank56 PSM3_IDENTIFY Global Rank 56 (64 total) Local Rank 8 (16 total)
compute44:rank56 PSM3_IDENTIFY CPU Core 56 NUMA 1 PID 52721
compute44:rank58 PSM3_IDENTIFY PSM3 v3.0-oneapi-ze built for IEFS OFA DELTA 11_5_0_0_172
compute44:rank58 PSM3_IDENTIFY location /usr/lib64/libfabric/libpsm3-fi.so
compute44:rank58 PSM3_IDENTIFY build date 2023-05-15T09:53:40
compute44:rank58 PSM3_IDENTIFY src checksum 2c3eb379fd92530cd927d9f8b08506d7387c1d59
compute44:rank58 PSM3_IDENTIFY git checksum 97fdceb01fc41231a0a29e1df3f0f8ba760facd7
compute44:rank58 PSM3_IDENTIFY HAL: verbs (RDMA Verbs (oneapi-ze)) built against rv interface v1.4 gpu v1.3 oneapi-ze
compute44:rank58 PSM3_IDENTIFY Global Rank 58 (64 total) Local Rank 10 (16 total)
compute44:rank58 PSM3_IDENTIFY CPU Core 70 NUMA 1 PID 52723
compute41:rank9 PSM3_IDENTIFY PSM3 v3.0-oneapi-ze built for IEFS OFA DELTA 11_5_0_0_172
compute41:rank9 PSM3_IDENTIFY location /usr/lib64/libfabric/libpsm3-fi.so
compute41:rank9 PSM3_IDENTIFY build date 2023-05-15T09:53:40
compute41:rank9 PSM3_IDENTIFY src checksum 2c3eb379fd92530cd927d9f8b08506d7387c1d59
compute41:rank9 PSM3_IDENTIFY git checksum 97fdceb01fc41231a0a29e1df3f0f8ba760facd7
compute41:rank9 PSM3_IDENTIFY HAL: verbs (RDMA Verbs (oneapi-ze)) built against rv interface v1.4 gpu v1.3 oneapi-ze
compute41:rank9 PSM3_IDENTIFY Global Rank 9 (64 total) Local Rank 9 (16 total)
compute41:rank9 PSM3_IDENTIFY CPU Core 175 NUMA 1 PID 223221
compute44:rank57 PSM3_IDENTIFY PSM3 v3.0-oneapi-ze built for IEFS OFA DELTA 11_5_0_0_172
compute44:rank57 PSM3_IDENTIFY location /usr/lib64/libfabric/libpsm3-fi.so
compute44:rank57 PSM3_IDENTIFY build date 2023-05-15T09:53:40
compute44:rank57 PSM3_IDENTIFY src checksum 2c3eb379fd92530cd927d9f8b08506d7387c1d59
compute44:rank57 PSM3_IDENTIFY git checksum 97fdceb01fc41231a0a29e1df3f0f8ba760facd7
compute44:rank57 PSM3_IDENTIFY HAL: verbs (RDMA Verbs (oneapi-ze)) built against rv interface v1.4 gpu v1.3 oneapi-ze
compute44:rank57 PSM3_IDENTIFY Global Rank 57 (64 total) Local Rank 9 (16 total)
compute44:rank57 PSM3_IDENTIFY CPU Core 175 NUMA 1 PID 52722
compute41:rank11 PSM3_IDENTIFY PSM3 v3.0-oneapi-ze built for IEFS OFA DELTA 11_5_0_0_172
compute41:rank11 PSM3_IDENTIFY location /usr/lib64/libfabric/libpsm3-fi.so
compute41:rank11 PSM3_IDENTIFY build date 2023-05-15T09:53:40
compute41:rank11 PSM3_IDENTIFY src checksum 2c3eb379fd92530cd927d9f8b08506d7387c1d59
compute41:rank11 PSM3_IDENTIFY git checksum 97fdceb01fc41231a0a29e1df3f0f8ba760facd7
compute41:rank11 PSM3_IDENTIFY HAL: verbs (RDMA Verbs (oneapi-ze)) built against rv interface v1.4 gpu v1.3 oneapi-ze
compute41:rank11 PSM3_IDENTIFY Global Rank 11 (64 total) Local Rank 11 (16 total)
compute41:rank11 PSM3_IDENTIFY CPU Core 189 NUMA 1 PID 223223
compute44:rank52 PSM3_IDENTIFY PSM3 v3.0-oneapi-ze built for IEFS OFA DELTA 11_5_0_0_172
compute44:rank52 PSM3_IDENTIFY location /usr/lib64/libfabric/libpsm3-fi.so
compute44:rank52 PSM3_IDENTIFY build date 2023-05-15T09:53:40
compute44:rank52 PSM3_IDENTIFY src checksum 2c3eb379fd92530cd927d9f8b08506d7387c1d59
compute44:rank52 PSM3_IDENTIFY git checksum 97fdceb01fc41231a0a29e1df3f0f8ba760facd7
compute44:rank52 PSM3_IDENTIFY HAL: verbs (RDMA Verbs (oneapi-ze)) built against rv interface v1.4 gpu v1.3 oneapi-ze
compute44:rank52 PSM3_IDENTIFY Global Rank 52 (64 total) Local Rank 4 (16 total)
compute44:rank52 PSM3_IDENTIFY CPU Core 140 NUMA 0 PID 52717
[0] MPI startup(): libfabric provider: psm3
compute41:rank0 PSM3_IDENTIFY PSM3 v3.0-oneapi-ze built for IEFS OFA DELTA 11_5_0_0_172
compute41:rank0 PSM3_IDENTIFY location /usr/lib64/libfabric/libpsm3-fi.so
compute41:rank0 PSM3_IDENTIFY build date 2023-05-15T09:53:40
compute41:rank0 PSM3_IDENTIFY src checksum 2c3eb379fd92530cd927d9f8b08506d7387c1d59
compute41:rank0 PSM3_IDENTIFY git checksum 97fdceb01fc41231a0a29e1df3f0f8ba760facd7
compute41:rank0 PSM3_IDENTIFY HAL: verbs (RDMA Verbs (oneapi-ze)) built against rv interface v1.4 gpu v1.3 oneapi-ze
compute41:rank0 PSM3_IDENTIFY Global Rank 0 (64 total) Local Rank 0 (16 total)
compute41:rank0 PSM3_IDENTIFY CPU Core 0 NUMA 0 PID 223212
compute41:rank13 PSM3_IDENTIFY PSM3 v3.0-oneapi-ze built for IEFS OFA DELTA 11_5_0_0_172
compute41:rank13 PSM3_IDENTIFY location /usr/lib64/libfabric/libpsm3-fi.so
compute41:rank13 PSM3_IDENTIFY build date 2023-05-15T09:53:40
compute41:rank13 PSM3_IDENTIFY src checksum 2c3eb379fd92530cd927d9f8b08506d7387c1d59
compute41:rank13 PSM3_IDENTIFY git checksum 97fdceb01fc41231a0a29e1df3f0f8ba760facd7
compute41:rank13 PSM3_IDENTIFY HAL: verbs (RDMA Verbs (oneapi-ze)) built against rv interface v1.4 gpu v1.3 oneapi-ze
compute41:rank13 PSM3_IDENTIFY Global Rank 13 (64 total) Local Rank 13 (16 total)
compute41:rank13 PSM3_IDENTIFY CPU Core 203 NUMA 1 PID 223225
compute41:rank5 PSM3_IDENTIFY PSM3 v3.0-oneapi-ze built for IEFS OFA DELTA 11_5_0_0_172
compute41:rank5 PSM3_IDENTIFY location /usr/lib64/libfabric/libpsm3-fi.so
compute41:rank5 PSM3_IDENTIFY build date 2023-05-15T09:53:40
compute41:rank5 PSM3_IDENTIFY src checksum 2c3eb379fd92530cd927d9f8b08506d7387c1d59
compute41:rank5 PSM3_IDENTIFY git checksum 97fdceb01fc41231a0a29e1df3f0f8ba760facd7
compute41:rank5 PSM3_IDENTIFY HAL: verbs (RDMA Verbs (oneapi-ze)) built against rv interface v1.4 gpu v1.3 oneapi-ze
compute41:rank5 PSM3_IDENTIFY Global Rank 5 (64 total) Local Rank 5 (16 total)
compute41:rank5 PSM3_IDENTIFY CPU Core 147 NUMA 0 PID 223217
compute41:rank14 PSM3_IDENTIFY PSM3 v3.0-oneapi-ze built for IEFS OFA DELTA 11_5_0_0_172
compute41:rank14 PSM3_IDENTIFY location /usr/lib64/libfabric/libpsm3-fi.so
compute41:rank14 PSM3_IDENTIFY build date 2023-05-15T09:53:40
compute41:rank14 PSM3_IDENTIFY src checksum 2c3eb379fd92530cd927d9f8b08506d7387c1d59
compute41:rank14 PSM3_IDENTIFY git checksum 97fdceb01fc41231a0a29e1df3f0f8ba760facd7
compute41:rank14 PSM3_IDENTIFY HAL: verbs (RDMA Verbs (oneapi-ze)) built against rv interface v1.4 gpu v1.3 oneapi-ze
compute41:rank14 PSM3_IDENTIFY Global Rank 14 (64 total) Local Rank 14 (16 total)
compute41:rank14 PSM3_IDENTIFY CPU Core 210 NUMA 1 PID 223226
compute41:rank12 PSM3_IDENTIFY PSM3 v3.0-oneapi-ze built for IEFS OFA DELTA 11_5_0_0_172
compute41:rank12 PSM3_IDENTIFY location /usr/lib64/libfabric/libpsm3-fi.so
compute41:rank12 PSM3_IDENTIFY build date 2023-05-15T09:53:40
compute41:rank12 PSM3_IDENTIFY src checksum 2c3eb379fd92530cd927d9f8b08506d7387c1d59
compute41:rank12 PSM3_IDENTIFY git checksum 97fdceb01fc41231a0a29e1df3f0f8ba760facd7
compute41:rank12 PSM3_IDENTIFY HAL: verbs (RDMA Verbs (oneapi-ze)) built against rv interface v1.4 gpu v1.3 oneapi-ze
compute41:rank12 PSM3_IDENTIFY Global Rank 12 (64 total) Local Rank 12 (16 total)
compute41:rank12 PSM3_IDENTIFY CPU Core 84 NUMA 1 PID 223224
compute41:rank8 PSM3_IDENTIFY PSM3 v3.0-oneapi-ze built for IEFS OFA DELTA 11_5_0_0_172
compute41:rank8 PSM3_IDENTIFY location /usr/lib64/libfabric/libpsm3-fi.so
compute41:rank8 PSM3_IDENTIFY build date 2023-05-15T09:53:40
compute41:rank8 PSM3_IDENTIFY src checksum 2c3eb379fd92530cd927d9f8b08506d7387c1d59
compute41:rank8 PSM3_IDENTIFY git checksum 97fdceb01fc41231a0a29e1df3f0f8ba760facd7
compute41:rank8 PSM3_IDENTIFY HAL: verbs (RDMA Verbs (oneapi-ze)) built against rv interface v1.4 gpu v1.3 oneapi-ze
compute41:rank8 PSM3_IDENTIFY Global Rank 8 (64 total) Local Rank 8 (16 total)
compute41:rank8 PSM3_IDENTIFY CPU Core 168 NUMA 1 PID 223220
compute44:rank59 PSM3_IDENTIFY PSM3 v3.0-oneapi-ze built for IEFS OFA DELTA 11_5_0_0_172
compute44:rank59 PSM3_IDENTIFY location /usr/lib64/libfabric/libpsm3-fi.so
compute44:rank59 PSM3_IDENTIFY build date 2023-05-15T09:53:40
compute44:rank59 PSM3_IDENTIFY src checksum 2c3eb379fd92530cd927d9f8b08506d7387c1d59
compute44:rank59 PSM3_IDENTIFY git checksum 97fdceb01fc41231a0a29e1df3f0f8ba760facd7
compute44:rank59 PSM3_IDENTIFY HAL: verbs (RDMA Verbs (oneapi-ze)) built against rv interface v1.4 gpu v1.3 oneapi-ze
compute44:rank59 PSM3_IDENTIFY Global Rank 59 (64 total) Local Rank 11 (16 total)
compute44:rank59 PSM3_IDENTIFY CPU Core 189 NUMA 1 PID 52724
compute42:rank28 PSM3_IDENTIFY PSM3 v3.0-oneapi-ze built for IEFS OFA DELTA 11_5_0_0_172
compute42:rank28 PSM3_IDENTIFY location /usr/lib64/libfabric/libpsm3-fi.so
compute42:rank28 PSM3_IDENTIFY build date 2023-05-15T09:53:40
compute42:rank28 PSM3_IDENTIFY src checksum 2c3eb379fd92530cd927d9f8b08506d7387c1d59
compute42:rank28 PSM3_IDENTIFY git checksum 97fdceb01fc41231a0a29e1df3f0f8ba760facd7
compute42:rank28 PSM3_IDENTIFY HAL: verbs (RDMA Verbs (oneapi-ze)) built against rv interface v1.4 gpu v1.3 oneapi-ze
compute42:rank28 PSM3_IDENTIFY Global Rank 28 (64 total) Local Rank 12 (16 total)
compute42:rank28 PSM3_IDENTIFY CPU Core 84 NUMA 1 PID 162156
compute43:rank46 PSM3_IDENTIFY PSM3 v3.0-oneapi-ze built for IEFS OFA DELTA 11_5_0_0_172
compute43:rank46 PSM3_IDENTIFY location /usr/lib64/libfabric/libpsm3-fi.so
compute43:rank46 PSM3_IDENTIFY build date 2023-05-15T09:53:40
compute43:rank46 PSM3_IDENTIFY src checksum 2c3eb379fd92530cd927d9f8b08506d7387c1d59
compute43:rank46 PSM3_IDENTIFY git checksum 97fdceb01fc41231a0a29e1df3f0f8ba760facd7
compute43:rank46 PSM3_IDENTIFY HAL: verbs (RDMA Verbs (oneapi-ze)) built against rv interface v1.4 gpu v1.3 oneapi-ze
compute43:rank46 PSM3_IDENTIFY Global Rank 46 (64 total) Local Rank 14 (16 total)
compute43:rank46 PSM3_IDENTIFY CPU Core 210 NUMA 1 PID 136008
compute42:rank22 PSM3_IDENTIFY PSM3 v3.0-oneapi-ze built for IEFS OFA DELTA 11_5_0_0_172
compute42:rank22 PSM3_IDENTIFY location /usr/lib64/libfabric/libpsm3-fi.so
compute42:rank22 PSM3_IDENTIFY build date 2023-05-15T09:53:40
compute42:rank22 PSM3_IDENTIFY src checksum 2c3eb379fd92530cd927d9f8b08506d7387c1d59
compute42:rank22 PSM3_IDENTIFY git checksum 97fdceb01fc41231a0a29e1df3f0f8ba760facd7
compute42:rank22 PSM3_IDENTIFY HAL: verbs (RDMA Verbs (oneapi-ze)) built against rv interface v1.4 gpu v1.3 oneapi-ze
compute42:rank22 PSM3_IDENTIFY Global Rank 22 (64 total) Local Rank 6 (16 total)
compute42:rank22 PSM3_IDENTIFY CPU Core 154 NUMA 0 PID 162150
compute42:rank18 PSM3_IDENTIFY PSM3 v3.0-oneapi-ze built for IEFS OFA DELTA 11_5_0_0_172
compute42:rank18 PSM3_IDENTIFY location /usr/lib64/libfabric/libpsm3-fi.so
compute42:rank18 PSM3_IDENTIFY build date 2023-05-15T09:53:40
compute42:rank18 PSM3_IDENTIFY src checksum 2c3eb379fd92530cd927d9f8b08506d7387c1d59
compute42:rank18 PSM3_IDENTIFY git checksum 97fdceb01fc41231a0a29e1df3f0f8ba760facd7
compute42:rank18 PSM3_IDENTIFY HAL: verbs (RDMA Verbs (oneapi-ze)) built against rv interface v1.4 gpu v1.3 oneapi-ze
compute42:rank18 PSM3_IDENTIFY Global Rank 18 (64 total) Local Rank 2 (16 total)
compute42:rank18 PSM3_IDENTIFY CPU Core 126 NUMA 0 PID 162146
compute42:rank27 PSM3_IDENTIFY PSM3 v3.0-oneapi-ze built for IEFS OFA DELTA 11_5_0_0_172
compute42:rank27 PSM3_IDENTIFY location /usr/lib64/libfabric/libpsm3-fi.so
compute42:rank27 PSM3_IDENTIFY build date 2023-05-15T09:53:40
compute42:rank27 PSM3_IDENTIFY src checksum 2c3eb379fd92530cd927d9f8b08506d7387c1d59
compute42:rank27 PSM3_IDENTIFY git checksum 97fdceb01fc41231a0a29e1df3f0f8ba760facd7
compute42:rank27 PSM3_IDENTIFY HAL: verbs (RDMA Verbs (oneapi-ze)) built against rv interface v1.4 gpu v1.3 oneapi-ze
compute42:rank27 PSM3_IDENTIFY Global Rank 27 (64 total) Local Rank 11 (16 total)
compute42:rank27 PSM3_IDENTIFY CPU Core 189 NUMA 1 PID 162155
compute43:rank36 PSM3_IDENTIFY PSM3 v3.0-oneapi-ze built for IEFS OFA DELTA 11_5_0_0_172
compute43:rank36 PSM3_IDENTIFY location /usr/lib64/libfabric/libpsm3-fi.so
compute43:rank36 PSM3_IDENTIFY build date 2023-05-15T09:53:40
compute43:rank36 PSM3_IDENTIFY src checksum 2c3eb379fd92530cd927d9f8b08506d7387c1d59
compute43:rank36 PSM3_IDENTIFY git checksum 97fdceb01fc41231a0a29e1df3f0f8ba760facd7
compute43:rank36 PSM3_IDENTIFY HAL: verbs (RDMA Verbs (oneapi-ze)) built against rv interface v1.4 gpu v1.3 oneapi-ze
compute43:rank36 PSM3_IDENTIFY Global Rank 36 (64 total) Local Rank 4 (16 total)
compute43:rank36 PSM3_IDENTIFY CPU Core 29 NUMA 0 PID 135998
compute44:rank60 PSM3_IDENTIFY PSM3 v3.0-oneapi-ze built for IEFS OFA DELTA 11_5_0_0_172
compute44:rank60 PSM3_IDENTIFY location /usr/lib64/libfabric/libpsm3-fi.so
compute44:rank60 PSM3_IDENTIFY build date 2023-05-15T09:53:40
compute44:rank60 PSM3_IDENTIFY src checksum 2c3eb379fd92530cd927d9f8b08506d7387c1d59
compute44:rank60 PSM3_IDENTIFY git checksum 97fdceb01fc41231a0a29e1df3f0f8ba760facd7
compute44:rank60 PSM3_IDENTIFY HAL: verbs (RDMA Verbs (oneapi-ze)) built against rv interface v1.4 gpu v1.3 oneapi-ze
compute44:rank60 PSM3_IDENTIFY Global Rank 60 (64 total) Local Rank 12 (16 total)
compute44:rank60 PSM3_IDENTIFY CPU Core 84 NUMA 1 PID 52725
compute44:rank62 PSM3_IDENTIFY PSM3 v3.0-oneapi-ze built for IEFS OFA DELTA 11_5_0_0_172
compute44:rank62 PSM3_IDENTIFY location /usr/lib64/libfabric/libpsm3-fi.so
compute44:rank62 PSM3_IDENTIFY build date 2023-05-15T09:53:40
compute44:rank62 PSM3_IDENTIFY src checksum 2c3eb379fd92530cd927d9f8b08506d7387c1d59
compute44:rank62 PSM3_IDENTIFY git checksum 97fdceb01fc41231a0a29e1df3f0f8ba760facd7
compute44:rank62 PSM3_IDENTIFY HAL: verbs (RDMA Verbs (oneapi-ze)) built against rv interface v1.4 gpu v1.3 oneapi-ze
compute44:rank62 PSM3_IDENTIFY Global Rank 62 (64 total) Local Rank 14 (16 total)
compute44:rank62 PSM3_IDENTIFY CPU Core 98 NUMA 1 PID 52727
compute44:rank51 PSM3_IDENTIFY PSM3 v3.0-oneapi-ze built for IEFS OFA DELTA 11_5_0_0_172
compute44:rank51 PSM3_IDENTIFY location /usr/lib64/libfabric/libpsm3-fi.so
compute44:rank51 PSM3_IDENTIFY build date 2023-05-15T09:53:40
compute44:rank51 PSM3_IDENTIFY src checksum 2c3eb379fd92530cd927d9f8b08506d7387c1d59
compute44:rank51 PSM3_IDENTIFY git checksum 97fdceb01fc41231a0a29e1df3f0f8ba760facd7
compute44:rank51 PSM3_IDENTIFY HAL: verbs (RDMA Verbs (oneapi-ze)) built against rv interface v1.4 gpu v1.3 oneapi-ze
compute44:rank51 PSM3_IDENTIFY Global Rank 51 (64 total) Local Rank 3 (16 total)
compute44:rank51 PSM3_IDENTIFY CPU Core 22 NUMA 0 PID 52716
compute43:rank34 PSM3_IDENTIFY PSM3 v3.0-oneapi-ze built for IEFS OFA DELTA 11_5_0_0_172
compute43:rank34 PSM3_IDENTIFY location /usr/lib64/libfabric/libpsm3-fi.so
compute43:rank34 PSM3_IDENTIFY build date 2023-05-15T09:53:40
compute43:rank34 PSM3_IDENTIFY src checksum 2c3eb379fd92530cd927d9f8b08506d7387c1d59
compute43:rank34 PSM3_IDENTIFY git checksum 97fdceb01fc41231a0a29e1df3f0f8ba760facd7
compute43:rank34 PSM3_IDENTIFY HAL: verbs (RDMA Verbs (oneapi-ze)) built against rv interface v1.4 gpu v1.3 oneapi-ze
compute43:rank34 PSM3_IDENTIFY Global Rank 34 (64 total) Local Rank 2 (16 total)
compute43:rank34 PSM3_IDENTIFY CPU Core 126 NUMA 0 PID 135996
compute43:rank38 PSM3_IDENTIFY PSM3 v3.0-oneapi-ze built for IEFS OFA DELTA 11_5_0_0_172
compute43:rank38 PSM3_IDENTIFY location /usr/lib64/libfabric/libpsm3-fi.so
compute43:rank38 PSM3_IDENTIFY build date 2023-05-15T09:53:40
compute43:rank38 PSM3_IDENTIFY src checksum 2c3eb379fd92530cd927d9f8b08506d7387c1d59
compute43:rank38 PSM3_IDENTIFY git checksum 97fdceb01fc41231a0a29e1df3f0f8ba760facd7
compute43:rank38 PSM3_IDENTIFY HAL: verbs (RDMA Verbs (oneapi-ze)) built against rv interface v1.4 gpu v1.3 oneapi-ze
compute43:rank38 PSM3_IDENTIFY Global Rank 38 (64 total) Local Rank 6 (16 total)
compute43:rank38 PSM3_IDENTIFY CPU Core 42 NUMA 0 PID 136000
compute43:rank35 PSM3_IDENTIFY PSM3 v3.0-oneapi-ze built for IEFS OFA DELTA 11_5_0_0_172
compute43:rank35 PSM3_IDENTIFY location /usr/lib64/libfabric/libpsm3-fi.so
compute43:rank35 PSM3_IDENTIFY build date 2023-05-15T09:53:40
compute43:rank35 PSM3_IDENTIFY src checksum 2c3eb379fd92530cd927d9f8b08506d7387c1d59
compute43:rank35 PSM3_IDENTIFY git checksum 97fdceb01fc41231a0a29e1df3f0f8ba760facd7
compute43:rank35 PSM3_IDENTIFY HAL: verbs (RDMA Verbs (oneapi-ze)) built against rv interface v1.4 gpu v1.3 oneapi-ze
compute43:rank35 PSM3_IDENTIFY Global Rank 35 (64 total) Local Rank 3 (16 total)
compute43:rank35 PSM3_IDENTIFY CPU Core 134 NUMA 0 PID 135997
compute43:rank45 PSM3_IDENTIFY PSM3 v3.0-oneapi-ze built for IEFS OFA DELTA 11_5_0_0_172
compute43:rank45 PSM3_IDENTIFY location /usr/lib64/libfabric/libpsm3-fi.so
compute43:rank45 PSM3_IDENTIFY build date 2023-05-15T09:53:40
compute43:rank45 PSM3_IDENTIFY src checksum 2c3eb379fd92530cd927d9f8b08506d7387c1d59
compute43:rank45 PSM3_IDENTIFY git checksum 97fdceb01fc41231a0a29e1df3f0f8ba760facd7
compute43:rank45 PSM3_IDENTIFY HAL: verbs (RDMA Verbs (oneapi-ze)) built against rv interface v1.4 gpu v1.3 oneapi-ze
compute43:rank45 PSM3_IDENTIFY Global Rank 45 (64 total) Local Rank 13 (16 total)
compute43:rank45 PSM3_IDENTIFY CPU Core 203 NUMA 1 PID 136007
compute44:rank49 PSM3_IDENTIFY PSM3 v3.0-oneapi-ze built for IEFS OFA DELTA 11_5_0_0_172
compute44:rank49 PSM3_IDENTIFY location /usr/lib64/libfabric/libpsm3-fi.so
compute44:rank49 PSM3_IDENTIFY build date 2023-05-15T09:53:40
compute44:rank49 PSM3_IDENTIFY src checksum 2c3eb379fd92530cd927d9f8b08506d7387c1d59
compute44:rank49 PSM3_IDENTIFY git checksum 97fdceb01fc41231a0a29e1df3f0f8ba760facd7
compute44:rank49 PSM3_IDENTIFY HAL: verbs (RDMA Verbs (oneapi-ze)) built against rv interface v1.4 gpu v1.3 oneapi-ze
compute44:rank49 PSM3_IDENTIFY Global Rank 49 (64 total) Local Rank 1 (16 total)
compute44:rank49 PSM3_IDENTIFY CPU Core 119 NUMA 0 PID 52714
compute43:rank37 PSM3_IDENTIFY PSM3 v3.0-oneapi-ze built for IEFS OFA DELTA 11_5_0_0_172
compute43:rank37 PSM3_IDENTIFY location /usr/lib64/libfabric/libpsm3-fi.so
compute43:rank37 PSM3_IDENTIFY build date 2023-05-15T09:53:40
compute43:rank37 PSM3_IDENTIFY src checksum 2c3eb379fd92530cd927d9f8b08506d7387c1d59
compute43:rank37 PSM3_IDENTIFY git checksum 97fdceb01fc41231a0a29e1df3f0f8ba760facd7
compute43:rank37 PSM3_IDENTIFY HAL: verbs (RDMA Verbs (oneapi-ze)) built against rv interface v1.4 gpu v1.3 oneapi-ze
compute43:rank37 PSM3_IDENTIFY Global Rank 37 (64 total) Local Rank 5 (16 total)
compute43:rank37 PSM3_IDENTIFY CPU Core 148 NUMA 0 PID 135999
compute43:rank43 PSM3_IDENTIFY PSM3 v3.0-oneapi-ze built for IEFS OFA DELTA 11_5_0_0_172
compute43:rank43 PSM3_IDENTIFY location /usr/lib64/libfabric/libpsm3-fi.so
compute43:rank43 PSM3_IDENTIFY build date 2023-05-15T09:53:40
compute43:rank43 PSM3_IDENTIFY src checksum 2c3eb379fd92530cd927d9f8b08506d7387c1d59
compute43:rank43 PSM3_IDENTIFY git checksum 97fdceb01fc41231a0a29e1df3f0f8ba760facd7
compute43:rank43 PSM3_IDENTIFY HAL: verbs (RDMA Verbs (oneapi-ze)) built against rv interface v1.4 gpu v1.3 oneapi-ze
compute43:rank43 PSM3_IDENTIFY Global Rank 43 (64 total) Local Rank 11 (16 total)
compute43:rank43 PSM3_IDENTIFY CPU Core 77 NUMA 1 PID 136005
compute43:rank33 PSM3_IDENTIFY PSM3 v3.0-oneapi-ze built for IEFS OFA DELTA 11_5_0_0_172
compute43:rank33 PSM3_IDENTIFY location /usr/lib64/libfabric/libpsm3-fi.so
compute43:rank33 PSM3_IDENTIFY build date 2023-05-15T09:53:40
compute43:rank33 PSM3_IDENTIFY src checksum 2c3eb379fd92530cd927d9f8b08506d7387c1d59
compute43:rank33 PSM3_IDENTIFY git checksum 97fdceb01fc41231a0a29e1df3f0f8ba760facd7
compute43:rank33 PSM3_IDENTIFY HAL: verbs (RDMA Verbs (oneapi-ze)) built against rv interface v1.4 gpu v1.3 oneapi-ze
compute43:rank33 PSM3_IDENTIFY Global Rank 33 (64 total) Local Rank 1 (16 total)
compute43:rank33 PSM3_IDENTIFY CPU Core 8 NUMA 0 PID 135995
compute44:rank48 PSM3_IDENTIFY PSM3 v3.0-oneapi-ze built for IEFS OFA DELTA 11_5_0_0_172
compute44:rank48 PSM3_IDENTIFY location /usr/lib64/libfabric/libpsm3-fi.so
compute44:rank48 PSM3_IDENTIFY build date 2023-05-15T09:53:40
compute44:rank48 PSM3_IDENTIFY src checksum 2c3eb379fd92530cd927d9f8b08506d7387c1d59
compute44:rank48 PSM3_IDENTIFY git checksum 97fdceb01fc41231a0a29e1df3f0f8ba760facd7
compute44:rank48 PSM3_IDENTIFY HAL: verbs (RDMA Verbs (oneapi-ze)) built against rv interface v1.4 gpu v1.3 oneapi-ze
compute44:rank48 PSM3_IDENTIFY Global Rank 48 (64 total) Local Rank 0 (16 total)
compute44:rank48 PSM3_IDENTIFY CPU Core 2 NUMA 0 PID 52713
compute43:rank32 PSM3_IDENTIFY PSM3 v3.0-oneapi-ze built for IEFS OFA DELTA 11_5_0_0_172
compute43:rank32 PSM3_IDENTIFY location /usr/lib64/libfabric/libpsm3-fi.so
compute43:rank32 PSM3_IDENTIFY build date 2023-05-15T09:53:40
compute43:rank32 PSM3_IDENTIFY src checksum 2c3eb379fd92530cd927d9f8b08506d7387c1d59
compute43:rank32 PSM3_IDENTIFY git checksum 97fdceb01fc41231a0a29e1df3f0f8ba760facd7
compute43:rank32 PSM3_IDENTIFY HAL: verbs (RDMA Verbs (oneapi-ze)) built against rv interface v1.4 gpu v1.3 oneapi-ze
compute43:rank32 PSM3_IDENTIFY Global Rank 32 (64 total) Local Rank 0 (16 total)
compute43:rank32 PSM3_IDENTIFY CPU Core 1 NUMA 0 PID 135994
compute43:rank39 PSM3_IDENTIFY PSM3 v3.0-oneapi-ze built for IEFS OFA DELTA 11_5_0_0_172
compute43:rank39 PSM3_IDENTIFY location /usr/lib64/libfabric/libpsm3-fi.so
compute43:rank39 PSM3_IDENTIFY build date 2023-05-15T09:53:40
compute43:rank39 PSM3_IDENTIFY src checksum 2c3eb379fd92530cd927d9f8b08506d7387c1d59
compute43:rank39 PSM3_IDENTIFY git checksum 97fdceb01fc41231a0a29e1df3f0f8ba760facd7
compute43:rank39 PSM3_IDENTIFY HAL: verbs (RDMA Verbs (oneapi-ze)) built against rv interface v1.4 gpu v1.3 oneapi-ze
compute43:rank39 PSM3_IDENTIFY Global Rank 39 (64 total) Local Rank 7 (16 total)
compute43:rank39 PSM3_IDENTIFY CPU Core 161 NUMA 0 PID 136001
compute42:rank19 PSM3_IDENTIFY PSM3 v3.0-oneapi-ze built for IEFS OFA DELTA 11_5_0_0_172
compute42:rank19 PSM3_IDENTIFY location /usr/lib64/libfabric/libpsm3-fi.so
compute42:rank19 PSM3_IDENTIFY build date 2023-05-15T09:53:40
compute42:rank19 PSM3_IDENTIFY src checksum 2c3eb379fd92530cd927d9f8b08506d7387c1d59
compute42:rank19 PSM3_IDENTIFY git checksum 97fdceb01fc41231a0a29e1df3f0f8ba760facd7
compute42:rank19 PSM3_IDENTIFY HAL: verbs (RDMA Verbs (oneapi-ze)) built against rv interface v1.4 gpu v1.3 oneapi-ze
compute42:rank19 PSM3_IDENTIFY Global Rank 19 (64 total) Local Rank 3 (16 total)
compute42:rank19 PSM3_IDENTIFY CPU Core 133 NUMA 0 PID 162147
compute42:rank31 PSM3_IDENTIFY PSM3 v3.0-oneapi-ze built for IEFS OFA DELTA 11_5_0_0_172
compute42:rank31 PSM3_IDENTIFY location /usr/lib64/libfabric/libpsm3-fi.so
compute42:rank31 PSM3_IDENTIFY build date 2023-05-15T09:53:40
compute42:rank31 PSM3_IDENTIFY src checksum 2c3eb379fd92530cd927d9f8b08506d7387c1d59
compute42:rank31 PSM3_IDENTIFY git checksum 97fdceb01fc41231a0a29e1df3f0f8ba760facd7
compute42:rank31 PSM3_IDENTIFY HAL: verbs (RDMA Verbs (oneapi-ze)) built against rv interface v1.4 gpu v1.3 oneapi-ze
compute42:rank31 PSM3_IDENTIFY Global Rank 31 (64 total) Local Rank 15 (16 total)
compute42:rank31 PSM3_IDENTIFY CPU Core 217 NUMA 1 PID 162159
compute42:rank25 PSM3_IDENTIFY PSM3 v3.0-oneapi-ze built for IEFS OFA DELTA 11_5_0_0_172
compute42:rank25 PSM3_IDENTIFY location /usr/lib64/libfabric/libpsm3-fi.so
compute42:rank25 PSM3_IDENTIFY build date 2023-05-15T09:53:40
compute42:rank25 PSM3_IDENTIFY src checksum 2c3eb379fd92530cd927d9f8b08506d7387c1d59
compute42:rank25 PSM3_IDENTIFY git checksum 97fdceb01fc41231a0a29e1df3f0f8ba760facd7
compute42:rank25 PSM3_IDENTIFY HAL: verbs (RDMA Verbs (oneapi-ze)) built against rv interface v1.4 gpu v1.3 oneapi-ze
compute42:rank25 PSM3_IDENTIFY Global Rank 25 (64 total) Local Rank 9 (16 total)
compute42:rank25 PSM3_IDENTIFY CPU Core 63 NUMA 1 PID 162153
compute42:rank21 PSM3_IDENTIFY PSM3 v3.0-oneapi-ze built for IEFS OFA DELTA 11_5_0_0_172
compute42:rank21 PSM3_IDENTIFY location /usr/lib64/libfabric/libpsm3-fi.so
compute42:rank21 PSM3_IDENTIFY build date 2023-05-15T09:53:40
compute42:rank21 PSM3_IDENTIFY src checksum 2c3eb379fd92530cd927d9f8b08506d7387c1d59
compute42:rank21 PSM3_IDENTIFY git checksum 97fdceb01fc41231a0a29e1df3f0f8ba760facd7
compute42:rank21 PSM3_IDENTIFY HAL: verbs (RDMA Verbs (oneapi-ze)) built against rv interface v1.4 gpu v1.3 oneapi-ze
compute42:rank21 PSM3_IDENTIFY Global Rank 21 (64 total) Local Rank 5 (16 total)
compute42:rank21 PSM3_IDENTIFY CPU Core 35 NUMA 0 PID 162149
compute42:rank23 PSM3_IDENTIFY PSM3 v3.0-oneapi-ze built for IEFS OFA DELTA 11_5_0_0_172
compute42:rank23 PSM3_IDENTIFY location /usr/lib64/libfabric/libpsm3-fi.so
compute42:rank23 PSM3_IDENTIFY build date 2023-05-15T09:53:40
compute42:rank23 PSM3_IDENTIFY src checksum 2c3eb379fd92530cd927d9f8b08506d7387c1d59
compute42:rank23 PSM3_IDENTIFY git checksum 97fdceb01fc41231a0a29e1df3f0f8ba760facd7
compute42:rank23 PSM3_IDENTIFY HAL: verbs (RDMA Verbs (oneapi-ze)) built against rv interface v1.4 gpu v1.3 oneapi-ze
compute42:rank23 PSM3_IDENTIFY Global Rank 23 (64 total) Local Rank 7 (16 total)
compute42:rank23 PSM3_IDENTIFY CPU Core 49 NUMA 0 PID 162151
compute44:rank63 PSM3_IDENTIFY PSM3 v3.0-oneapi-ze built for IEFS OFA DELTA 11_5_0_0_172
compute44:rank63 PSM3_IDENTIFY location /usr/lib64/libfabric/libpsm3-fi.so
compute44:rank63 PSM3_IDENTIFY build date 2023-05-15T09:53:40
compute44:rank63 PSM3_IDENTIFY src checksum 2c3eb379fd92530cd927d9f8b08506d7387c1d59
compute44:rank63 PSM3_IDENTIFY git checksum 97fdceb01fc41231a0a29e1df3f0f8ba760facd7
compute44:rank63 PSM3_IDENTIFY HAL: verbs (RDMA Verbs (oneapi-ze)) built against rv interface v1.4 gpu v1.3 oneapi-ze
compute44:rank63 PSM3_IDENTIFY Global Rank 63 (64 total) Local Rank 15 (16 total)
compute44:rank63 PSM3_IDENTIFY CPU Core 105 NUMA 1 PID 52728
compute43:rank47 PSM3_IDENTIFY PSM3 v3.0-oneapi-ze built for IEFS OFA DELTA 11_5_0_0_172
compute43:rank47 PSM3_IDENTIFY location /usr/lib64/libfabric/libpsm3-fi.so
compute43:rank47 PSM3_IDENTIFY build date 2023-05-15T09:53:40
compute43:rank47 PSM3_IDENTIFY src checksum 2c3eb379fd92530cd927d9f8b08506d7387c1d59
compute43:rank47 PSM3_IDENTIFY git checksum 97fdceb01fc41231a0a29e1df3f0f8ba760facd7
compute43:rank47 PSM3_IDENTIFY HAL: verbs (RDMA Verbs (oneapi-ze)) built against rv interface v1.4 gpu v1.3 oneapi-ze
compute43:rank47 PSM3_IDENTIFY Global Rank 47 (64 total) Local Rank 15 (16 total)
compute43:rank47 PSM3_IDENTIFY CPU Core 105 NUMA 1 PID 136009
compute43:rank40 PSM3_IDENTIFY PSM3 v3.0-oneapi-ze built for IEFS OFA DELTA 11_5_0_0_172
compute43:rank40 PSM3_IDENTIFY location /usr/lib64/libfabric/libpsm3-fi.so
compute43:rank40 PSM3_IDENTIFY build date 2023-05-15T09:53:40
compute43:rank40 PSM3_IDENTIFY src checksum 2c3eb379fd92530cd927d9f8b08506d7387c1d59
compute43:rank40 PSM3_IDENTIFY git checksum 97fdceb01fc41231a0a29e1df3f0f8ba760facd7
compute43:rank40 PSM3_IDENTIFY HAL: verbs (RDMA Verbs (oneapi-ze)) built against rv interface v1.4 gpu v1.3 oneapi-ze
compute43:rank40 PSM3_IDENTIFY Global Rank 40 (64 total) Local Rank 8 (16 total)
compute43:rank40 PSM3_IDENTIFY CPU Core 58 NUMA 1 PID 136002
compute43:rank44 PSM3_IDENTIFY PSM3 v3.0-oneapi-ze built for IEFS OFA DELTA 11_5_0_0_172
compute43:rank44 PSM3_IDENTIFY location /usr/lib64/libfabric/libpsm3-fi.so
compute43:rank44 PSM3_IDENTIFY build date 2023-05-15T09:53:40
compute43:rank44 PSM3_IDENTIFY src checksum 2c3eb379fd92530cd927d9f8b08506d7387c1d59
compute43:rank44 PSM3_IDENTIFY git checksum 97fdceb01fc41231a0a29e1df3f0f8ba760facd7
compute43:rank44 PSM3_IDENTIFY HAL: verbs (RDMA Verbs (oneapi-ze)) built against rv interface v1.4 gpu v1.3 oneapi-ze
compute43:rank44 PSM3_IDENTIFY Global Rank 44 (64 total) Local Rank 12 (16 total)
compute43:rank44 PSM3_IDENTIFY CPU Core 84 NUMA 1 PID 136006
compute43:rank41 PSM3_IDENTIFY PSM3 v3.0-oneapi-ze built for IEFS OFA DELTA 11_5_0_0_172
compute43:rank41 PSM3_IDENTIFY location /usr/lib64/libfabric/libpsm3-fi.so
compute43:rank41 PSM3_IDENTIFY build date 2023-05-15T09:53:40
compute43:rank41 PSM3_IDENTIFY src checksum 2c3eb379fd92530cd927d9f8b08506d7387c1d59
compute43:rank41 PSM3_IDENTIFY git checksum 97fdceb01fc41231a0a29e1df3f0f8ba760facd7
compute43:rank41 PSM3_IDENTIFY HAL: verbs (RDMA Verbs (oneapi-ze)) built against rv interface v1.4 gpu v1.3 oneapi-ze
compute43:rank41 PSM3_IDENTIFY Global Rank 41 (64 total) Local Rank 9 (16 total)
compute43:rank41 PSM3_IDENTIFY CPU Core 175 NUMA 1 PID 136003
compute43:rank42 PSM3_IDENTIFY PSM3 v3.0-oneapi-ze built for IEFS OFA DELTA 11_5_0_0_172
compute43:rank42 PSM3_IDENTIFY location /usr/lib64/libfabric/libpsm3-fi.so
compute43:rank42 PSM3_IDENTIFY build date 2023-05-15T09:53:40
compute43:rank42 PSM3_IDENTIFY src checksum 2c3eb379fd92530cd927d9f8b08506d7387c1d59
compute43:rank42 PSM3_IDENTIFY git checksum 97fdceb01fc41231a0a29e1df3f0f8ba760facd7
compute43:rank42 PSM3_IDENTIFY HAL: verbs (RDMA Verbs (oneapi-ze)) built against rv interface v1.4 gpu v1.3 oneapi-ze
compute43:rank42 PSM3_IDENTIFY Global Rank 42 (64 total) Local Rank 10 (16 total)
compute43:rank42 PSM3_IDENTIFY CPU Core 70 NUMA 1 PID 136004
compute42:rank24 PSM3_IDENTIFY PSM3 v3.0-oneapi-ze built for IEFS OFA DELTA 11_5_0_0_172
compute42:rank24 PSM3_IDENTIFY location /usr/lib64/libfabric/libpsm3-fi.so
compute42:rank24 PSM3_IDENTIFY build date 2023-05-15T09:53:40
compute42:rank24 PSM3_IDENTIFY src checksum 2c3eb379fd92530cd927d9f8b08506d7387c1d59
compute42:rank24 PSM3_IDENTIFY git checksum 97fdceb01fc41231a0a29e1df3f0f8ba760facd7
compute42:rank24 PSM3_IDENTIFY HAL: verbs (RDMA Verbs (oneapi-ze)) built against rv interface v1.4 gpu v1.3 oneapi-ze
compute42:rank24 PSM3_IDENTIFY Global Rank 24 (64 total) Local Rank 8 (16 total)
compute42:rank24 PSM3_IDENTIFY CPU Core 168 NUMA 1 PID 162152
compute44:rank55 PSM3_IDENTIFY PSM3 v3.0-oneapi-ze built for IEFS OFA DELTA 11_5_0_0_172
compute44:rank55 PSM3_IDENTIFY location /usr/lib64/libfabric/libpsm3-fi.so
compute44:rank55 PSM3_IDENTIFY build date 2023-05-15T09:53:40
compute44:rank55 PSM3_IDENTIFY src checksum 2c3eb379fd92530cd927d9f8b08506d7387c1d59
compute44:rank55 PSM3_IDENTIFY git checksum 97fdceb01fc41231a0a29e1df3f0f8ba760facd7
compute44:rank55 PSM3_IDENTIFY HAL: verbs (RDMA Verbs (oneapi-ze)) built against rv interface v1.4 gpu v1.3 oneapi-ze
compute44:rank55 PSM3_IDENTIFY Global Rank 55 (64 total) Local Rank 7 (16 total)
compute44:rank55 PSM3_IDENTIFY CPU Core 161 NUMA 0 PID 52720
compute44:rank54 PSM3_IDENTIFY PSM3 v3.0-oneapi-ze built for IEFS OFA DELTA 11_5_0_0_172
compute44:rank54 PSM3_IDENTIFY location /usr/lib64/libfabric/libpsm3-fi.so
compute44:rank54 PSM3_IDENTIFY build date 2023-05-15T09:53:40
compute44:rank54 PSM3_IDENTIFY src checksum 2c3eb379fd92530cd927d9f8b08506d7387c1d59
compute44:rank54 PSM3_IDENTIFY git checksum 97fdceb01fc41231a0a29e1df3f0f8ba760facd7
compute44:rank54 PSM3_IDENTIFY HAL: verbs (RDMA Verbs (oneapi-ze)) built against rv interface v1.4 gpu v1.3 oneapi-ze
compute44:rank54 PSM3_IDENTIFY Global Rank 54 (64 total) Local Rank 6 (16 total)
compute44:rank54 PSM3_IDENTIFY CPU Core 154 NUMA 0 PID 52719
compute44:rank61 PSM3_IDENTIFY PSM3 v3.0-oneapi-ze built for IEFS OFA DELTA 11_5_0_0_172
compute44:rank61 PSM3_IDENTIFY location /usr/lib64/libfabric/libpsm3-fi.so
compute44:rank61 PSM3_IDENTIFY build date 2023-05-15T09:53:40
compute44:rank61 PSM3_IDENTIFY src checksum 2c3eb379fd92530cd927d9f8b08506d7387c1d59
compute44:rank61 PSM3_IDENTIFY git checksum 97fdceb01fc41231a0a29e1df3f0f8ba760facd7
compute44:rank61 PSM3_IDENTIFY HAL: verbs (RDMA Verbs (oneapi-ze)) built against rv interface v1.4 gpu v1.3 oneapi-ze
compute44:rank61 PSM3_IDENTIFY Global Rank 61 (64 total) Local Rank 13 (16 total)
compute44:rank61 PSM3_IDENTIFY CPU Core 203 NUMA 1 PID 52726
compute42:rank17 PSM3_IDENTIFY PSM3 v3.0-oneapi-ze built for IEFS OFA DELTA 11_5_0_0_172
compute42:rank17 PSM3_IDENTIFY location /usr/lib64/libfabric/libpsm3-fi.so
compute42:rank17 PSM3_IDENTIFY build date 2023-05-15T09:53:40
compute42:rank17 PSM3_IDENTIFY src checksum 2c3eb379fd92530cd927d9f8b08506d7387c1d59
compute42:rank17 PSM3_IDENTIFY git checksum 97fdceb01fc41231a0a29e1df3f0f8ba760facd7
compute42:rank17 PSM3_IDENTIFY HAL: verbs (RDMA Verbs (oneapi-ze)) built against rv interface v1.4 gpu v1.3 oneapi-ze
compute42:rank17 PSM3_IDENTIFY Global Rank 17 (64 total) Local Rank 1 (16 total)
compute42:rank17 PSM3_IDENTIFY CPU Core 8 NUMA 0 PID 162145
compute42:rank16 PSM3_IDENTIFY PSM3 v3.0-oneapi-ze built for IEFS OFA DELTA 11_5_0_0_172
compute42:rank16 PSM3_IDENTIFY location /usr/lib64/libfabric/libpsm3-fi.so
compute42:rank16 PSM3_IDENTIFY build date 2023-05-15T09:53:40
compute42:rank16 PSM3_IDENTIFY src checksum 2c3eb379fd92530cd927d9f8b08506d7387c1d59
compute42:rank16 PSM3_IDENTIFY git checksum 97fdceb01fc41231a0a29e1df3f0f8ba760facd7
compute42:rank16 PSM3_IDENTIFY HAL: verbs (RDMA Verbs (oneapi-ze)) built against rv interface v1.4 gpu v1.3 oneapi-ze
compute42:rank16 PSM3_IDENTIFY Global Rank 16 (64 total) Local Rank 0 (16 total)
compute42:rank16 PSM3_IDENTIFY CPU Core 0 NUMA 0 PID 162144
compute42:rank26 PSM3_IDENTIFY PSM3 v3.0-oneapi-ze built for IEFS OFA DELTA 11_5_0_0_172
compute42:rank26 PSM3_IDENTIFY location /usr/lib64/libfabric/libpsm3-fi.so
compute42:rank26 PSM3_IDENTIFY build date 2023-05-15T09:53:40
compute42:rank26 PSM3_IDENTIFY src checksum 2c3eb379fd92530cd927d9f8b08506d7387c1d59
compute42:rank26 PSM3_IDENTIFY git checksum 97fdceb01fc41231a0a29e1df3f0f8ba760facd7
compute42:rank26 PSM3_IDENTIFY HAL: verbs (RDMA Verbs (oneapi-ze)) built against rv interface v1.4 gpu v1.3 oneapi-ze
compute42:rank26 PSM3_IDENTIFY Global Rank 26 (64 total) Local Rank 10 (16 total)
compute42:rank26 PSM3_IDENTIFY CPU Core 182 NUMA 1 PID 162154
compute44:rank50 PSM3_IDENTIFY PSM3 v3.0-oneapi-ze built for IEFS OFA DELTA 11_5_0_0_172
compute44:rank50 PSM3_IDENTIFY location /usr/lib64/libfabric/libpsm3-fi.so
compute44:rank50 PSM3_IDENTIFY build date 2023-05-15T09:53:40
compute44:rank50 PSM3_IDENTIFY src checksum 2c3eb379fd92530cd927d9f8b08506d7387c1d59
compute44:rank50 PSM3_IDENTIFY git checksum 97fdceb01fc41231a0a29e1df3f0f8ba760facd7
compute44:rank50 PSM3_IDENTIFY HAL: verbs (RDMA Verbs (oneapi-ze)) built against rv interface v1.4 gpu v1.3 oneapi-ze
compute44:rank50 PSM3_IDENTIFY Global Rank 50 (64 total) Local Rank 2 (16 total)
compute44:rank50 PSM3_IDENTIFY CPU Core 126 NUMA 0 PID 52715
compute42:rank30 PSM3_IDENTIFY PSM3 v3.0-oneapi-ze built for IEFS OFA DELTA 11_5_0_0_172
compute42:rank30 PSM3_IDENTIFY location /usr/lib64/libfabric/libpsm3-fi.so
compute42:rank30 PSM3_IDENTIFY build date 2023-05-15T09:53:40
compute42:rank30 PSM3_IDENTIFY src checksum 2c3eb379fd92530cd927d9f8b08506d7387c1d59
compute42:rank30 PSM3_IDENTIFY git checksum 97fdceb01fc41231a0a29e1df3f0f8ba760facd7
compute42:rank30 PSM3_IDENTIFY HAL: verbs (RDMA Verbs (oneapi-ze)) built against rv interface v1.4 gpu v1.3 oneapi-ze
compute42:rank30 PSM3_IDENTIFY Global Rank 30 (64 total) Local Rank 14 (16 total)
compute42:rank30 PSM3_IDENTIFY CPU Core 98 NUMA 1 PID 162158
compute42:rank20 PSM3_IDENTIFY PSM3 v3.0-oneapi-ze built for IEFS OFA DELTA 11_5_0_0_172
compute42:rank20 PSM3_IDENTIFY location /usr/lib64/libfabric/libpsm3-fi.so
compute42:rank20 PSM3_IDENTIFY build date 2023-05-15T09:53:40
compute42:rank20 PSM3_IDENTIFY src checksum 2c3eb379fd92530cd927d9f8b08506d7387c1d59
compute42:rank20 PSM3_IDENTIFY git checksum 97fdceb01fc41231a0a29e1df3f0f8ba760facd7
compute42:rank20 PSM3_IDENTIFY HAL: verbs (RDMA Verbs (oneapi-ze)) built against rv interface v1.4 gpu v1.3 oneapi-ze
compute42:rank20 PSM3_IDENTIFY Global Rank 20 (64 total) Local Rank 4 (16 total)
compute42:rank20 PSM3_IDENTIFY CPU Core 141 NUMA 0 PID 162148
compute44:rank52 PSM3_IDENTIFY run-time rv interface v1.4 user_mr gpu v1.3 oneapi-ze
compute41:rank15 PSM3_IDENTIFY run-time rv interface v1.4 user_mr gpu v1.3 oneapi-ze
compute42:rank29 PSM3_IDENTIFY run-time rv interface v1.4 user_mr gpu v1.3 oneapi-ze
compute44:rank58 PSM3_IDENTIFY run-time rv interface v1.4 user_mr gpu v1.3 oneapi-ze
compute44:rank52 PSM3_IDENTIFY NIC 0 (mlx5_0) Port 1 200000 Mbps NUMA 0 LID=21 GID=0xfe80000000000000:c42a10300c8d890 QP=19592
compute44:rank57 PSM3_IDENTIFY run-time rv interface v1.4 user_mr gpu v1.3 oneapi-ze
compute41:rank15 PSM3_IDENTIFY NIC 1 (mlx5_1) Port 1 200000 Mbps NUMA 1 LID=17 GID=0xfe80000000000000:946dae0300eb4a96 QP=117817
compute44:rank53 PSM3_IDENTIFY run-time rv interface v1.4 user_mr gpu v1.3 oneapi-ze
compute42:rank29 PSM3_IDENTIFY NIC 1 (mlx5_1) Port 1 200000 Mbps NUMA 1 LID=26 GID=0xfe80000000000000:946dae0300eb4a9e QP=42207
compute41:rank3 PSM3_IDENTIFY run-time rv interface v1.4 user_mr gpu v1.3 oneapi-ze
compute44:rank58 PSM3_IDENTIFY NIC 1 (mlx5_1) Port 1 200000 Mbps NUMA 1 LID=28 GID=0xfe80000000000000:b8cef603005e8096 QP=19591
compute44:rank57 PSM3_IDENTIFY NIC 1 (mlx5_1) Port 1 200000 Mbps NUMA 1 LID=28 GID=0xfe80000000000000:b8cef603005e8096 QP=19592
compute41:rank11 PSM3_IDENTIFY run-time rv interface v1.4 user_mr gpu v1.3 oneapi-ze
compute41:rank13 PSM3_IDENTIFY run-time rv interface v1.4 user_mr gpu v1.3 oneapi-ze
compute44:rank53 PSM3_IDENTIFY NIC 0 (mlx5_0) Port 1 200000 Mbps NUMA 0 LID=21 GID=0xfe80000000000000:c42a10300c8d890 QP=19593
compute41:rank3 PSM3_IDENTIFY NIC 0 (mlx5_0) Port 1 200000 Mbps NUMA 0 LID=11 GID=0xfe80000000000000:946dae0300eb4abe QP=118147
compute41:rank6 PSM3_IDENTIFY run-time rv interface v1.4 user_mr gpu v1.3 oneapi-ze
compute44:rank51 PSM3_IDENTIFY run-time rv interface v1.4 user_mr gpu v1.3 oneapi-ze
compute41:rank14 PSM3_IDENTIFY run-time rv interface v1.4 user_mr gpu v1.3 oneapi-ze
compute41:rank0 PSM3_IDENTIFY run-time rv interface v1.4 user_mr gpu v1.3 oneapi-ze
compute41:rank1 PSM3_IDENTIFY run-time rv interface v1.4 user_mr gpu v1.3 oneapi-ze
compute41:rank10 PSM3_IDENTIFY run-time rv interface v1.4 user_mr gpu v1.3 oneapi-ze
compute41:rank12 PSM3_IDENTIFY run-time rv interface v1.4 user_mr gpu v1.3 oneapi-ze
compute41:rank8 PSM3_IDENTIFY run-time rv interface v1.4 user_mr gpu v1.3 oneapi-ze
compute41:rank5 PSM3_IDENTIFY run-time rv interface v1.4 user_mr gpu v1.3 oneapi-ze
compute41:rank4 PSM3_IDENTIFY run-time rv interface v1.4 user_mr gpu v1.3 oneapi-ze
compute42:rank18 PSM3_IDENTIFY run-time rv interface v1.4 user_mr gpu v1.3 oneapi-ze
compute42:rank27 PSM3_IDENTIFY run-time rv interface v1.4 user_mr gpu v1.3 oneapi-ze
compute41:rank2 PSM3_IDENTIFY run-time rv interface v1.4 user_mr gpu v1.3 oneapi-ze
compute44:rank48 PSM3_IDENTIFY run-time rv interface v1.4 user_mr gpu v1.3 oneapi-ze
compute41:rank11 PSM3_IDENTIFY NIC 1 (mlx5_1) Port 1 200000 Mbps NUMA 1 LID=17 GID=0xfe80000000000000:946dae0300eb4a96 QP=117818
compute41:rank13 PSM3_IDENTIFY NIC 1 (mlx5_1) Port 1 200000 Mbps NUMA 1 LID=17 GID=0xfe80000000000000:946dae0300eb4a96 QP=117819
compute41:rank9 PSM3_IDENTIFY run-time rv interface v1.4 user_mr gpu v1.3 oneapi-ze
compute41:rank7 PSM3_IDENTIFY run-time rv interface v1.4 user_mr gpu v1.3 oneapi-ze
compute41:rank6 PSM3_IDENTIFY NIC 0 (mlx5_0) Port 1 200000 Mbps NUMA 0 LID=11 GID=0xfe80000000000000:946dae0300eb4abe QP=118148
compute44:rank51 PSM3_IDENTIFY NIC 0 (mlx5_0) Port 1 200000 Mbps NUMA 0 LID=21 GID=0xfe80000000000000:c42a10300c8d890 QP=19594
compute44:rank56 PSM3_IDENTIFY run-time rv interface v1.4 user_mr gpu v1.3 oneapi-ze
compute44:rank60 PSM3_IDENTIFY run-time rv interface v1.4 user_mr gpu v1.3 oneapi-ze
compute44:rank62 PSM3_IDENTIFY run-time rv interface v1.4 user_mr gpu v1.3 oneapi-ze
compute41:rank14 PSM3_IDENTIFY NIC 1 (mlx5_1) Port 1 200000 Mbps NUMA 1 LID=17 GID=0xfe80000000000000:946dae0300eb4a96 QP=117820
compute41:rank0 PSM3_IDENTIFY NIC 0 (mlx5_0) Port 1 200000 Mbps NUMA 0 LID=11 GID=0xfe80000000000000:946dae0300eb4abe QP=118149
compute41:rank1 PSM3_IDENTIFY NIC 0 (mlx5_0) Port 1 200000 Mbps NUMA 0 LID=11 GID=0xfe80000000000000:946dae0300eb4abe QP=118150
compute41:rank10 PSM3_IDENTIFY NIC 1 (mlx5_1) Port 1 200000 Mbps NUMA 1 LID=17 GID=0xfe80000000000000:946dae0300eb4a96 QP=117821
compute41:rank12 PSM3_IDENTIFY NIC 1 (mlx5_1) Port 1 200000 Mbps NUMA 1 LID=17 GID=0xfe80000000000000:946dae0300eb4a96 QP=117822
compute44:rank59 PSM3_IDENTIFY run-time rv interface v1.4 user_mr gpu v1.3 oneapi-ze
compute43:rank35 PSM3_IDENTIFY run-time rv interface v1.4 user_mr gpu v1.3 oneapi-ze
compute41:rank8 PSM3_IDENTIFY NIC 1 (mlx5_1) Port 1 200000 Mbps NUMA 1 LID=17 GID=0xfe80000000000000:946dae0300eb4a96 QP=117823
compute41:rank5 PSM3_IDENTIFY NIC 0 (mlx5_0) Port 1 200000 Mbps NUMA 0 LID=11 GID=0xfe80000000000000:946dae0300eb4abe QP=118151
compute42:rank18 PSM3_IDENTIFY NIC 0 (mlx5_0) Port 1 200000 Mbps NUMA 0 LID=1 GID=0xfe80000000000000:946dae0300eb4ac6 QP=42223
compute41:rank4 PSM3_IDENTIFY NIC 0 (mlx5_0) Port 1 200000 Mbps NUMA 0 LID=11 GID=0xfe80000000000000:946dae0300eb4abe QP=118152
compute42:rank27 PSM3_IDENTIFY NIC 1 (mlx5_1) Port 1 200000 Mbps NUMA 1 LID=26 GID=0xfe80000000000000:946dae0300eb4a9e QP=42208
compute44:rank54 PSM3_IDENTIFY run-time rv interface v1.4 user_mr gpu v1.3 oneapi-ze
compute42:rank31 PSM3_IDENTIFY run-time rv interface v1.4 user_mr gpu v1.3 oneapi-ze
compute43:rank43 PSM3_IDENTIFY run-time rv interface v1.4 user_mr gpu v1.3 oneapi-ze
compute44:rank63 PSM3_IDENTIFY run-time rv interface v1.4 user_mr gpu v1.3 oneapi-ze
compute44:rank49 PSM3_IDENTIFY run-time rv interface v1.4 user_mr gpu v1.3 oneapi-ze
compute42:rank19 PSM3_IDENTIFY run-time rv interface v1.4 user_mr gpu v1.3 oneapi-ze
compute42:rank25 PSM3_IDENTIFY run-time rv interface v1.4 user_mr gpu v1.3 oneapi-ze
compute43:rank38 PSM3_IDENTIFY run-time rv interface v1.4 user_mr gpu v1.3 oneapi-ze
compute41:rank2 PSM3_IDENTIFY NIC 0 (mlx5_0) Port 1 200000 Mbps NUMA 0 LID=11 GID=0xfe80000000000000:946dae0300eb4abe QP=118153
compute42:rank28 PSM3_IDENTIFY run-time rv interface v1.4 user_mr gpu v1.3 oneapi-ze
compute44:rank61 PSM3_IDENTIFY run-time rv interface v1.4 user_mr gpu v1.3 oneapi-ze
compute44:rank48 PSM3_IDENTIFY NIC 0 (mlx5_0) Port 1 200000 Mbps NUMA 0 LID=21 GID=0xfe80000000000000:c42a10300c8d890 QP=19595
compute43:rank45 PSM3_IDENTIFY run-time rv interface v1.4 user_mr gpu v1.3 oneapi-ze
compute43:rank37 PSM3_IDENTIFY run-time rv interface v1.4 user_mr gpu v1.3 oneapi-ze
compute41:rank9 PSM3_IDENTIFY NIC 1 (mlx5_1) Port 1 200000 Mbps NUMA 1 LID=17 GID=0xfe80000000000000:946dae0300eb4a96 QP=117824
compute44:rank50 PSM3_IDENTIFY run-time rv interface v1.4 user_mr gpu v1.3 oneapi-ze
compute43:rank39 PSM3_IDENTIFY run-time rv interface v1.4 user_mr gpu v1.3 oneapi-ze
compute42:rank21 PSM3_IDENTIFY run-time rv interface v1.4 user_mr gpu v1.3 oneapi-ze
compute41:rank7 PSM3_IDENTIFY NIC 0 (mlx5_0) Port 1 200000 Mbps NUMA 0 LID=11 GID=0xfe80000000000000:946dae0300eb4abe QP=118154
compute43:rank32 PSM3_IDENTIFY run-time rv interface v1.4 user_mr gpu v1.3 oneapi-ze
compute42:rank23 PSM3_IDENTIFY run-time rv interface v1.4 user_mr gpu v1.3 oneapi-ze
compute44:rank60 PSM3_IDENTIFY NIC 1 (mlx5_1) Port 1 200000 Mbps NUMA 1 LID=28 GID=0xfe80000000000000:b8cef603005e8096 QP=19594
compute42:rank24 PSM3_IDENTIFY run-time rv interface v1.4 user_mr gpu v1.3 oneapi-ze
compute44:rank62 PSM3_IDENTIFY NIC 1 (mlx5_1) Port 1 200000 Mbps NUMA 1 LID=28 GID=0xfe80000000000000:b8cef603005e8096 QP=19595
compute44:rank56 PSM3_IDENTIFY NIC 1 (mlx5_1) Port 1 200000 Mbps NUMA 1 LID=28 GID=0xfe80000000000000:b8cef603005e8096 QP=19593
compute42:rank22 PSM3_IDENTIFY run-time rv interface v1.4 user_mr gpu v1.3 oneapi-ze
compute44:rank55 PSM3_IDENTIFY run-time rv interface v1.4 user_mr gpu v1.3 oneapi-ze
compute42:rank30 PSM3_IDENTIFY run-time rv interface v1.4 user_mr gpu v1.3 oneapi-ze
compute42:rank26 PSM3_IDENTIFY run-time rv interface v1.4 user_mr gpu v1.3 oneapi-ze
compute44:rank59 PSM3_IDENTIFY NIC 1 (mlx5_1) Port 1 200000 Mbps NUMA 1 LID=28 GID=0xfe80000000000000:b8cef603005e8096 QP=19596
compute43:rank35 PSM3_IDENTIFY NIC 0 (mlx5_0) Port 1 200000 Mbps NUMA 0 LID=30 GID=0xfe80000000000000:946dae0300eb4ab6 QP=41220
compute44:rank49 PSM3_IDENTIFY NIC 0 (mlx5_0) Port 1 200000 Mbps NUMA 0 LID=21 GID=0xfe80000000000000:c42a10300c8d890 QP=19597
compute44:rank54 PSM3_IDENTIFY NIC 0 (mlx5_0) Port 1 200000 Mbps NUMA 0 LID=21 GID=0xfe80000000000000:c42a10300c8d890 QP=19596
compute42:rank31 PSM3_IDENTIFY NIC 1 (mlx5_1) Port 1 200000 Mbps NUMA 1 LID=26 GID=0xfe80000000000000:946dae0300eb4a9e QP=42209
compute42:rank19 PSM3_IDENTIFY NIC 0 (mlx5_0) Port 1 200000 Mbps NUMA 0 LID=1 GID=0xfe80000000000000:946dae0300eb4ac6 QP=42224
compute43:rank43 PSM3_IDENTIFY NIC 1 (mlx5_1) Port 1 200000 Mbps NUMA 1 LID=27 GID=0xfe80000000000000:946dae0300eb4a92 QP=41033
compute44:rank63 PSM3_IDENTIFY NIC 1 (mlx5_1) Port 1 200000 Mbps NUMA 1 LID=28 GID=0xfe80000000000000:b8cef603005e8096 QP=19597
compute43:rank34 PSM3_IDENTIFY run-time rv interface v1.4 user_mr gpu v1.3 oneapi-ze
compute42:rank16 PSM3_IDENTIFY run-time rv interface v1.4 user_mr gpu v1.3 oneapi-ze
compute42:rank25 PSM3_IDENTIFY NIC 1 (mlx5_1) Port 1 200000 Mbps NUMA 1 LID=26 GID=0xfe80000000000000:946dae0300eb4a9e QP=42210
compute43:rank36 PSM3_IDENTIFY run-time rv interface v1.4 user_mr gpu v1.3 oneapi-ze
compute43:rank40 PSM3_IDENTIFY run-time rv interface v1.4 user_mr gpu v1.3 oneapi-ze
compute43:rank38 PSM3_IDENTIFY NIC 0 (mlx5_0) Port 1 200000 Mbps NUMA 0 LID=30 GID=0xfe80000000000000:946dae0300eb4ab6 QP=41221
compute43:rank47 PSM3_IDENTIFY run-time rv interface v1.4 user_mr gpu v1.3 oneapi-ze
compute43:rank44 PSM3_IDENTIFY run-time rv interface v1.4 user_mr gpu v1.3 oneapi-ze
compute42:rank28 PSM3_IDENTIFY NIC 1 (mlx5_1) Port 1 200000 Mbps NUMA 1 LID=26 GID=0xfe80000000000000:946dae0300eb4a9e QP=42211
compute43:rank45 PSM3_IDENTIFY NIC 1 (mlx5_1) Port 1 200000 Mbps NUMA 1 LID=27 GID=0xfe80000000000000:946dae0300eb4a92 QP=41034
compute42:rank20 PSM3_IDENTIFY run-time rv interface v1.4 user_mr gpu v1.3 oneapi-ze
compute44:rank61 PSM3_IDENTIFY NIC 1 (mlx5_1) Port 1 200000 Mbps NUMA 1 LID=28 GID=0xfe80000000000000:b8cef603005e8096 QP=19598
compute44:rank50 PSM3_IDENTIFY NIC 0 (mlx5_0) Port 1 200000 Mbps NUMA 0 LID=21 GID=0xfe80000000000000:c42a10300c8d890 QP=19598
compute43:rank37 PSM3_IDENTIFY NIC 0 (mlx5_0) Port 1 200000 Mbps NUMA 0 LID=30 GID=0xfe80000000000000:946dae0300eb4ab6 QP=41222
compute43:rank33 PSM3_IDENTIFY run-time rv interface v1.4 user_mr gpu v1.3 oneapi-ze
compute43:rank41 PSM3_IDENTIFY run-time rv interface v1.4 user_mr gpu v1.3 oneapi-ze
compute43:rank42 PSM3_IDENTIFY run-time rv interface v1.4 user_mr gpu v1.3 oneapi-ze
compute42:rank21 PSM3_IDENTIFY NIC 0 (mlx5_0) Port 1 200000 Mbps NUMA 0 LID=1 GID=0xfe80000000000000:946dae0300eb4ac6 QP=42225
compute43:rank39 PSM3_IDENTIFY NIC 0 (mlx5_0) Port 1 200000 Mbps NUMA 0 LID=30 GID=0xfe80000000000000:946dae0300eb4ab6 QP=41223
compute43:rank46 PSM3_IDENTIFY run-time rv interface v1.4 user_mr gpu v1.3 oneapi-ze
compute43:rank32 PSM3_IDENTIFY NIC 0 (mlx5_0) Port 1 200000 Mbps NUMA 0 LID=30 GID=0xfe80000000000000:946dae0300eb4ab6 QP=41224
compute42:rank23 PSM3_IDENTIFY NIC 0 (mlx5_0) Port 1 200000 Mbps NUMA 0 LID=1 GID=0xfe80000000000000:946dae0300eb4ac6 QP=42226
compute42:rank24 PSM3_IDENTIFY NIC 1 (mlx5_1) Port 1 200000 Mbps NUMA 1 LID=26 GID=0xfe80000000000000:946dae0300eb4a9e QP=42212
compute42:rank17 PSM3_IDENTIFY run-time rv interface v1.4 user_mr gpu v1.3 oneapi-ze
compute44:rank55 PSM3_IDENTIFY NIC 0 (mlx5_0) Port 1 200000 Mbps NUMA 0 LID=21 GID=0xfe80000000000000:c42a10300c8d890 QP=19599
compute42:rank22 PSM3_IDENTIFY NIC 0 (mlx5_0) Port 1 200000 Mbps NUMA 0 LID=1 GID=0xfe80000000000000:946dae0300eb4ac6 QP=42227
compute42:rank30 PSM3_IDENTIFY NIC 1 (mlx5_1) Port 1 200000 Mbps NUMA 1 LID=26 GID=0xfe80000000000000:946dae0300eb4a9e QP=42213
compute42:rank26 PSM3_IDENTIFY NIC 1 (mlx5_1) Port 1 200000 Mbps NUMA 1 LID=26 GID=0xfe80000000000000:946dae0300eb4a9e QP=42214
compute43:rank34 PSM3_IDENTIFY NIC 0 (mlx5_0) Port 1 200000 Mbps NUMA 0 LID=30 GID=0xfe80000000000000:946dae0300eb4ab6 QP=41225
compute42:rank16 PSM3_IDENTIFY NIC 0 (mlx5_0) Port 1 200000 Mbps NUMA 0 LID=1 GID=0xfe80000000000000:946dae0300eb4ac6 QP=42228
compute43:rank36 PSM3_IDENTIFY NIC 0 (mlx5_0) Port 1 200000 Mbps NUMA 0 LID=30 GID=0xfe80000000000000:946dae0300eb4ab6 QP=41226
compute43:rank40 PSM3_IDENTIFY NIC 1 (mlx5_1) Port 1 200000 Mbps NUMA 1 LID=27 GID=0xfe80000000000000:946dae0300eb4a92 QP=41035
compute42:rank20 PSM3_IDENTIFY NIC 0 (mlx5_0) Port 1 200000 Mbps NUMA 0 LID=1 GID=0xfe80000000000000:946dae0300eb4ac6 QP=42229
compute43:rank44 PSM3_IDENTIFY NIC 1 (mlx5_1) Port 1 200000 Mbps NUMA 1 LID=27 GID=0xfe80000000000000:946dae0300eb4a92 QP=41037
compute43:rank47 PSM3_IDENTIFY NIC 1 (mlx5_1) Port 1 200000 Mbps NUMA 1 LID=27 GID=0xfe80000000000000:946dae0300eb4a92 QP=41036
compute43:rank33 PSM3_IDENTIFY NIC 0 (mlx5_0) Port 1 200000 Mbps NUMA 0 LID=30 GID=0xfe80000000000000:946dae0300eb4ab6 QP=41227
compute43:rank41 PSM3_IDENTIFY NIC 1 (mlx5_1) Port 1 200000 Mbps NUMA 1 LID=27 GID=0xfe80000000000000:946dae0300eb4a92 QP=41038
compute43:rank42 PSM3_IDENTIFY NIC 1 (mlx5_1) Port 1 200000 Mbps NUMA 1 LID=27 GID=0xfe80000000000000:946dae0300eb4a92 QP=41039
compute43:rank46 PSM3_IDENTIFY NIC 1 (mlx5_1) Port 1 200000 Mbps NUMA 1 LID=27 GID=0xfe80000000000000:946dae0300eb4a92 QP=41040
compute42:rank17 PSM3_IDENTIFY NIC 0 (mlx5_0) Port 1 200000 Mbps NUMA 0 LID=1 GID=0xfe80000000000000:946dae0300eb4ac6 QP=42230
[0] MPI startup(): File "/install/software/oneAPI/2023.2/mpi/2021.10.0/etc/tuning_spr_shm-ofi_psm3.dat" not found
[0] MPI startup(): Load tuning file: "/install/software/oneAPI/2023.2/mpi/2021.10.0/etc/tuning_spr_shm-ofi.dat"
[0] MPI startup(): Rank    Pid      Node name  Pin cpu
[0] MPI startup(): 0       223212   compute41  {0,1,2,3,4,5,6,112,113,114,115,116,117,118}
[0] MPI startup(): 1       223213   compute41  {7,8,9,10,11,12,13,119,120,121,122,123,124,125}
[0] MPI startup(): 2       223214   compute41  {14,15,16,17,18,19,20,126,127,128,129,130,131,132}
[0] MPI startup(): 3       223215   compute41  {21,22,23,24,25,26,27,133,134,135,136,137,138,139}
[0] MPI startup(): 4       223216   compute41  {28,29,30,31,32,33,34,140,141,142,143,144,145,146}
[0] MPI startup(): 5       223217   compute41  {35,36,37,38,39,40,41,147,148,149,150,151,152,153}
[0] MPI startup(): 6       223218   compute41  {42,43,44,45,46,47,48,154,155,156,157,158,159,160}
[0] MPI startup(): 7       223219   compute41  {49,50,51,52,53,54,55,161,162,163,164,165,166,167}
[0] MPI startup(): 8       223220   compute41  {56,57,58,59,60,61,62,168,169,170,171,172,173,174}
[0] MPI startup(): 9       223221   compute41  {63,64,65,66,67,68,69,175,176,177,178,179,180,181}
[0] MPI startup(): 10      223222   compute41  {70,71,72,73,74,75,76,182,183,184,185,186,187,188}
[0] MPI startup(): 11      223223   compute41  {77,78,79,80,81,82,83,189,190,191,192,193,194,195}
[0] MPI startup(): 12      223224   compute41  {84,85,86,87,88,89,90,196,197,198,199,200,201,202}
[0] MPI startup(): 13      223225   compute41  {91,92,93,94,95,96,97,203,204,205,206,207,208,209}
[0] MPI startup(): 14      223226   compute41  {98,99,100,101,102,103,104,210,211,212,213,214,215,216}
[0] MPI startup(): 15      223227   compute41  {105,106,107,108,109,110,111,217,218,219,220,221,222,223}
[0] MPI startup(): 16      162144   compute42  {0,1,2,3,4,5,6,112,113,114,115,116,117,118}
[0] MPI startup(): 17      162145   compute42  {7,8,9,10,11,12,13,119,120,121,122,123,124,125}
[0] MPI startup(): 18      162146   compute42  {14,15,16,17,18,19,20,126,127,128,129,130,131,132}
[0] MPI startup(): 19      162147   compute42  {21,22,23,24,25,26,27,133,134,135,136,137,138,139}
[0] MPI startup(): 20      162148   compute42  {28,29,30,31,32,33,34,140,141,142,143,144,145,146}
[0] MPI startup(): 21      162149   compute42  {35,36,37,38,39,40,41,147,148,149,150,151,152,153}
[0] MPI startup(): 22      162150   compute42  {42,43,44,45,46,47,48,154,155,156,157,158,159,160}
[0] MPI startup(): 23      162151   compute42  {49,50,51,52,53,54,55,161,162,163,164,165,166,167}
[0] MPI startup(): 24      162152   compute42  {56,57,58,59,60,61,62,168,169,170,171,172,173,174}
[0] MPI startup(): 25      162153   compute42  {63,64,65,66,67,68,69,175,176,177,178,179,180,181}
[0] MPI startup(): 26      162154   compute42  {70,71,72,73,74,75,76,182,183,184,185,186,187,188}
[0] MPI startup(): 27      162155   compute42  {77,78,79,80,81,82,83,189,190,191,192,193,194,195}
[0] MPI startup(): 28      162156   compute42  {84,85,86,87,88,89,90,196,197,198,199,200,201,202}
[0] MPI startup(): 29      162157   compute42  {91,92,93,94,95,96,97,203,204,205,206,207,208,209}
[0] MPI startup(): 30      162158   compute42  {98,99,100,101,102,103,104,210,211,212,213,214,215,216}
[0] MPI startup(): 31      162159   compute42  {105,106,107,108,109,110,111,217,218,219,220,221,222,223}
[0] MPI startup(): 32      135994   compute43  {0,1,2,3,4,5,6,112,113,114,115,116,117,118}
[0] MPI startup(): 33      135995   compute43  {7,8,9,10,11,12,13,119,120,121,122,123,124,125}
[0] MPI startup(): 34      135996   compute43  {14,15,16,17,18,19,20,126,127,128,129,130,131,132}
[0] MPI startup(): 35      135997   compute43  {21,22,23,24,25,26,27,133,134,135,136,137,138,139}
[0] MPI startup(): 36      135998   compute43  {28,29,30,31,32,33,34,140,141,142,143,144,145,146}
[0] MPI startup(): 37      135999   compute43  {35,36,37,38,39,40,41,147,148,149,150,151,152,153}
[0] MPI startup(): 38      136000   compute43  {42,43,44,45,46,47,48,154,155,156,157,158,159,160}
[0] MPI startup(): 39      136001   compute43  {49,50,51,52,53,54,55,161,162,163,164,165,166,167}
[0] MPI startup(): 40      136002   compute43  {56,57,58,59,60,61,62,168,169,170,171,172,173,174}
[0] MPI startup(): 41      136003   compute43  {63,64,65,66,67,68,69,175,176,177,178,179,180,181}
[0] MPI startup(): 42      136004   compute43  {70,71,72,73,74,75,76,182,183,184,185,186,187,188}
[0] MPI startup(): 43      136005   compute43  {77,78,79,80,81,82,83,189,190,191,192,193,194,195}
[0] MPI startup(): 44      136006   compute43  {84,85,86,87,88,89,90,196,197,198,199,200,201,202}
[0] MPI startup(): 45      136007   compute43  {91,92,93,94,95,96,97,203,204,205,206,207,208,209}
[0] MPI startup(): 46      136008   compute43  {98,99,100,101,102,103,104,210,211,212,213,214,215,216}
[0] MPI startup(): 47      136009   compute43  {105,106,107,108,109,110,111,217,218,219,220,221,222,223}
[0] MPI startup(): 48      52713    compute44  {0,1,2,3,4,5,6,112,113,114,115,116,117,118}
[0] MPI startup(): 49      52714    compute44  {7,8,9,10,11,12,13,119,120,121,122,123,124,125}
[0] MPI startup(): 50      52715    compute44  {14,15,16,17,18,19,20,126,127,128,129,130,131,132}
[0] MPI startup(): 51      52716    compute44  {21,22,23,24,25,26,27,133,134,135,136,137,138,139}
[0] MPI startup(): 52      52717    compute44  {28,29,30,31,32,33,34,140,141,142,143,144,145,146}
[0] MPI startup(): 53      52718    compute44  {35,36,37,38,39,40,41,147,148,149,150,151,152,153}
[0] MPI startup(): 54      52719    compute44  {42,43,44,45,46,47,48,154,155,156,157,158,159,160}
[0] MPI startup(): 55      52720    compute44  {49,50,51,52,53,54,55,161,162,163,164,165,166,167}
[0] MPI startup(): 56      52721    compute44  {56,57,58,59,60,61,62,168,169,170,171,172,173,174}
[0] MPI startup(): 57      52722    compute44  {63,64,65,66,67,68,69,175,176,177,178,179,180,181}
[0] MPI startup(): 58      52723    compute44  {70,71,72,73,74,75,76,182,183,184,185,186,187,188}
[0] MPI startup(): 59      52724    compute44  {77,78,79,80,81,82,83,189,190,191,192,193,194,195}
[0] MPI startup(): 60      52725    compute44  {84,85,86,87,88,89,90,196,197,198,199,200,201,202}
[0] MPI startup(): 61      52726    compute44  {91,92,93,94,95,96,97,203,204,205,206,207,208,209}
[0] MPI startup(): 62      52727    compute44  {98,99,100,101,102,103,104,210,211,212,213,214,215,216}
[0] MPI startup(): 63      52728    compute44  {105,106,107,108,109,110,111,217,218,219,220,221,222,223}
---
 Reference Paper             : The Journal of Chemical Physics 137, 134108 (2012)
 Version Number              : PSolver 1.9
 Timestamp of this run       : 2023-10-31 08:08:20.678
 Root process Hostname       : compute41
 Poisson Kernel Creation:
   Boundary Conditions       : Free
   Memory Requirements per MPI task:
     Density (MB)            :  128.00
     Kernel (MB)             :  129.51
     Full Grid Arrays (MB)   :  128.00
   Kernel Copied on GPU      :  Yes
 Orbital repartition:
 -  [ 1,  1,  1,  1,  1,  1,  1,  1,  1,  1,  1,  1,  1,  1,  1,  1,  1,  1,  1,  1,  1, 
                                                                                  1,  1, 
                                                                                  1,  1, 
                                                                                  1,  1, 
                                                                                  1,  1, 
                                                                                  1,  1, 
                                                                                  1,  1, 
                                                                                  1,  1, 
                                                                                  1,  1, 
                                                                                  1,  1, 
                                                                                  1,  1, 
                                                                                  1,  1, 
                                                                                  1,  1, 
                                                                                  1,  1, 
                                                                                  1,  1, 
                                                                                  1,  1, 
                                                                                  1,  1, 
                                                                                  1,  1, 
                                                                                  1,  1, 
                                                                                  1,  1, 
                                                                                  1,  1, 
                                                                                  1,  1, 
                                                                                  1]
  #Exact exchange calculation:3%; Time (s): Elapsed=0.6706, Remaining=22.
  #Exact exchange calculation:6%; Time (s): Elapsed=1.3133, Remaining=21.
  #Exact exchange calculation:9%; Time (s): Elapsed=1.9734, Remaining=20.
  #Exact exchange calculation:12%; Time (s): Elapsed=2.6634, Remaining=20.
  #Exact exchange calculation:15%; Time (s): Elapsed=3.3680, Remaining=19.
  #Exact exchange calculation:18%; Time (s): Elapsed=4.0550, Remaining=18.
  #Exact exchange calculation:21%; Time (s): Elapsed=4.7697, Remaining=18.
  #Exact exchange calculation:24%; Time (s): Elapsed=5.4680, Remaining=17.
  #Exact exchange calculation:27%; Time (s): Elapsed=6.1595, Remaining=17.
  #Exact exchange calculation:30%; Time (s): Elapsed=6.8424, Remaining=16.
  #Exact exchange calculation:33%; Time (s): Elapsed=7.5410, Remaining=15.
  #Exact exchange calculation:36%; Time (s): Elapsed=8.2180, Remaining=15.
  #Exact exchange calculation:39%; Time (s): Elapsed=8.9114, Remaining=14.
  #Exact exchange calculation:42%; Time (s): Elapsed=9.6092, Remaining=13.
  #Exact exchange calculation:45%; Time (s): Elapsed=10.2948, Remaining=13.
  #Exact exchange calculation:48%; Time (s): Elapsed=10.9783, Remaining=12.
  #Exact exchange calculation:52%; Time (s): Elapsed=11.6646, Remaining=11.
  #Exact exchange calculation:55%; Time (s): Elapsed=12.3457, Remaining=10.
  #Exact exchange calculation:58%; Time (s): Elapsed=12.9702, Remaining=9.4
  #Exact exchange calculation:61%; Time (s): Elapsed=13.5661, Remaining=8.7
  #Exact exchange calculation:64%; Time (s): Elapsed=14.1894, Remaining=8.0
  #Exact exchange calculation:67%; Time (s): Elapsed=14.8252, Remaining=7.3
  #Exact exchange calculation:70%; Time (s): Elapsed=15.4212, Remaining=6.6
  #Exact exchange calculation:73%; Time (s): Elapsed=16.0469, Remaining=5.9
  #Exact exchange calculation:76%; Time (s): Elapsed=16.6747, Remaining=5.3
  #Exact exchange calculation:79%; Time (s): Elapsed=17.2956, Remaining=4.6
  #Exact exchange calculation:82%; Time (s): Elapsed=17.9164, Remaining=3.9
  #Exact exchange calculation:85%; Time (s): Elapsed=18.5278, Remaining=3.3
  #Exact exchange calculation:88%; Time (s): Elapsed=19.1449, Remaining=2.6
  #Exact exchange calculation:91%; Time (s): Elapsed=19.7618, Remaining=2.0
  #Exact exchange calculation:94%; Time (s): Elapsed=20.3563, Remaining=1.3
  #Exact exchange calculation:97%; Time (s): Elapsed=20.9619, Remaining=0.65
  #Exact exchange calculation:100%; Time (s): Elapsed=22.2283, Remaining=0.0
 Exact Exchange Energy       :  1.31115852415E+09
 Expected Exchange Energy    :  3.98942280401E-01
 free_GPU_workarrays 0
 free_GPU_workarrays 0
 free_GPU_workarrays 0
 free_GPU_workarrays 0
 free_GPU_workarrays 0
 free_GPU_workarrays 0
 free_GPU_workarrays 0
 free_GPU_workarrays 0
 free_GPU_workarrays 0
 free_GPU_workarrays 0
 free_GPU_workarrays 0
 free_GPU_workarrays 0
 free_GPU_workarrays 0
 free_GPU_workarrays 0
 free_GPU_workarrays 0
 free_GPU_workarrays 0
 free_GPU_workarrays 0
 free_GPU_workarrays 0
 free_GPU_workarrays 0
 free_GPU_workarrays 0
 free_GPU_workarrays 0
 free_GPU_workarrays 0
 free_GPU_workarrays 0
 free_GPU_workarrays 0
 free_GPU_workarrays 0
 free_GPU_workarrays 0
 free_GPU_workarrays 0
 free_GPU_workarrays 0
 free_GPU_workarrays 0
 free_GPU_workarrays 0
 free_GPU_workarrays 0
 free_GPU_workarrays 0
 free_GPU_workarrays 0
 free_GPU_workarrays 0
 free_GPU_workarrays 0
 free_GPU_workarrays 0
 free_GPU_workarrays 0
 free_GPU_workarrays 0
 free_GPU_workarrays 0
 free_GPU_workarrays 0
 free_GPU_workarrays 0
 free_GPU_workarrays 0
 free_GPU_workarrays 0
 free_GPU_workarrays 0
 free_GPU_workarrays 0
 free_GPU_workarrays 0
 free_GPU_workarrays 0
 free_GPU_workarrays 0
 free_GPU_workarrays 0
 free_GPU_workarrays 0
 free_GPU_workarrays 0
 free_GPU_workarrays 0
 free_GPU_workarrays 0
 free_GPU_workarrays 0
 free_GPU_workarrays 0
 free_GPU_workarrays 0
 free_GPU_workarrays 0
 free_GPU_workarrays 0
 free_GPU_workarrays 0
 free_GPU_workarrays 0
 free_GPU_workarrays 0
 free_GPU_workarrays 0
 free_GPU_workarrays 0
 free_GPU_workarrays 0
 free_GPU_workarrays 1
 free_GPU_workarrays 2
 free_GPU_workarrays 3
 free_GPU_workarrays 1
 free_GPU_workarrays 2
 free_GPU_workarrays 3
 free_GPU_workarrays 4
 free_GPU_workarrays 1
 free_GPU_workarrays 4
 free_GPU_workarrays 1
 free_GPU_workarrays 2
 free_GPU_workarrays 3
 free_GPU_workarrays 1
 free_GPU_workarrays 1
 free_GPU_workarrays 4
 free_GPU_workarrays 1
 free_GPU_workarrays 2
 free_GPU_workarrays 3
 free_GPU_workarrays 4
 free_GPU_workarrays 2
 free_GPU_workarrays 3
 free_GPU_workarrays 4
 free_GPU_workarrays 1
 free_GPU_workarrays 2
 free_GPU_workarrays 1
 free_GPU_workarrays 2
 free_GPU_workarrays 3
 free_GPU_workarrays 4
 free_GPU_workarrays 1
 free_GPU_workarrays 2
 free_GPU_workarrays 3
 free_GPU_workarrays 4
 free_GPU_workarrays 2
 free_GPU_workarrays 3
 free_GPU_workarrays 4
 free_GPU_workarrays 3
 free_GPU_workarrays 4
 free_GPU_workarrays 1
 free_GPU_workarrays 2
 free_GPU_workarrays 3
 free_GPU_workarrays 4
 free_GPU_workarrays 2
 free_GPU_workarrays 3
 free_GPU_workarrays 4
 free_GPU_workarrays 1
 free_GPU_workarrays 1
 free_GPU_workarrays 2
 free_GPU_workarrays 3
 free_GPU_workarrays 1
 free_GPU_workarrays 2
 free_GPU_workarrays 3
 free_GPU_workarrays 4
 free_GPU_workarrays 1
 free_GPU_workarrays 2
 free_GPU_workarrays 2
 free_GPU_workarrays 3
 free_GPU_workarrays 4
 free_GPU_workarrays 4
 free_GPU_workarrays 1
 free_GPU_workarrays 2
 free_GPU_workarrays 3
 free_GPU_workarrays 4
 free_GPU_workarrays 3
 free_GPU_workarrays 4
 free_GPU_workarrays 1
 free_GPU_workarrays 1
 free_GPU_workarrays 2
 free_GPU_workarrays 3
 free_GPU_workarrays 1
 free_GPU_workarrays 2
 free_GPU_workarrays 3
 free_GPU_workarrays 4
 free_GPU_workarrays 1
 free_GPU_workarrays 2
 free_GPU_workarrays 3
 free_GPU_workarrays 4
 free_GPU_workarrays 1
 free_GPU_workarrays 2
 free_GPU_workarrays 1
 free_GPU_workarrays 4
 free_GPU_workarrays 2
 free_GPU_workarrays 3
 free_GPU_workarrays 4
 free_GPU_workarrays 3
 free_GPU_workarrays 4
 free_GPU_workarrays 1
 free_GPU_workarrays 2
 free_GPU_workarrays 3
 free_GPU_workarrays 4
 free_GPU_workarrays 1
 free_GPU_workarrays 2
 free_GPU_workarrays 3
 free_GPU_workarrays 1
 free_GPU_workarrays 2
 free_GPU_workarrays 1
 free_GPU_workarrays 1
 free_GPU_workarrays 2
 free_GPU_workarrays 3
 free_GPU_workarrays 4
 free_GPU_workarrays 3
 free_GPU_workarrays 4
 free_GPU_workarrays 1
 free_GPU_workarrays 2
 free_GPU_workarrays 3
 free_GPU_workarrays 4
 free_GPU_workarrays 1
 free_GPU_workarrays 1
 free_GPU_workarrays 4
 free_GPU_workarrays 1
 free_GPU_workarrays 2
 free_GPU_workarrays 3
 free_GPU_workarrays 4
 free_GPU_workarrays 2
 free_GPU_workarrays 3
 free_GPU_workarrays 4
 free_GPU_workarrays 1
 free_GPU_workarrays 2
 free_GPU_workarrays 3
 free_GPU_workarrays 4
 free_GPU_workarrays 1
 free_GPU_workarrays 2
 free_GPU_workarrays 3
 free_GPU_workarrays 4
 free_GPU_workarrays 2
 free_GPU_workarrays 3
 free_GPU_workarrays 4
 free_GPU_workarrays 1
 free_GPU_workarrays 1
 free_GPU_workarrays 2
 free_GPU_workarrays 3
 free_GPU_workarrays 4
 free_GPU_workarrays 1
 free_GPU_workarrays 1
 free_GPU_workarrays 2
 free_GPU_workarrays 3
 free_GPU_workarrays 4
 free_GPU_workarrays 1
 free_GPU_workarrays 2
 free_GPU_workarrays 3
 free_GPU_workarrays 1
 free_GPU_workarrays 2
 free_GPU_workarrays 3
 free_GPU_workarrays 4
 free_GPU_workarrays 2
 free_GPU_workarrays 3
 free_GPU_workarrays 4
 free_GPU_workarrays 2
 free_GPU_workarrays 3
 free_GPU_workarrays 2
 free_GPU_workarrays 3
 free_GPU_workarrays 4
 free_GPU_workarrays 4
 free_GPU_workarrays 1
 free_GPU_workarrays 1
 free_GPU_workarrays 2
 free_GPU_workarrays 3
 free_GPU_workarrays 4
 free_GPU_workarrays 2
 free_GPU_workarrays 3
 free_GPU_workarrays 4
 free_GPU_workarrays 4
 free_GPU_workarrays 1
 free_GPU_workarrays 1
 free_GPU_workarrays 2
 free_GPU_workarrays 2
 free_GPU_workarrays 3
 free_GPU_workarrays 4
 free_GPU_workarrays 1
 free_GPU_workarrays 2
 free_GPU_workarrays 3
 free_GPU_workarrays 1
 free_GPU_workarrays 2
 free_GPU_workarrays 3
 free_GPU_workarrays 4
 free_GPU_workarrays 3
 free_GPU_workarrays 4
 free_GPU_workarrays 1
 free_GPU_workarrays 2
 free_GPU_workarrays 3
 free_GPU_workarrays 4
 free_GPU_workarrays 2
 free_GPU_workarrays 3
 free_GPU_workarrays 4
 free_GPU_workarrays 4
 free_GPU_workarrays 1
 free_GPU_workarrays 2
 free_GPU_workarrays 3
 free_GPU_workarrays 4
 free_GPU_workarrays 1
 free_GPU_workarrays 2
 free_GPU_workarrays 3
 free_GPU_workarrays 4
 free_GPU_workarrays 1
 free_GPU_workarrays 2
 free_GPU_workarrays 3
 free_GPU_workarrays 4
 free_GPU_workarrays 1
 free_GPU_workarrays 2
 free_GPU_workarrays 3
 free_GPU_workarrays 4
 free_GPU_workarrays 1
 free_GPU_workarrays 2
 free_GPU_workarrays 3
 free_GPU_workarrays 4
 free_GPU_workarrays 1
 free_GPU_workarrays 2
 free_GPU_workarrays 3
 free_GPU_workarrays 4
 free_GPU_workarrays 1
 free_GPU_workarrays 2
 free_GPU_workarrays 3
 free_GPU_workarrays 4
 free_GPU_workarrays 1
 free_GPU_workarrays 2
 free_GPU_workarrays 3
 free_GPU_workarrays 4
 free_GPU_workarrays 1
 free_GPU_workarrays 2
 free_GPU_workarrays 3
 free_GPU_workarrays 4
 free_GPU_workarrays 1
 free_GPU_workarrays 2
 free_GPU_workarrays 3
 free_GPU_workarrays 4
 free_GPU_workarrays 1
 free_GPU_workarrays 2
 free_GPU_workarrays 3
 free_GPU_workarrays 1
 free_GPU_workarrays 2
 free_GPU_workarrays 4
 free_GPU_workarrays 1
 free_GPU_workarrays 2
 free_GPU_workarrays 3
 free_GPU_workarrays 4
 free_GPU_workarrays 3
 free_GPU_workarrays 4
 free_GPU_workarrays 1
 free_GPU_workarrays 1
 free_GPU_workarrays 2
 free_GPU_workarrays 3
 free_GPU_workarrays 2
 free_GPU_workarrays 3
 free_GPU_workarrays 4
 free_GPU_workarrays 4
 free_GPU_workarrays 1
 free_GPU_workarrays 2
 free_GPU_workarrays 3
 free_GPU_workarrays 4
 free_GPU_workarrays 1
 free_GPU_workarrays 2
 free_GPU_workarrays 3
 free_GPU_workarrays 4
 free_GPU_workarrays 1
 free_GPU_workarrays 2
 free_GPU_workarrays 3
 free_GPU_workarrays 4
 free_GPU_workarrays 5
 free_GPU_workarrays 5
 free_GPU_workarrays 5
 free_GPU_workarrays 5
 free_GPU_workarrays 5
 free_GPU_workarrays 5
 free_GPU_workarrays 5
 free_GPU_workarrays 5
 free_GPU_workarrays 5
 free_GPU_workarrays 5
 free_GPU_workarrays 5
 free_GPU_workarrays 5
 free_GPU_workarrays 5
 free_GPU_workarrays 5
 free_GPU_workarrays 5
 free_GPU_workarrays 5
 free_GPU_workarrays 5
 free_GPU_workarrays 5
 free_GPU_workarrays 5
 free_GPU_workarrays 5
 free_GPU_workarrays 5
 free_GPU_workarrays 5
 free_GPU_workarrays 5
 free_GPU_workarrays 5
 free_GPU_workarrays 5
 free_GPU_workarrays 5
 free_GPU_workarrays 5
 free_GPU_workarrays 5
 free_GPU_workarrays 5
 free_GPU_workarrays 5
 free_GPU_workarrays 5
 free_GPU_workarrays 5
 free_GPU_workarrays 5
 free_GPU_workarrays 5
 free_GPU_workarrays 5
 free_GPU_workarrays 5
 free_GPU_workarrays 5
 free_GPU_workarrays 5
 free_GPU_workarrays 5
 free_GPU_workarrays 5
 free_GPU_workarrays 5
 free_GPU_workarrays 5
 free_GPU_workarrays 5
 free_GPU_workarrays 5
 free_GPU_workarrays 5
 free_GPU_workarrays 5
 free_GPU_workarrays 5
 free_GPU_workarrays 5
 free_GPU_workarrays 5
 free_GPU_workarrays 5
 free_GPU_workarrays 5
 free_GPU_workarrays 5
 free_GPU_workarrays 5
 free_GPU_workarrays 5
 free_GPU_workarrays 5
 free_GPU_workarrays 5
 free_GPU_workarrays 5
 free_GPU_workarrays 5
 free_GPU_workarrays 5
 free_GPU_workarrays 5
 free_GPU_workarrays 5
 free_GPU_workarrays 5
 free_GPU_workarrays 5
 free_GPU_workarrays 5
 free_GPU_workarrays 6
 free_GPU_workarrays 6
 free_GPU_workarrays 6
 free_GPU_workarrays 6
 free_GPU_workarrays 6
 free_GPU_workarrays 6
 free_GPU_workarrays 6
 free_GPU_workarrays 6
 free_GPU_workarrays 6
 free_GPU_workarrays 6
 free_GPU_workarrays 6
 free_GPU_workarrays 6
 free_GPU_workarrays 6
 free_GPU_workarrays 6
 free_GPU_workarrays 6
 free_GPU_workarrays 6
 free_GPU_workarrays 6
 free_GPU_workarrays 6
 free_GPU_workarrays 6
 free_GPU_workarrays 6
 free_GPU_workarrays 6
 free_GPU_workarrays 6
 free_GPU_workarrays 6
 free_GPU_workarrays 6
 free_GPU_workarrays 6
 free_GPU_workarrays 6
 free_GPU_workarrays 6
 free_GPU_workarrays 6
 free_GPU_workarrays 6
 free_GPU_workarrays 6
 free_GPU_workarrays 6
 free_GPU_workarrays 6
 free_GPU_workarrays 6
 free_GPU_workarrays 6
 free_GPU_workarrays 6
 free_GPU_workarrays 6
 free_GPU_workarrays 6
 free_GPU_workarrays 6
 free_GPU_workarrays 6
 free_GPU_workarrays 6
 free_GPU_workarrays 6
 free_GPU_workarrays 7
 free_GPU_workarrays 8
 free_GPU_workarrays 9
 free_GPU_workarrays 10
 free_GPU_workarrays 7
 free_GPU_workarrays 8
 free_GPU_workarrays 9
 free_GPU_workarrays 10
 free_GPU_workarrays 6
 free_GPU_workarrays 6
 free_GPU_workarrays 6
 free_GPU_workarrays 6
 free_GPU_workarrays 6
 free_GPU_workarrays 6
 free_GPU_workarrays 11
 free_GPU_workarrays 12           3
 free_GPU_workarrays 13            3
 free_GPU_workarrays 11
 free_GPU_workarrays 12           3
 free_GPU_workarrays 13            3
 free_GPU_workarrays 6
 free_GPU_workarrays 6
 free_GPU_workarrays 6
 free_GPU_workarrays 6
 free_GPU_workarrays 6
 free_GPU_workarrays 6
 free_GPU_workarrays 6
 free_GPU_workarrays 6
 free_GPU_workarrays 7
 free_GPU_workarrays 8
 free_GPU_workarrays 9
 free_GPU_workarrays 10
 free_GPU_workarrays 7
 free_GPU_workarrays 8
 free_GPU_workarrays 9
 free_GPU_workarrays 10
 free_GPU_workarrays 11
 free_GPU_workarrays 12           3
 free_GPU_workarrays 13            3
 free_GPU_workarrays 7
 free_GPU_workarrays 8
 free_GPU_workarrays 9
 free_GPU_workarrays 10
 free_GPU_workarrays 7
 free_GPU_workarrays 8
 free_GPU_workarrays 9
 free_GPU_workarrays 10
 free_GPU_workarrays 6
 free_GPU_workarrays 6
 free_GPU_workarrays 11
 free_GPU_workarrays 12           3
 free_GPU_workarrays 13            3
 free_GPU_workarrays 6
 free_GPU_workarrays 11
 free_GPU_workarrays 12           3
 free_GPU_workarrays 13            3
 free_GPU_workarrays 7
 free_GPU_workarrays 8
 free_GPU_workarrays 9
 free_GPU_workarrays 10
 free_GPU_workarrays 11
 free_GPU_workarrays 12           3
 free_GPU_workarrays 13            3
 free_GPU_workarrays 11
 free_GPU_workarrays 12           3
 free_GPU_workarrays 13            3
 free_GPU_workarrays 7
 free_GPU_workarrays 8
 free_GPU_workarrays 9
 free_GPU_workarrays 10
 free_GPU_workarrays 6
 free_GPU_workarrays 6
 free_GPU_workarrays 6
 free_GPU_workarrays 6
 free_GPU_workarrays 6
 free_GPU_workarrays 6
 free_GPU_workarrays 7
 free_GPU_workarrays 8
 free_GPU_workarrays 9
 free_GPU_workarrays 10
 free_GPU_workarrays 11
 free_GPU_workarrays 12           3
 free_GPU_workarrays 13            3
 free_GPU_workarrays 7
 free_GPU_workarrays 8
 free_GPU_workarrays 9
 free_GPU_workarrays 10
 free_GPU_workarrays 11
 free_GPU_workarrays 12           3
 free_GPU_workarrays 13            3
 free_GPU_workarrays 7
 free_GPU_workarrays 8
 free_GPU_workarrays 9
 free_GPU_workarrays 10
 free_GPU_workarrays 11
 free_GPU_workarrays 12           3
 free_GPU_workarrays 13            3
 free_GPU_workarrays 11
 free_GPU_workarrays 12           3
 free_GPU_workarrays 13            3
 free_GPU_workarrays 7
 free_GPU_workarrays 8
 free_GPU_workarrays 9
 free_GPU_workarrays 10
 free_GPU_workarrays 11
 free_GPU_workarrays 12           3
 free_GPU_workarrays 13            3
 free_GPU_workarrays 7
 free_GPU_workarrays 8
 free_GPU_workarrays 9
 free_GPU_workarrays 10
 free_GPU_workarrays 11
 free_GPU_workarrays 12           3
 free_GPU_workarrays 13            3
 free_GPU_workarrays 7
 free_GPU_workarrays 8
 free_GPU_workarrays 9
 free_GPU_workarrays 10
 free_GPU_workarrays 7
 free_GPU_workarrays 8
 free_GPU_workarrays 9
 free_GPU_workarrays 10
 free_GPU_workarrays 11
 free_GPU_workarrays 12           3
 free_GPU_workarrays 13            3
 free_GPU_workarrays 11
 free_GPU_workarrays 12           3
 free_GPU_workarrays 13            3
 free_GPU_workarrays 7
 free_GPU_workarrays 8
 free_GPU_workarrays 9
 free_GPU_workarrays 10
 free_GPU_workarrays 7
 free_GPU_workarrays 8
 free_GPU_workarrays 9
 free_GPU_workarrays 10
 free_GPU_workarrays 7
 free_GPU_workarrays 8
 free_GPU_workarrays 7
 free_GPU_workarrays 8
 free_GPU_workarrays 9
 free_GPU_workarrays 9
 free_GPU_workarrays 10
 free_GPU_workarrays 10
 free_GPU_workarrays 11
 free_GPU_workarrays 12           3
 free_GPU_workarrays 13            3
 free_GPU_workarrays 11
 free_GPU_workarrays 12           3
 free_GPU_workarrays 13            3
 free_GPU_workarrays 7
 free_GPU_workarrays 8
 free_GPU_workarrays 9
 free_GPU_workarrays 10
 free_GPU_workarrays 7
 free_GPU_workarrays 8
 free_GPU_workarrays 9
 free_GPU_workarrays 10
 free_GPU_workarrays 11
 free_GPU_workarrays 12           3
 free_GPU_workarrays 13            3
 free_GPU_workarrays 7
 free_GPU_workarrays 8
 free_GPU_workarrays 9
 free_GPU_workarrays 11
 free_GPU_workarrays 12           3
 free_GPU_workarrays 13            3
 free_GPU_workarrays 10
 free_GPU_workarrays 7
 free_GPU_workarrays 8
 free_GPU_workarrays 9
 free_GPU_workarrays 10
 free_GPU_workarrays 11
 free_GPU_workarrays 12           3
 free_GPU_workarrays 13            3
 free_GPU_workarrays 11
 free_GPU_workarrays 12           3
 free_GPU_workarrays 13            3
 free_GPU_workarrays 7
 free_GPU_workarrays 8
 free_GPU_workarrays 9
 free_GPU_workarrays 10
 free_GPU_workarrays 11
 free_GPU_workarrays 12           3
 free_GPU_workarrays 13            3
 free_GPU_workarrays 7
 free_GPU_workarrays 8
 free_GPU_workarrays 9
 free_GPU_workarrays 10
 free_GPU_workarrays 11
 free_GPU_workarrays 12           3
 free_GPU_workarrays 13            3
 free_GPU_workarrays 7
 free_GPU_workarrays 8
 free_GPU_workarrays 9
 free_GPU_workarrays 10
 free_GPU_workarrays 11
 free_GPU_workarrays 12           3
 free_GPU_workarrays 13            3
 free_GPU_workarrays 11
 free_GPU_workarrays 12           3
 free_GPU_workarrays 13            3
 free_GPU_workarrays 7
 free_GPU_workarrays 8
 free_GPU_workarrays 9
 free_GPU_workarrays 10
 free_GPU_workarrays 11
 free_GPU_workarrays 12           3
 free_GPU_workarrays 13            3
 free_GPU_workarrays 11
 free_GPU_workarrays 12           3
 free_GPU_workarrays 13            3
 free_GPU_workarrays 7
 free_GPU_workarrays 8
 free_GPU_workarrays 9
 free_GPU_workarrays 10
 free_GPU_workarrays 7
 free_GPU_workarrays 8
 free_GPU_workarrays 9
 free_GPU_workarrays 10
 free_GPU_workarrays 11
 free_GPU_workarrays 12           3
 free_GPU_workarrays 13            3
 free_GPU_workarrays 7
 free_GPU_workarrays 8
 free_GPU_workarrays 9
 free_GPU_workarrays 10
 free_GPU_workarrays 11
 free_GPU_workarrays 12           3
 free_GPU_workarrays 13            3
 free_GPU_workarrays 7
 free_GPU_workarrays 8
 free_GPU_workarrays 9
 free_GPU_workarrays 7
 free_GPU_workarrays 8
 free_GPU_workarrays 9
 free_GPU_workarrays 10
 free_GPU_workarrays 11
 free_GPU_workarrays 12           3
 free_GPU_workarrays 13            3
 free_GPU_workarrays 10
 free_GPU_workarrays 7
 free_GPU_workarrays 8
 free_GPU_workarrays 9
 free_GPU_workarrays 10
 free_GPU_workarrays 7
 free_GPU_workarrays 8
 free_GPU_workarrays 7
 free_GPU_workarrays 8
 free_GPU_workarrays 9
 free_GPU_workarrays 10
 free_GPU_workarrays 7
 free_GPU_workarrays 8
 free_GPU_workarrays 9
 free_GPU_workarrays 10
 free_GPU_workarrays 9
 free_GPU_workarrays 10
 free_GPU_workarrays 7
 free_GPU_workarrays 8
 free_GPU_workarrays 9
 free_GPU_workarrays 10
 free_GPU_workarrays 11
 free_GPU_workarrays 12           3
 free_GPU_workarrays 13            3
 free_GPU_workarrays 11
 free_GPU_workarrays 12           3
 free_GPU_workarrays 13            3
 free_GPU_workarrays 11
 free_GPU_workarrays 12           3
 free_GPU_workarrays 13            3
 free_GPU_workarrays 11
 free_GPU_workarrays 12           3
 free_GPU_workarrays 13            3
 free_GPU_workarrays 11
 free_GPU_workarrays 12           3
 free_GPU_workarrays 13            3
 free_GPU_workarrays 11
 free_GPU_workarrays 12           3
 free_GPU_workarrays 13            3
 free_GPU_workarrays 11
 free_GPU_workarrays 12           3
 free_GPU_workarrays 13            3
 free_GPU_workarrays 7
 free_GPU_workarrays 8
 free_GPU_workarrays 9
 free_GPU_workarrays 10
 free_GPU_workarrays 7
 free_GPU_workarrays 8
 free_GPU_workarrays 9
 free_GPU_workarrays 10
 free_GPU_workarrays 11
 free_GPU_workarrays 12           3
 free_GPU_workarrays 13            3
 free_GPU_workarrays 7
 free_GPU_workarrays 8
 free_GPU_workarrays 9
 free_GPU_workarrays 10
 free_GPU_workarrays 7
 free_GPU_workarrays 8
 free_GPU_workarrays 9
 free_GPU_workarrays 10
 free_GPU_workarrays 7
 free_GPU_workarrays 8
 free_GPU_workarrays 9
 free_GPU_workarrays 7
 free_GPU_workarrays 8
 free_GPU_workarrays 9
 free_GPU_workarrays 10
 free_GPU_workarrays 7
 free_GPU_workarrays 8
 free_GPU_workarrays 9
 free_GPU_workarrays 10
 free_GPU_workarrays 10
 free_GPU_workarrays 11
 free_GPU_workarrays 12           3
 free_GPU_workarrays 13            3
 free_GPU_workarrays 11
 free_GPU_workarrays 12           3
 free_GPU_workarrays 13            3
 free_GPU_workarrays 11
 free_GPU_workarrays 12           3
 free_GPU_workarrays 13            3
 free_GPU_workarrays 11
 free_GPU_workarrays 12           3
 free_GPU_workarrays 13            3
 free_GPU_workarrays 11
 free_GPU_workarrays 12           3
 free_GPU_workarrays 13            3
 free_GPU_workarrays 7
 free_GPU_workarrays 8
 free_GPU_workarrays 9
 free_GPU_workarrays 11
 free_GPU_workarrays 12           3
 free_GPU_workarrays 13            3
 free_GPU_workarrays 10
 free_GPU_workarrays 7
 free_GPU_workarrays 8
 free_GPU_workarrays 9
 free_GPU_workarrays 10
 free_GPU_workarrays 7
 free_GPU_workarrays 8
 free_GPU_workarrays 9
 free_GPU_workarrays 10
 free_GPU_workarrays 7
 free_GPU_workarrays 8
 free_GPU_workarrays 7
 free_GPU_workarrays 8
 free_GPU_workarrays 9
 free_GPU_workarrays 10
 free_GPU_workarrays 9
 free_GPU_workarrays 10
 free_GPU_workarrays 11
 free_GPU_workarrays 12           3
 free_GPU_workarrays 13            3
 free_GPU_workarrays 11
 free_GPU_workarrays 12           3
 free_GPU_workarrays 13            3
 free_GPU_workarrays 11
 free_GPU_workarrays 12           3
 free_GPU_workarrays 13            3
 free_GPU_workarrays 11
 free_GPU_workarrays 12           3
 free_GPU_workarrays 13            3
 free_GPU_workarrays 11
 free_GPU_workarrays 12           3
 free_GPU_workarrays 13            3
 free_GPU_workarrays 7
 free_GPU_workarrays 8
 free_GPU_workarrays 9
 free_GPU_workarrays 10
 free_GPU_workarrays 7
 free_GPU_workarrays 8
 free_GPU_workarrays 9
 free_GPU_workarrays 10
 free_GPU_workarrays 7
 free_GPU_workarrays 8
 free_GPU_workarrays 9
 free_GPU_workarrays 10
 free_GPU_workarrays 11
 free_GPU_workarrays 12           3
 free_GPU_workarrays 13            3
 free_GPU_workarrays 11
 free_GPU_workarrays 12           3
 free_GPU_workarrays 13            3
 free_GPU_workarrays 11
 free_GPU_workarrays 12           3
 free_GPU_workarrays 13            3
 free_GPU_workarrays 7
 free_GPU_workarrays 8
 free_GPU_workarrays 9
 free_GPU_workarrays 10
 free_GPU_workarrays 7
 free_GPU_workarrays 8
 free_GPU_workarrays 9
 free_GPU_workarrays 10
 free_GPU_workarrays 7
 free_GPU_workarrays 8
 free_GPU_workarrays 9
 free_GPU_workarrays 10
 free_GPU_workarrays 11
 free_GPU_workarrays 12           3
 free_GPU_workarrays 13            3
 free_GPU_workarrays 7
 free_GPU_workarrays 8
 free_GPU_workarrays 9
 free_GPU_workarrays 10
 free_GPU_workarrays 7
 free_GPU_workarrays 8
 free_GPU_workarrays 9
 free_GPU_workarrays 10
 free_GPU_workarrays 11
 free_GPU_workarrays 12           3
 free_GPU_workarrays 13            3
 free_GPU_workarrays 11
 free_GPU_workarrays 12           3
 free_GPU_workarrays 13            3
 free_GPU_workarrays 11
 free_GPU_workarrays 12           3
 free_GPU_workarrays 13            3
 free_GPU_workarrays 7
 free_GPU_workarrays 8
 free_GPU_workarrays 9
 free_GPU_workarrays 10
 free_GPU_workarrays 11
 free_GPU_workarrays 12           3
 free_GPU_workarrays 13            3
 free_GPU_workarrays 11
 free_GPU_workarrays 12           3
 free_GPU_workarrays 13            3
 free_GPU_workarrays 7
 free_GPU_workarrays 8
 free_GPU_workarrays 9
 free_GPU_workarrays 10
 free_GPU_workarrays 7
 free_GPU_workarrays 8
 free_GPU_workarrays 9
 free_GPU_workarrays 10
 free_GPU_workarrays 7
 free_GPU_workarrays 8
 free_GPU_workarrays 9
 free_GPU_workarrays 10
 free_GPU_workarrays 7
 free_GPU_workarrays 8
 free_GPU_workarrays 9
 free_GPU_workarrays 10
 free_GPU_workarrays 7
 free_GPU_workarrays 8
 free_GPU_workarrays 9
 free_GPU_workarrays 10
 free_GPU_workarrays 7
 free_GPU_workarrays 8
 free_GPU_workarrays 9
 free_GPU_workarrays 10
 free_GPU_workarrays 11
 free_GPU_workarrays 12           3
 free_GPU_workarrays 13            3
 free_GPU_workarrays 11
 free_GPU_workarrays 12           3
 free_GPU_workarrays 13            3
 free_GPU_workarrays 11
 free_GPU_workarrays 12           3
 free_GPU_workarrays 13            3
 free_GPU_workarrays 11
 free_GPU_workarrays 12           3
 free_GPU_workarrays 13            3
 free_GPU_workarrays 11
 free_GPU_workarrays 12           3
 free_GPU_workarrays 13            3
 free_GPU_workarrays 11
 free_GPU_workarrays 12           3
 free_GPU_workarrays 13            3
 Memory Consumption Report:
   Tot. No. of Allocations             :  408
   Tot. No. of Deallocations           :  408
   Remaining Memory (B)                :  0
   Memory occupation:
     Peak Value (MB)                   :  1154.000
     for the array                     : psir
     in the routine                    : null
     Memory Peak of process            : 6004.128 MB
 Walltime since initialization         :  00:00:31.125406312
 Max No. of dictionaries used          :  591 #( 241 still in use)
 Number of dictionary folders allocated:  1
