[8] MPI startup(): ===== GPU topology on compute35 =====
[8] MPI startup(): NUMA nodes : 2
[8] MPI startup(): GPUs       : 4
[8] MPI startup(): Tiles      : 8
[8] MPI startup(): NUMA Id	GPU Id         Tiles                          Ranks on this NUMA
[8] MPI startup(): 0      	0,1            (0,1)(2,3)                     8,9,10,11
[8] MPI startup(): 1      	2,3            (4,5)(6,7)                     12,13,14,15
[8] MPI startup(): ===== GPU pinning on compute35 =====
[8] MPI startup(): Rank	Pin tile
[8] MPI startup(): 8	{0}
[8] MPI startup(): 9	{1}
[8] MPI startup(): 10	{2}
[8] MPI startup(): 11	{3}
[8] MPI startup(): 12	{4}
[8] MPI startup(): 13	{5}
[8] MPI startup(): 14	{6}
[8] MPI startup(): 15	{7}
[0] MPI startup(): ===== GPU topology on compute31 =====
[0] MPI startup(): NUMA nodes : 2
[0] MPI startup(): GPUs       : 4
[0] MPI startup(): Tiles      : 8
[0] MPI startup(): NUMA Id	GPU Id         Tiles                          Ranks on this NUMA
[0] MPI startup(): 0      	0,1            (0,1)(2,3)                     0,1,2,3
[0] MPI startup(): 1      	2,3            (4,5)(6,7)                     4,5,6,7
[0] MPI startup(): ===== GPU pinning on compute31 =====
[0] MPI startup(): Rank	Pin tile
[0] MPI startup(): 0	{0}
[0] MPI startup(): 1	{1}
[0] MPI startup(): 2	{2}
[0] MPI startup(): 3	{3}
[0] MPI startup(): 4	{4}
[0] MPI startup(): 5	{5}
[0] MPI startup(): 6	{6}
[0] MPI startup(): 7	{7}
[16] MPI startup(): ===== GPU topology on compute41 =====
[16] MPI startup(): NUMA nodes : 2
[16] MPI startup(): GPUs       : 4
[16] MPI startup(): Tiles      : 8
[16] MPI startup(): NUMA Id	GPU Id         Tiles                          Ranks on this NUMA
[16] MPI startup(): 0      	0,1            (0,1)(2,3)                     16,17,18,19
[16] MPI startup(): 1      	2,3            (4,5)(6,7)                     20,21,22,23
[16] MPI startup(): ===== GPU pinning on compute41 =====
[16] MPI startup(): Rank	Pin tile
[16] MPI startup(): 16	{0}
[16] MPI startup(): 17	{1}
[16] MPI startup(): 18	{2}
[16] MPI startup(): 19	{3}
[16] MPI startup(): 20	{4}
[16] MPI startup(): 21	{5}
[16] MPI startup(): 22	{6}
[16] MPI startup(): 23	{7}
[24] MPI startup(): ===== GPU topology on compute42 =====
[24] MPI startup(): NUMA nodes : 2
[24] MPI startup(): GPUs       : 4
[24] MPI startup(): Tiles      : 8
[24] MPI startup(): NUMA Id	GPU Id         Tiles                          Ranks on this NUMA
[24] MPI startup(): 0      	0,1            (0,1)(2,3)                     24,25,26,27
[24] MPI startup(): 1      	2,3            (4,5)(6,7)                     28,29,30,31
[24] MPI startup(): ===== GPU pinning on compute42 =====
[24] MPI startup(): Rank	Pin tile
[24] MPI startup(): 24	{0}
[24] MPI startup(): 25	{1}
[24] MPI startup(): 26	{2}
[24] MPI startup(): 27	{3}
[24] MPI startup(): 28	{4}
[24] MPI startup(): 29	{5}
[24] MPI startup(): 30	{6}
[24] MPI startup(): 31	{7}
[0] MPI startup(): Intel(R) MPI Library, Version 2021.10  Build 20230619 (id: c2e19c2f3e)
[0] MPI startup(): Copyright (C) 2003-2023 Intel Corporation.  All rights reserved.
[0] MPI startup(): library kind: release
[0] MPI startup(): libfabric version: 1.18.0-impi
compute41:rank22 PSM3_IDENTIFY PSM3 v3.0-oneapi-ze built for IEFS OFA DELTA 11_5_0_0_172
compute41:rank22 PSM3_IDENTIFY location /usr/lib64/libfabric/libpsm3-fi.so
compute41:rank22 PSM3_IDENTIFY build date 2023-05-15T09:53:40
compute41:rank22 PSM3_IDENTIFY src checksum 2c3eb379fd92530cd927d9f8b08506d7387c1d59
compute41:rank22 PSM3_IDENTIFY git checksum 97fdceb01fc41231a0a29e1df3f0f8ba760facd7
compute41:rank22 PSM3_IDENTIFY HAL: verbs (RDMA Verbs (oneapi-ze)) built against rv interface v1.4 gpu v1.3 oneapi-ze
compute41:rank22 PSM3_IDENTIFY Global Rank 22 (32 total) Local Rank 6 (8 total)
compute41:rank22 PSM3_IDENTIFY CPU Core 84 NUMA 1 PID 6393
compute41:rank20 PSM3_IDENTIFY PSM3 v3.0-oneapi-ze built for IEFS OFA DELTA 11_5_0_0_172
compute41:rank20 PSM3_IDENTIFY location /usr/lib64/libfabric/libpsm3-fi.so
compute41:rank20 PSM3_IDENTIFY build date 2023-05-15T09:53:40
compute41:rank20 PSM3_IDENTIFY src checksum 2c3eb379fd92530cd927d9f8b08506d7387c1d59
compute41:rank20 PSM3_IDENTIFY git checksum 97fdceb01fc41231a0a29e1df3f0f8ba760facd7
compute41:rank20 PSM3_IDENTIFY HAL: verbs (RDMA Verbs (oneapi-ze)) built against rv interface v1.4 gpu v1.3 oneapi-ze
compute41:rank20 PSM3_IDENTIFY Global Rank 20 (32 total) Local Rank 4 (8 total)
compute41:rank20 PSM3_IDENTIFY CPU Core 168 NUMA 1 PID 6391
compute41:rank17 PSM3_IDENTIFY PSM3 v3.0-oneapi-ze built for IEFS OFA DELTA 11_5_0_0_172
compute41:rank17 PSM3_IDENTIFY location /usr/lib64/libfabric/libpsm3-fi.so
compute41:rank17 PSM3_IDENTIFY build date 2023-05-15T09:53:40
compute41:rank17 PSM3_IDENTIFY src checksum 2c3eb379fd92530cd927d9f8b08506d7387c1d59
compute41:rank17 PSM3_IDENTIFY git checksum 97fdceb01fc41231a0a29e1df3f0f8ba760facd7
compute41:rank17 PSM3_IDENTIFY HAL: verbs (RDMA Verbs (oneapi-ze)) built against rv interface v1.4 gpu v1.3 oneapi-ze
compute41:rank17 PSM3_IDENTIFY Global Rank 17 (32 total) Local Rank 1 (8 total)
compute41:rank17 PSM3_IDENTIFY CPU Core 14 NUMA 0 PID 6388
compute41:rank16 PSM3_IDENTIFY PSM3 v3.0-oneapi-ze built for IEFS OFA DELTA 11_5_0_0_172
compute41:rank16 PSM3_IDENTIFY location /usr/lib64/libfabric/libpsm3-fi.so
compute41:rank16 PSM3_IDENTIFY build date 2023-05-15T09:53:40
compute41:rank16 PSM3_IDENTIFY src checksum 2c3eb379fd92530cd927d9f8b08506d7387c1d59
compute41:rank16 PSM3_IDENTIFY git checksum 97fdceb01fc41231a0a29e1df3f0f8ba760facd7
compute41:rank16 PSM3_IDENTIFY HAL: verbs (RDMA Verbs (oneapi-ze)) built against rv interface v1.4 gpu v1.3 oneapi-ze
compute41:rank16 PSM3_IDENTIFY Global Rank 16 (32 total) Local Rank 0 (8 total)
compute41:rank16 PSM3_IDENTIFY CPU Core 1 NUMA 0 PID 6387
compute41:rank18 PSM3_IDENTIFY PSM3 v3.0-oneapi-ze built for IEFS OFA DELTA 11_5_0_0_172
compute41:rank18 PSM3_IDENTIFY location /usr/lib64/libfabric/libpsm3-fi.so
compute41:rank18 PSM3_IDENTIFY build date 2023-05-15T09:53:40
compute41:rank18 PSM3_IDENTIFY src checksum 2c3eb379fd92530cd927d9f8b08506d7387c1d59
compute41:rank18 PSM3_IDENTIFY git checksum 97fdceb01fc41231a0a29e1df3f0f8ba760facd7
compute41:rank18 PSM3_IDENTIFY HAL: verbs (RDMA Verbs (oneapi-ze)) built against rv interface v1.4 gpu v1.3 oneapi-ze
compute41:rank18 PSM3_IDENTIFY Global Rank 18 (32 total) Local Rank 2 (8 total)
compute41:rank18 PSM3_IDENTIFY CPU Core 140 NUMA 0 PID 6389
compute41:rank19 PSM3_IDENTIFY PSM3 v3.0-oneapi-ze built for IEFS OFA DELTA 11_5_0_0_172
compute41:rank19 PSM3_IDENTIFY location /usr/lib64/libfabric/libpsm3-fi.so
compute41:rank19 PSM3_IDENTIFY build date 2023-05-15T09:53:40
compute41:rank19 PSM3_IDENTIFY src checksum 2c3eb379fd92530cd927d9f8b08506d7387c1d59
compute41:rank19 PSM3_IDENTIFY git checksum 97fdceb01fc41231a0a29e1df3f0f8ba760facd7
compute41:rank19 PSM3_IDENTIFY HAL: verbs (RDMA Verbs (oneapi-ze)) built against rv interface v1.4 gpu v1.3 oneapi-ze
compute41:rank19 PSM3_IDENTIFY Global Rank 19 (32 total) Local Rank 3 (8 total)
compute41:rank19 PSM3_IDENTIFY CPU Core 42 NUMA 0 PID 6390
compute41:rank23 PSM3_IDENTIFY PSM3 v3.0-oneapi-ze built for IEFS OFA DELTA 11_5_0_0_172
compute41:rank23 PSM3_IDENTIFY location /usr/lib64/libfabric/libpsm3-fi.so
compute41:rank23 PSM3_IDENTIFY build date 2023-05-15T09:53:40
compute41:rank23 PSM3_IDENTIFY src checksum 2c3eb379fd92530cd927d9f8b08506d7387c1d59
compute41:rank23 PSM3_IDENTIFY git checksum 97fdceb01fc41231a0a29e1df3f0f8ba760facd7
compute41:rank23 PSM3_IDENTIFY HAL: verbs (RDMA Verbs (oneapi-ze)) built against rv interface v1.4 gpu v1.3 oneapi-ze
compute41:rank23 PSM3_IDENTIFY Global Rank 23 (32 total) Local Rank 7 (8 total)
compute41:rank23 PSM3_IDENTIFY CPU Core 98 NUMA 1 PID 6394
compute41:rank21 PSM3_IDENTIFY PSM3 v3.0-oneapi-ze built for IEFS OFA DELTA 11_5_0_0_172
compute41:rank21 PSM3_IDENTIFY location /usr/lib64/libfabric/libpsm3-fi.so
compute41:rank21 PSM3_IDENTIFY build date 2023-05-15T09:53:40
compute41:rank21 PSM3_IDENTIFY src checksum 2c3eb379fd92530cd927d9f8b08506d7387c1d59
compute41:rank21 PSM3_IDENTIFY git checksum 97fdceb01fc41231a0a29e1df3f0f8ba760facd7
compute41:rank21 PSM3_IDENTIFY HAL: verbs (RDMA Verbs (oneapi-ze)) built against rv interface v1.4 gpu v1.3 oneapi-ze
compute41:rank21 PSM3_IDENTIFY Global Rank 21 (32 total) Local Rank 5 (8 total)
compute41:rank21 PSM3_IDENTIFY CPU Core 70 NUMA 1 PID 6392
compute41:rank19 PSM3_IDENTIFY run-time rv interface v1.4 user_mr gpu v1.3 oneapi-ze
compute41:rank18 PSM3_IDENTIFY run-time rv interface v1.4 user_mr gpu v1.3 oneapi-ze
compute41:rank16 PSM3_IDENTIFY run-time rv interface v1.4 user_mr gpu v1.3 oneapi-ze
compute41:rank21 PSM3_IDENTIFY run-time rv interface v1.4 user_mr gpu v1.3 oneapi-ze
compute41:rank17 PSM3_IDENTIFY run-time rv interface v1.4 user_mr gpu v1.3 oneapi-ze
compute41:rank20 PSM3_IDENTIFY run-time rv interface v1.4 user_mr gpu v1.3 oneapi-ze
compute41:rank16 PSM3_IDENTIFY NIC 0 (mlx5_0) Port 1 200000 Mbps NUMA 0 LID=11 GID=0xfe80000000000000:946dae0300eb4abe QP=118753
compute41:rank18 PSM3_IDENTIFY NIC 0 (mlx5_0) Port 1 200000 Mbps NUMA 0 LID=11 GID=0xfe80000000000000:946dae0300eb4abe QP=118752
compute41:rank19 PSM3_IDENTIFY NIC 0 (mlx5_0) Port 1 200000 Mbps NUMA 0 LID=11 GID=0xfe80000000000000:946dae0300eb4abe QP=118751
compute41:rank22 PSM3_IDENTIFY run-time rv interface v1.4 user_mr gpu v1.3 oneapi-ze
compute41:rank23 PSM3_IDENTIFY run-time rv interface v1.4 user_mr gpu v1.3 oneapi-ze
compute41:rank21 PSM3_IDENTIFY NIC 1 (mlx5_1) Port 1 200000 Mbps NUMA 1 LID=17 GID=0xfe80000000000000:946dae0300eb4a96 QP=118421
compute41:rank17 PSM3_IDENTIFY NIC 0 (mlx5_0) Port 1 200000 Mbps NUMA 0 LID=11 GID=0xfe80000000000000:946dae0300eb4abe QP=118754
compute41:rank20 PSM3_IDENTIFY NIC 1 (mlx5_1) Port 1 200000 Mbps NUMA 1 LID=17 GID=0xfe80000000000000:946dae0300eb4a96 QP=118422
compute41:rank22 PSM3_IDENTIFY NIC 1 (mlx5_1) Port 1 200000 Mbps NUMA 1 LID=17 GID=0xfe80000000000000:946dae0300eb4a96 QP=118423
compute41:rank23 PSM3_IDENTIFY NIC 1 (mlx5_1) Port 1 200000 Mbps NUMA 1 LID=17 GID=0xfe80000000000000:946dae0300eb4a96 QP=118424
compute35:rank9 PSM3_IDENTIFY PSM3 v3.0-oneapi-ze built for IEFS OFA DELTA 11_5_0_0_172
compute35:rank9 PSM3_IDENTIFY location /usr/lib64/libfabric/libpsm3-fi.so
compute35:rank9 PSM3_IDENTIFY build date 2023-05-15T09:53:40
compute35:rank9 PSM3_IDENTIFY src checksum 2c3eb379fd92530cd927d9f8b08506d7387c1d59
compute35:rank9 PSM3_IDENTIFY git checksum 97fdceb01fc41231a0a29e1df3f0f8ba760facd7
compute35:rank9 PSM3_IDENTIFY HAL: verbs (RDMA Verbs (oneapi-ze)) built against rv interface v1.4 gpu v1.3 oneapi-ze
compute35:rank9 PSM3_IDENTIFY Global Rank 9 (32 total) Local Rank 1 (8 total)
compute35:rank9 PSM3_IDENTIFY CPU Core 14 NUMA 0 PID 79080
compute35:rank12 PSM3_IDENTIFY PSM3 v3.0-oneapi-ze built for IEFS OFA DELTA 11_5_0_0_172
compute35:rank12 PSM3_IDENTIFY location /usr/lib64/libfabric/libpsm3-fi.so
compute35:rank12 PSM3_IDENTIFY build date 2023-05-15T09:53:40
compute35:rank12 PSM3_IDENTIFY src checksum 2c3eb379fd92530cd927d9f8b08506d7387c1d59
compute35:rank12 PSM3_IDENTIFY git checksum 97fdceb01fc41231a0a29e1df3f0f8ba760facd7
compute35:rank12 PSM3_IDENTIFY HAL: verbs (RDMA Verbs (oneapi-ze)) built against rv interface v1.4 gpu v1.3 oneapi-ze
compute35:rank12 PSM3_IDENTIFY Global Rank 12 (32 total) Local Rank 4 (8 total)
compute35:rank12 PSM3_IDENTIFY CPU Core 168 NUMA 1 PID 79083
compute35:rank15 PSM3_IDENTIFY PSM3 v3.0-oneapi-ze built for IEFS OFA DELTA 11_5_0_0_172
compute35:rank15 PSM3_IDENTIFY location /usr/lib64/libfabric/libpsm3-fi.so
compute35:rank15 PSM3_IDENTIFY build date 2023-05-15T09:53:40
compute35:rank15 PSM3_IDENTIFY src checksum 2c3eb379fd92530cd927d9f8b08506d7387c1d59
compute35:rank15 PSM3_IDENTIFY git checksum 97fdceb01fc41231a0a29e1df3f0f8ba760facd7
compute35:rank15 PSM3_IDENTIFY HAL: verbs (RDMA Verbs (oneapi-ze)) built against rv interface v1.4 gpu v1.3 oneapi-ze
compute35:rank15 PSM3_IDENTIFY Global Rank 15 (32 total) Local Rank 7 (8 total)
compute35:rank15 PSM3_IDENTIFY CPU Core 99 NUMA 1 PID 79086
compute35:rank13 PSM3_IDENTIFY PSM3 v3.0-oneapi-ze built for IEFS OFA DELTA 11_5_0_0_172
compute35:rank13 PSM3_IDENTIFY location /usr/lib64/libfabric/libpsm3-fi.so
compute35:rank13 PSM3_IDENTIFY build date 2023-05-15T09:53:40
compute35:rank13 PSM3_IDENTIFY src checksum 2c3eb379fd92530cd927d9f8b08506d7387c1d59
compute35:rank13 PSM3_IDENTIFY git checksum 97fdceb01fc41231a0a29e1df3f0f8ba760facd7
compute35:rank13 PSM3_IDENTIFY HAL: verbs (RDMA Verbs (oneapi-ze)) built against rv interface v1.4 gpu v1.3 oneapi-ze
compute35:rank13 PSM3_IDENTIFY Global Rank 13 (32 total) Local Rank 5 (8 total)
compute35:rank13 PSM3_IDENTIFY CPU Core 73 NUMA 1 PID 79084
compute35:rank8 PSM3_IDENTIFY PSM3 v3.0-oneapi-ze built for IEFS OFA DELTA 11_5_0_0_172
compute35:rank8 PSM3_IDENTIFY location /usr/lib64/libfabric/libpsm3-fi.so
compute35:rank8 PSM3_IDENTIFY build date 2023-05-15T09:53:40
compute35:rank8 PSM3_IDENTIFY src checksum 2c3eb379fd92530cd927d9f8b08506d7387c1d59
compute35:rank8 PSM3_IDENTIFY git checksum 97fdceb01fc41231a0a29e1df3f0f8ba760facd7
compute35:rank8 PSM3_IDENTIFY HAL: verbs (RDMA Verbs (oneapi-ze)) built against rv interface v1.4 gpu v1.3 oneapi-ze
compute35:rank8 PSM3_IDENTIFY Global Rank 8 (32 total) Local Rank 0 (8 total)
compute35:rank8 PSM3_IDENTIFY CPU Core 1 NUMA 0 PID 79079
compute35:rank11 PSM3_IDENTIFY PSM3 v3.0-oneapi-ze built for IEFS OFA DELTA 11_5_0_0_172
compute35:rank11 PSM3_IDENTIFY location /usr/lib64/libfabric/libpsm3-fi.so
compute35:rank11 PSM3_IDENTIFY build date 2023-05-15T09:53:40
compute35:rank11 PSM3_IDENTIFY src checksum 2c3eb379fd92530cd927d9f8b08506d7387c1d59
compute35:rank11 PSM3_IDENTIFY git checksum 97fdceb01fc41231a0a29e1df3f0f8ba760facd7
compute35:rank11 PSM3_IDENTIFY HAL: verbs (RDMA Verbs (oneapi-ze)) built against rv interface v1.4 gpu v1.3 oneapi-ze
compute35:rank11 PSM3_IDENTIFY Global Rank 11 (32 total) Local Rank 3 (8 total)
compute35:rank11 PSM3_IDENTIFY CPU Core 43 NUMA 0 PID 79082
compute35:rank14 PSM3_IDENTIFY PSM3 v3.0-oneapi-ze built for IEFS OFA DELTA 11_5_0_0_172
compute35:rank14 PSM3_IDENTIFY location /usr/lib64/libfabric/libpsm3-fi.so
compute35:rank14 PSM3_IDENTIFY build date 2023-05-15T09:53:40
compute35:rank14 PSM3_IDENTIFY src checksum 2c3eb379fd92530cd927d9f8b08506d7387c1d59
compute35:rank14 PSM3_IDENTIFY git checksum 97fdceb01fc41231a0a29e1df3f0f8ba760facd7
compute35:rank14 PSM3_IDENTIFY HAL: verbs (RDMA Verbs (oneapi-ze)) built against rv interface v1.4 gpu v1.3 oneapi-ze
compute35:rank14 PSM3_IDENTIFY Global Rank 14 (32 total) Local Rank 6 (8 total)
compute35:rank14 PSM3_IDENTIFY CPU Core 85 NUMA 1 PID 79085
compute35:rank10 PSM3_IDENTIFY PSM3 v3.0-oneapi-ze built for IEFS OFA DELTA 11_5_0_0_172
compute35:rank10 PSM3_IDENTIFY location /usr/lib64/libfabric/libpsm3-fi.so
compute35:rank10 PSM3_IDENTIFY build date 2023-05-15T09:53:40
compute35:rank10 PSM3_IDENTIFY src checksum 2c3eb379fd92530cd927d9f8b08506d7387c1d59
compute35:rank10 PSM3_IDENTIFY git checksum 97fdceb01fc41231a0a29e1df3f0f8ba760facd7
compute35:rank10 PSM3_IDENTIFY HAL: verbs (RDMA Verbs (oneapi-ze)) built against rv interface v1.4 gpu v1.3 oneapi-ze
compute35:rank10 PSM3_IDENTIFY Global Rank 10 (32 total) Local Rank 2 (8 total)
compute35:rank10 PSM3_IDENTIFY CPU Core 140 NUMA 0 PID 79081
compute31:rank2 PSM3_IDENTIFY PSM3 v3.0-oneapi-ze built for IEFS OFA DELTA 11_5_0_0_172
compute31:rank2 PSM3_IDENTIFY location /usr/lib64/libfabric/libpsm3-fi.so
compute31:rank2 PSM3_IDENTIFY build date 2023-05-15T09:53:40
compute31:rank2 PSM3_IDENTIFY src checksum 2c3eb379fd92530cd927d9f8b08506d7387c1d59
compute31:rank2 PSM3_IDENTIFY git checksum 97fdceb01fc41231a0a29e1df3f0f8ba760facd7
compute31:rank2 PSM3_IDENTIFY HAL: verbs (RDMA Verbs (oneapi-ze)) built against rv interface v1.4 gpu v1.3 oneapi-ze
compute31:rank2 PSM3_IDENTIFY Global Rank 2 (32 total) Local Rank 2 (8 total)
compute31:rank2 PSM3_IDENTIFY CPU Core 140 NUMA 0 PID 86198
compute31:rank4 PSM3_IDENTIFY PSM3 v3.0-oneapi-ze built for IEFS OFA DELTA 11_5_0_0_172
compute31:rank4 PSM3_IDENTIFY location /usr/lib64/libfabric/libpsm3-fi.so
compute31:rank4 PSM3_IDENTIFY build date 2023-05-15T09:53:40
compute31:rank4 PSM3_IDENTIFY src checksum 2c3eb379fd92530cd927d9f8b08506d7387c1d59
compute31:rank4 PSM3_IDENTIFY git checksum 97fdceb01fc41231a0a29e1df3f0f8ba760facd7
compute31:rank4 PSM3_IDENTIFY HAL: verbs (RDMA Verbs (oneapi-ze)) built against rv interface v1.4 gpu v1.3 oneapi-ze
compute31:rank4 PSM3_IDENTIFY Global Rank 4 (32 total) Local Rank 4 (8 total)
compute31:rank4 PSM3_IDENTIFY CPU Core 56 NUMA 1 PID 86200
[0] MPI startup(): libfabric provider: psm3
compute31:rank0 PSM3_IDENTIFY PSM3 v3.0-oneapi-ze built for IEFS OFA DELTA 11_5_0_0_172
compute31:rank0 PSM3_IDENTIFY location /usr/lib64/libfabric/libpsm3-fi.so
compute31:rank0 PSM3_IDENTIFY build date 2023-05-15T09:53:40
compute31:rank0 PSM3_IDENTIFY src checksum 2c3eb379fd92530cd927d9f8b08506d7387c1d59
compute31:rank0 PSM3_IDENTIFY git checksum 97fdceb01fc41231a0a29e1df3f0f8ba760facd7
compute31:rank0 PSM3_IDENTIFY HAL: verbs (RDMA Verbs (oneapi-ze)) built against rv interface v1.4 gpu v1.3 oneapi-ze
compute31:rank0 PSM3_IDENTIFY Global Rank 0 (32 total) Local Rank 0 (8 total)
compute31:rank0 PSM3_IDENTIFY CPU Core 1 NUMA 0 PID 86196
compute31:rank5 PSM3_IDENTIFY PSM3 v3.0-oneapi-ze built for IEFS OFA DELTA 11_5_0_0_172
compute31:rank5 PSM3_IDENTIFY location /usr/lib64/libfabric/libpsm3-fi.so
compute31:rank5 PSM3_IDENTIFY build date 2023-05-15T09:53:40
compute31:rank5 PSM3_IDENTIFY src checksum 2c3eb379fd92530cd927d9f8b08506d7387c1d59
compute31:rank5 PSM3_IDENTIFY git checksum 97fdceb01fc41231a0a29e1df3f0f8ba760facd7
compute31:rank5 PSM3_IDENTIFY HAL: verbs (RDMA Verbs (oneapi-ze)) built against rv interface v1.4 gpu v1.3 oneapi-ze
compute31:rank5 PSM3_IDENTIFY Global Rank 5 (32 total) Local Rank 5 (8 total)
compute31:rank5 PSM3_IDENTIFY CPU Core 182 NUMA 1 PID 86201
compute31:rank3 PSM3_IDENTIFY PSM3 v3.0-oneapi-ze built for IEFS OFA DELTA 11_5_0_0_172
compute31:rank3 PSM3_IDENTIFY location /usr/lib64/libfabric/libpsm3-fi.so
compute31:rank3 PSM3_IDENTIFY build date 2023-05-15T09:53:40
compute31:rank3 PSM3_IDENTIFY src checksum 2c3eb379fd92530cd927d9f8b08506d7387c1d59
compute31:rank3 PSM3_IDENTIFY git checksum 97fdceb01fc41231a0a29e1df3f0f8ba760facd7
compute31:rank3 PSM3_IDENTIFY HAL: verbs (RDMA Verbs (oneapi-ze)) built against rv interface v1.4 gpu v1.3 oneapi-ze
compute31:rank3 PSM3_IDENTIFY Global Rank 3 (32 total) Local Rank 3 (8 total)
compute31:rank3 PSM3_IDENTIFY CPU Core 42 NUMA 0 PID 86199
compute35:rank13 PSM3_IDENTIFY run-time rv interface v1.4 user_mr gpu v1.3 oneapi-ze
compute35:rank11 PSM3_IDENTIFY run-time rv interface v1.4 user_mr gpu v1.3 oneapi-ze
compute35:rank8 PSM3_IDENTIFY run-time rv interface v1.4 user_mr gpu v1.3 oneapi-ze
compute35:rank12 PSM3_IDENTIFY run-time rv interface v1.4 user_mr gpu v1.3 oneapi-ze
compute35:rank13 PSM3_IDENTIFY NIC 1 (mlx5_1) Port 1 200000 Mbps NUMA 1 LID=38 GID=0xfe80000000000000:946dae0300eb4a8e QP=26133
compute35:rank9 PSM3_IDENTIFY run-time rv interface v1.4 user_mr gpu v1.3 oneapi-ze
compute35:rank11 PSM3_IDENTIFY NIC 0 (mlx5_0) Port 1 200000 Mbps NUMA 0 LID=42 GID=0xfe80000000000000:946dae0300eb4aca QP=26133
compute35:rank8 PSM3_IDENTIFY NIC 0 (mlx5_0) Port 1 200000 Mbps NUMA 0 LID=42 GID=0xfe80000000000000:946dae0300eb4aca QP=26134
compute35:rank15 PSM3_IDENTIFY run-time rv interface v1.4 user_mr gpu v1.3 oneapi-ze
compute35:rank12 PSM3_IDENTIFY NIC 1 (mlx5_1) Port 1 200000 Mbps NUMA 1 LID=38 GID=0xfe80000000000000:946dae0300eb4a8e QP=26134
compute31:rank7 PSM3_IDENTIFY PSM3 v3.0-oneapi-ze built for IEFS OFA DELTA 11_5_0_0_172
compute31:rank7 PSM3_IDENTIFY location /usr/lib64/libfabric/libpsm3-fi.so
compute31:rank7 PSM3_IDENTIFY build date 2023-05-15T09:53:40
compute31:rank7 PSM3_IDENTIFY src checksum 2c3eb379fd92530cd927d9f8b08506d7387c1d59
compute31:rank7 PSM3_IDENTIFY git checksum 97fdceb01fc41231a0a29e1df3f0f8ba760facd7
compute31:rank7 PSM3_IDENTIFY HAL: verbs (RDMA Verbs (oneapi-ze)) built against rv interface v1.4 gpu v1.3 oneapi-ze
compute31:rank7 PSM3_IDENTIFY Global Rank 7 (32 total) Local Rank 7 (8 total)
compute31:rank7 PSM3_IDENTIFY CPU Core 210 NUMA 1 PID 86203
compute35:rank9 PSM3_IDENTIFY NIC 0 (mlx5_0) Port 1 200000 Mbps NUMA 0 LID=42 GID=0xfe80000000000000:946dae0300eb4aca QP=26135
compute35:rank15 PSM3_IDENTIFY NIC 1 (mlx5_1) Port 1 200000 Mbps NUMA 1 LID=38 GID=0xfe80000000000000:946dae0300eb4a8e QP=26135
compute35:rank10 PSM3_IDENTIFY run-time rv interface v1.4 user_mr gpu v1.3 oneapi-ze
compute35:rank14 PSM3_IDENTIFY run-time rv interface v1.4 user_mr gpu v1.3 oneapi-ze
compute31:rank2 PSM3_IDENTIFY run-time rv interface v1.4 user_mr gpu v1.3 oneapi-ze
compute35:rank10 PSM3_IDENTIFY NIC 0 (mlx5_0) Port 1 200000 Mbps NUMA 0 LID=42 GID=0xfe80000000000000:946dae0300eb4aca QP=26136
compute31:rank5 PSM3_IDENTIFY run-time rv interface v1.4 user_mr gpu v1.3 oneapi-ze
compute31:rank3 PSM3_IDENTIFY run-time rv interface v1.4 user_mr gpu v1.3 oneapi-ze
compute31:rank1 PSM3_IDENTIFY PSM3 v3.0-oneapi-ze built for IEFS OFA DELTA 11_5_0_0_172
compute31:rank1 PSM3_IDENTIFY location /usr/lib64/libfabric/libpsm3-fi.so
compute31:rank1 PSM3_IDENTIFY build date 2023-05-15T09:53:40
compute31:rank1 PSM3_IDENTIFY src checksum 2c3eb379fd92530cd927d9f8b08506d7387c1d59
compute31:rank1 PSM3_IDENTIFY git checksum 97fdceb01fc41231a0a29e1df3f0f8ba760facd7
compute31:rank1 PSM3_IDENTIFY HAL: verbs (RDMA Verbs (oneapi-ze)) built against rv interface v1.4 gpu v1.3 oneapi-ze
compute31:rank1 PSM3_IDENTIFY Global Rank 1 (32 total) Local Rank 1 (8 total)
compute31:rank1 PSM3_IDENTIFY CPU Core 14 NUMA 0 PID 86197
compute35:rank14 PSM3_IDENTIFY NIC 1 (mlx5_1) Port 1 200000 Mbps NUMA 1 LID=38 GID=0xfe80000000000000:946dae0300eb4a8e QP=26136
compute31:rank6 PSM3_IDENTIFY PSM3 v3.0-oneapi-ze built for IEFS OFA DELTA 11_5_0_0_172
compute31:rank6 PSM3_IDENTIFY location /usr/lib64/libfabric/libpsm3-fi.so
compute31:rank6 PSM3_IDENTIFY build date 2023-05-15T09:53:40
compute31:rank6 PSM3_IDENTIFY src checksum 2c3eb379fd92530cd927d9f8b08506d7387c1d59
compute31:rank6 PSM3_IDENTIFY git checksum 97fdceb01fc41231a0a29e1df3f0f8ba760facd7
compute31:rank6 PSM3_IDENTIFY HAL: verbs (RDMA Verbs (oneapi-ze)) built against rv interface v1.4 gpu v1.3 oneapi-ze
compute31:rank6 PSM3_IDENTIFY Global Rank 6 (32 total) Local Rank 6 (8 total)
compute31:rank6 PSM3_IDENTIFY CPU Core 84 NUMA 1 PID 86202
compute31:rank2 PSM3_IDENTIFY NIC 0 (mlx5_0) Port 1 200000 Mbps NUMA 0 LID=35 GID=0xfe80000000000000:b8cef603005e80be QP=24831
compute31:rank5 PSM3_IDENTIFY NIC 1 (mlx5_1) Port 1 200000 Mbps NUMA 1 LID=36 GID=0xfe80000000000000:c42a103009450cc QP=24830
compute31:rank4 PSM3_IDENTIFY run-time rv interface v1.4 user_mr gpu v1.3 oneapi-ze
compute31:rank3 PSM3_IDENTIFY NIC 0 (mlx5_0) Port 1 200000 Mbps NUMA 0 LID=35 GID=0xfe80000000000000:b8cef603005e80be QP=24832
compute31:rank0 PSM3_IDENTIFY run-time rv interface v1.4 user_mr gpu v1.3 oneapi-ze
compute31:rank4 PSM3_IDENTIFY NIC 1 (mlx5_1) Port 1 200000 Mbps NUMA 1 LID=36 GID=0xfe80000000000000:c42a103009450cc QP=24831
compute31:rank0 PSM3_IDENTIFY NIC 0 (mlx5_0) Port 1 200000 Mbps NUMA 0 LID=35 GID=0xfe80000000000000:b8cef603005e80be QP=24833
compute31:rank7 PSM3_IDENTIFY run-time rv interface v1.4 user_mr gpu v1.3 oneapi-ze
compute31:rank7 PSM3_IDENTIFY NIC 1 (mlx5_1) Port 1 200000 Mbps NUMA 1 LID=36 GID=0xfe80000000000000:c42a103009450cc QP=24833
compute31:rank6 PSM3_IDENTIFY run-time rv interface v1.4 user_mr gpu v1.3 oneapi-ze
compute31:rank1 PSM3_IDENTIFY run-time rv interface v1.4 user_mr gpu v1.3 oneapi-ze
compute31:rank6 PSM3_IDENTIFY NIC 1 (mlx5_1) Port 1 200000 Mbps NUMA 1 LID=36 GID=0xfe80000000000000:c42a103009450cc QP=24834
compute31:rank1 PSM3_IDENTIFY NIC 0 (mlx5_0) Port 1 200000 Mbps NUMA 0 LID=35 GID=0xfe80000000000000:b8cef603005e80be QP=24835
compute42:rank30 PSM3_IDENTIFY PSM3 v3.0-oneapi-ze built for IEFS OFA DELTA 11_5_0_0_172
compute42:rank30 PSM3_IDENTIFY location /usr/lib64/libfabric/libpsm3-fi.so
compute42:rank30 PSM3_IDENTIFY build date 2023-05-15T09:53:40
compute42:rank30 PSM3_IDENTIFY src checksum 2c3eb379fd92530cd927d9f8b08506d7387c1d59
compute42:rank30 PSM3_IDENTIFY git checksum 97fdceb01fc41231a0a29e1df3f0f8ba760facd7
compute42:rank30 PSM3_IDENTIFY HAL: verbs (RDMA Verbs (oneapi-ze)) built against rv interface v1.4 gpu v1.3 oneapi-ze
compute42:rank30 PSM3_IDENTIFY Global Rank 30 (32 total) Local Rank 6 (8 total)
compute42:rank30 PSM3_IDENTIFY CPU Core 84 NUMA 1 PID 173382
compute42:rank25 PSM3_IDENTIFY PSM3 v3.0-oneapi-ze built for IEFS OFA DELTA 11_5_0_0_172
compute42:rank25 PSM3_IDENTIFY location /usr/lib64/libfabric/libpsm3-fi.so
compute42:rank25 PSM3_IDENTIFY build date 2023-05-15T09:53:40
compute42:rank25 PSM3_IDENTIFY src checksum 2c3eb379fd92530cd927d9f8b08506d7387c1d59
compute42:rank25 PSM3_IDENTIFY git checksum 97fdceb01fc41231a0a29e1df3f0f8ba760facd7
compute42:rank25 PSM3_IDENTIFY HAL: verbs (RDMA Verbs (oneapi-ze)) built against rv interface v1.4 gpu v1.3 oneapi-ze
compute42:rank25 PSM3_IDENTIFY Global Rank 25 (32 total) Local Rank 1 (8 total)
compute42:rank25 PSM3_IDENTIFY CPU Core 14 NUMA 0 PID 173377
compute42:rank29 PSM3_IDENTIFY PSM3 v3.0-oneapi-ze built for IEFS OFA DELTA 11_5_0_0_172
compute42:rank29 PSM3_IDENTIFY location /usr/lib64/libfabric/libpsm3-fi.so
compute42:rank29 PSM3_IDENTIFY build date 2023-05-15T09:53:40
compute42:rank29 PSM3_IDENTIFY src checksum 2c3eb379fd92530cd927d9f8b08506d7387c1d59
compute42:rank29 PSM3_IDENTIFY git checksum 97fdceb01fc41231a0a29e1df3f0f8ba760facd7
compute42:rank29 PSM3_IDENTIFY HAL: verbs (RDMA Verbs (oneapi-ze)) built against rv interface v1.4 gpu v1.3 oneapi-ze
compute42:rank29 PSM3_IDENTIFY Global Rank 29 (32 total) Local Rank 5 (8 total)
compute42:rank29 PSM3_IDENTIFY CPU Core 182 NUMA 1 PID 173381
compute42:rank24 PSM3_IDENTIFY PSM3 v3.0-oneapi-ze built for IEFS OFA DELTA 11_5_0_0_172
compute42:rank24 PSM3_IDENTIFY location /usr/lib64/libfabric/libpsm3-fi.so
compute42:rank24 PSM3_IDENTIFY build date 2023-05-15T09:53:40
compute42:rank24 PSM3_IDENTIFY src checksum 2c3eb379fd92530cd927d9f8b08506d7387c1d59
compute42:rank24 PSM3_IDENTIFY git checksum 97fdceb01fc41231a0a29e1df3f0f8ba760facd7
compute42:rank24 PSM3_IDENTIFY HAL: verbs (RDMA Verbs (oneapi-ze)) built against rv interface v1.4 gpu v1.3 oneapi-ze
compute42:rank24 PSM3_IDENTIFY Global Rank 24 (32 total) Local Rank 0 (8 total)
compute42:rank24 PSM3_IDENTIFY CPU Core 1 NUMA 0 PID 173376
compute42:rank28 PSM3_IDENTIFY PSM3 v3.0-oneapi-ze built for IEFS OFA DELTA 11_5_0_0_172
compute42:rank28 PSM3_IDENTIFY location /usr/lib64/libfabric/libpsm3-fi.so
compute42:rank28 PSM3_IDENTIFY build date 2023-05-15T09:53:40
compute42:rank28 PSM3_IDENTIFY src checksum 2c3eb379fd92530cd927d9f8b08506d7387c1d59
compute42:rank28 PSM3_IDENTIFY git checksum 97fdceb01fc41231a0a29e1df3f0f8ba760facd7
compute42:rank28 PSM3_IDENTIFY HAL: verbs (RDMA Verbs (oneapi-ze)) built against rv interface v1.4 gpu v1.3 oneapi-ze
compute42:rank28 PSM3_IDENTIFY Global Rank 28 (32 total) Local Rank 4 (8 total)
compute42:rank28 PSM3_IDENTIFY CPU Core 56 NUMA 1 PID 173380
compute42:rank27 PSM3_IDENTIFY PSM3 v3.0-oneapi-ze built for IEFS OFA DELTA 11_5_0_0_172
compute42:rank27 PSM3_IDENTIFY location /usr/lib64/libfabric/libpsm3-fi.so
compute42:rank27 PSM3_IDENTIFY build date 2023-05-15T09:53:40
compute42:rank27 PSM3_IDENTIFY src checksum 2c3eb379fd92530cd927d9f8b08506d7387c1d59
compute42:rank27 PSM3_IDENTIFY git checksum 97fdceb01fc41231a0a29e1df3f0f8ba760facd7
compute42:rank27 PSM3_IDENTIFY HAL: verbs (RDMA Verbs (oneapi-ze)) built against rv interface v1.4 gpu v1.3 oneapi-ze
compute42:rank27 PSM3_IDENTIFY Global Rank 27 (32 total) Local Rank 3 (8 total)
compute42:rank27 PSM3_IDENTIFY CPU Core 42 NUMA 0 PID 173379
compute42:rank31 PSM3_IDENTIFY PSM3 v3.0-oneapi-ze built for IEFS OFA DELTA 11_5_0_0_172
compute42:rank31 PSM3_IDENTIFY location /usr/lib64/libfabric/libpsm3-fi.so
compute42:rank31 PSM3_IDENTIFY build date 2023-05-15T09:53:40
compute42:rank31 PSM3_IDENTIFY src checksum 2c3eb379fd92530cd927d9f8b08506d7387c1d59
compute42:rank31 PSM3_IDENTIFY git checksum 97fdceb01fc41231a0a29e1df3f0f8ba760facd7
compute42:rank31 PSM3_IDENTIFY HAL: verbs (RDMA Verbs (oneapi-ze)) built against rv interface v1.4 gpu v1.3 oneapi-ze
compute42:rank31 PSM3_IDENTIFY Global Rank 31 (32 total) Local Rank 7 (8 total)
compute42:rank31 PSM3_IDENTIFY CPU Core 98 NUMA 1 PID 173383
compute42:rank26 PSM3_IDENTIFY PSM3 v3.0-oneapi-ze built for IEFS OFA DELTA 11_5_0_0_172
compute42:rank26 PSM3_IDENTIFY location /usr/lib64/libfabric/libpsm3-fi.so
compute42:rank26 PSM3_IDENTIFY build date 2023-05-15T09:53:40
compute42:rank26 PSM3_IDENTIFY src checksum 2c3eb379fd92530cd927d9f8b08506d7387c1d59
compute42:rank26 PSM3_IDENTIFY git checksum 97fdceb01fc41231a0a29e1df3f0f8ba760facd7
compute42:rank26 PSM3_IDENTIFY HAL: verbs (RDMA Verbs (oneapi-ze)) built against rv interface v1.4 gpu v1.3 oneapi-ze
compute42:rank26 PSM3_IDENTIFY Global Rank 26 (32 total) Local Rank 2 (8 total)
compute42:rank26 PSM3_IDENTIFY CPU Core 140 NUMA 0 PID 173378
compute42:rank25 PSM3_IDENTIFY run-time rv interface v1.4 user_mr gpu v1.3 oneapi-ze
compute42:rank25 PSM3_IDENTIFY NIC 0 (mlx5_0) Port 1 200000 Mbps NUMA 0 LID=1 GID=0xfe80000000000000:946dae0300eb4ac6 QP=42827
compute42:rank27 PSM3_IDENTIFY run-time rv interface v1.4 user_mr gpu v1.3 oneapi-ze
compute42:rank24 PSM3_IDENTIFY run-time rv interface v1.4 user_mr gpu v1.3 oneapi-ze
compute42:rank30 PSM3_IDENTIFY run-time rv interface v1.4 user_mr gpu v1.3 oneapi-ze
compute42:rank29 PSM3_IDENTIFY run-time rv interface v1.4 user_mr gpu v1.3 oneapi-ze
compute42:rank28 PSM3_IDENTIFY run-time rv interface v1.4 user_mr gpu v1.3 oneapi-ze
compute42:rank27 PSM3_IDENTIFY NIC 0 (mlx5_0) Port 1 200000 Mbps NUMA 0 LID=1 GID=0xfe80000000000000:946dae0300eb4ac6 QP=42828
compute42:rank24 PSM3_IDENTIFY NIC 0 (mlx5_0) Port 1 200000 Mbps NUMA 0 LID=1 GID=0xfe80000000000000:946dae0300eb4ac6 QP=42829
compute42:rank30 PSM3_IDENTIFY NIC 1 (mlx5_1) Port 1 200000 Mbps NUMA 1 LID=26 GID=0xfe80000000000000:946dae0300eb4a9e QP=42811
compute42:rank28 PSM3_IDENTIFY NIC 1 (mlx5_1) Port 1 200000 Mbps NUMA 1 LID=26 GID=0xfe80000000000000:946dae0300eb4a9e QP=42813
compute42:rank29 PSM3_IDENTIFY NIC 1 (mlx5_1) Port 1 200000 Mbps NUMA 1 LID=26 GID=0xfe80000000000000:946dae0300eb4a9e QP=42812
compute42:rank26 PSM3_IDENTIFY run-time rv interface v1.4 user_mr gpu v1.3 oneapi-ze
compute42:rank31 PSM3_IDENTIFY run-time rv interface v1.4 user_mr gpu v1.3 oneapi-ze
compute42:rank26 PSM3_IDENTIFY NIC 0 (mlx5_0) Port 1 200000 Mbps NUMA 0 LID=1 GID=0xfe80000000000000:946dae0300eb4ac6 QP=42830
compute42:rank31 PSM3_IDENTIFY NIC 1 (mlx5_1) Port 1 200000 Mbps NUMA 1 LID=26 GID=0xfe80000000000000:946dae0300eb4a9e QP=42814
[0] MPI startup(): Load tuning file: "/install/software/oneAPI/2023.2/mpi/2021.10.0/etc/tuning_skx_ofi_psm3.dat"
[0] MPI startup(): Rank    Pid      Node name  Pin cpu
[0] MPI startup(): 0       86196    compute31  {0,1,2,3,4,5,6,7,8,9,10,11,12,13,112,113,114,115,116,117,118,119,120,121,122,123,
                                 124,125}
[0] MPI startup(): 1       86197    compute31  {14,15,16,17,18,19,20,21,22,23,24,25,26,27,126,127,128,129,130,131,132,133,134,13
                                 5,136,137,138,139}
[0] MPI startup(): 2       86198    compute31  {28,29,30,31,32,33,34,35,36,37,38,39,40,41,140,141,142,143,144,145,146,147,148,14
                                 9,150,151,152,153}
[0] MPI startup(): 3       86199    compute31  {42,43,44,45,46,47,48,49,50,51,52,53,54,55,154,155,156,157,158,159,160,161,162,16
                                 3,164,165,166,167}
[0] MPI startup(): 4       86200    compute31  {56,57,58,59,60,61,62,63,64,65,66,67,68,69,168,169,170,171,172,173,174,175,176,17
                                 7,178,179,180,181}
[0] MPI startup(): 5       86201    compute31  {70,71,72,73,74,75,76,77,78,79,80,81,82,83,182,183,184,185,186,187,188,189,190,19
                                 1,192,193,194,195}
[0] MPI startup(): 6       86202    compute31  {84,85,86,87,88,89,90,91,92,93,94,95,96,97,196,197,198,199,200,201,202,203,204,20
                                 5,206,207,208,209}
[0] MPI startup(): 7       86203    compute31  {98,99,100,101,102,103,104,105,106,107,108,109,110,111,210,211,212,213,214,215,21
                                 6,217,218,219,220,221,222,223}
[0] MPI startup(): 8       79079    compute35  {0,1,2,3,4,5,6,7,8,9,10,11,12,13,112,113,114,115,116,117,118,119,120,121,122,123,
                                 124,125}
[0] MPI startup(): 9       79080    compute35  {14,15,16,17,18,19,20,21,22,23,24,25,26,27,126,127,128,129,130,131,132,133,134,13
                                 5,136,137,138,139}
[0] MPI startup(): 10      79081    compute35  {28,29,30,31,32,33,34,35,36,37,38,39,40,41,140,141,142,143,144,145,146,147,148,14
                                 9,150,151,152,153}
[0] MPI startup(): 11      79082    compute35  {42,43,44,45,46,47,48,49,50,51,52,53,54,55,154,155,156,157,158,159,160,161,162,16
                                 3,164,165,166,167}
[0] MPI startup(): 12      79083    compute35  {56,57,58,59,60,61,62,63,64,65,66,67,68,69,168,169,170,171,172,173,174,175,176,17
                                 7,178,179,180,181}
[0] MPI startup(): 13      79084    compute35  {70,71,72,73,74,75,76,77,78,79,80,81,82,83,182,183,184,185,186,187,188,189,190,19
                                 1,192,193,194,195}
[0] MPI startup(): 14      79085    compute35  {84,85,86,87,88,89,90,91,92,93,94,95,96,97,196,197,198,199,200,201,202,203,204,20
                                 5,206,207,208,209}
[0] MPI startup(): 15      79086    compute35  {98,99,100,101,102,103,104,105,106,107,108,109,110,111,210,211,212,213,214,215,21
                                 6,217,218,219,220,221,222,223}
[0] MPI startup(): 16      6387     compute41  {0,1,2,3,4,5,6,7,8,9,10,11,12,13,112,113,114,115,116,117,118,119,120,121,122,123,
                                 124,125}
[0] MPI startup(): 17      6388     compute41  {14,15,16,17,18,19,20,21,22,23,24,25,26,27,126,127,128,129,130,131,132,133,134,13
                                 5,136,137,138,139}
[0] MPI startup(): 18      6389     compute41  {28,29,30,31,32,33,34,35,36,37,38,39,40,41,140,141,142,143,144,145,146,147,148,14
                                 9,150,151,152,153}
[0] MPI startup(): 19      6390     compute41  {42,43,44,45,46,47,48,49,50,51,52,53,54,55,154,155,156,157,158,159,160,161,162,16
                                 3,164,165,166,167}
[0] MPI startup(): 20      6391     compute41  {56,57,58,59,60,61,62,63,64,65,66,67,68,69,168,169,170,171,172,173,174,175,176,17
                                 7,178,179,180,181}
[0] MPI startup(): 21      6392     compute41  {70,71,72,73,74,75,76,77,78,79,80,81,82,83,182,183,184,185,186,187,188,189,190,19
                                 1,192,193,194,195}
[0] MPI startup(): 22      6393     compute41  {84,85,86,87,88,89,90,91,92,93,94,95,96,97,196,197,198,199,200,201,202,203,204,20
                                 5,206,207,208,209}
[0] MPI startup(): 23      6394     compute41  {98,99,100,101,102,103,104,105,106,107,108,109,110,111,210,211,212,213,214,215,21
                                 6,217,218,219,220,221,222,223}
[0] MPI startup(): 24      173376   compute42  {0,1,2,3,4,5,6,7,8,9,10,11,12,13,112,113,114,115,116,117,118,119,120,121,122,123,
                                 124,125}
[0] MPI startup(): 25      173377   compute42  {14,15,16,17,18,19,20,21,22,23,24,25,26,27,126,127,128,129,130,131,132,133,134,13
                                 5,136,137,138,139}
[0] MPI startup(): 26      173378   compute42  {28,29,30,31,32,33,34,35,36,37,38,39,40,41,140,141,142,143,144,145,146,147,148,14
                                 9,150,151,152,153}
[0] MPI startup(): 27      173379   compute42  {42,43,44,45,46,47,48,49,50,51,52,53,54,55,154,155,156,157,158,159,160,161,162,16
                                 3,164,165,166,167}
[0] MPI startup(): 28      173380   compute42  {56,57,58,59,60,61,62,63,64,65,66,67,68,69,168,169,170,171,172,173,174,175,176,17
                                 7,178,179,180,181}
[0] MPI startup(): 29      173381   compute42  {70,71,72,73,74,75,76,77,78,79,80,81,82,83,182,183,184,185,186,187,188,189,190,19
                                 1,192,193,194,195}
[0] MPI startup(): 30      173382   compute42  {84,85,86,87,88,89,90,91,92,93,94,95,96,97,196,197,198,199,200,201,202,203,204,20
                                 5,206,207,208,209}
[0] MPI startup(): 31      173383   compute42  {98,99,100,101,102,103,104,105,106,107,108,109,110,111,210,211,212,213,214,215,21
                                 6,217,218,219,220,221,222,223}
---
 Reference Paper             : The Journal of Chemical Physics 137, 134108 (2012)
 Version Number              : PSolver 1.9
 Timestamp of this run       : 2023-10-31 08:13:22.201
 Root process Hostname       : compute31
 Poisson Kernel Creation:
   Boundary Conditions       : Periodic
   Memory Requirements per MPI task:
     Density (MB)            :  9.61
     Kernel (MB)             :  1.27
     Full Grid Arrays (MB)   :  9.61
   Kernel Copied on GPU      :  Yes
 Orbital repartition:
 -  [ 46,  46,  46,  46,  46,  46,  46,  46,  46,  46,  46,  46,  46,  46,  46,  46,  46, 
      46,  46,  46,  46,  46,  46,  46,  46,  46,  46,  46,  46,  46,  46,  46]
  #Exact exchange calculation:3%; Time (s): Elapsed=0.6358, Remaining=21.
  #Exact exchange calculation:9%; Time (s): Elapsed=1.4184, Remaining=14.
  #Exact exchange calculation:15%; Time (s): Elapsed=2.2007, Remaining=12.
  #Exact exchange calculation:21%; Time (s): Elapsed=2.9907, Remaining=11.
  #Exact exchange calculation:27%; Time (s): Elapsed=3.7940, Remaining=10.
  #Exact exchange calculation:33%; Time (s): Elapsed=4.5885, Remaining=9.3
  #Exact exchange calculation:39%; Time (s): Elapsed=5.4517, Remaining=8.5
  #Exact exchange calculation:45%; Time (s): Elapsed=6.3423, Remaining=7.8
  #Exact exchange calculation:52%; Time (s): Elapsed=7.2356, Remaining=6.7
  #Exact exchange calculation:58%; Time (s): Elapsed=8.1965, Remaining=5.9
  #Exact exchange calculation:64%; Time (s): Elapsed=9.0506, Remaining=5.1
  #Exact exchange calculation:70%; Time (s): Elapsed=10.0169, Remaining=4.3
  #Exact exchange calculation:76%; Time (s): Elapsed=10.8829, Remaining=3.4
  #Exact exchange calculation:82%; Time (s): Elapsed=11.8167, Remaining=2.6
  #Exact exchange calculation:88%; Time (s): Elapsed=12.6812, Remaining=1.7
  #Exact exchange calculation:94%; Time (s): Elapsed=13.6528, Remaining=0.87
  #Exact exchange calculation:100%; Time (s): Elapsed=14.4284, Remaining=0.0
 Exact Exchange Energy       :  6.93640945756E+18
 Expected Exchange Energy    :  3.07548491532E+04
 free_GPU_workarrays 0
 free_GPU_workarrays 0
 free_GPU_workarrays 0
 free_GPU_workarrays 0
 free_GPU_workarrays 0
 free_GPU_workarrays 0
 free_GPU_workarrays 0
 free_GPU_workarrays 0
 free_GPU_workarrays 1
 free_GPU_workarrays 2
 free_GPU_workarrays 3
 free_GPU_workarrays 4
 free_GPU_workarrays 0
 free_GPU_workarrays 0
 free_GPU_workarrays 1
 free_GPU_workarrays 0
 free_GPU_workarrays 1
 free_GPU_workarrays 2
 free_GPU_workarrays 1
 free_GPU_workarrays 2
 free_GPU_workarrays 3
 free_GPU_workarrays 4
 free_GPU_workarrays 5
 free_GPU_workarrays 0
 free_GPU_workarrays 0
 free_GPU_workarrays 0
 free_GPU_workarrays 1
 free_GPU_workarrays 2
 free_GPU_workarrays 3
 free_GPU_workarrays 4
 free_GPU_workarrays 0
 free_GPU_workarrays 0
 free_GPU_workarrays 1
 free_GPU_workarrays 2
 free_GPU_workarrays 3
 free_GPU_workarrays 4
 free_GPU_workarrays 0
 free_GPU_workarrays 1
 free_GPU_workarrays 2
 free_GPU_workarrays 3
 free_GPU_workarrays 4
 free_GPU_workarrays 0
 free_GPU_workarrays 1
 free_GPU_workarrays 2
 free_GPU_workarrays 3
 free_GPU_workarrays 4
 free_GPU_workarrays 0
 free_GPU_workarrays 1
 free_GPU_workarrays 2
 free_GPU_workarrays 3
 free_GPU_workarrays 4
 free_GPU_workarrays 0
 free_GPU_workarrays 1
 free_GPU_workarrays 2
 free_GPU_workarrays 3
 free_GPU_workarrays 4
 free_GPU_workarrays 0
 free_GPU_workarrays 1
 free_GPU_workarrays 2
 free_GPU_workarrays 3
 free_GPU_workarrays 4
 free_GPU_workarrays 5
 free_GPU_workarrays 0
 free_GPU_workarrays 1
 free_GPU_workarrays 2
 free_GPU_workarrays 3
 free_GPU_workarrays 4
 free_GPU_workarrays 0
 free_GPU_workarrays 1
 free_GPU_workarrays 2
 free_GPU_workarrays 3
 free_GPU_workarrays 4
 free_GPU_workarrays 1
 free_GPU_workarrays 2
 free_GPU_workarrays 3
 free_GPU_workarrays 4
 free_GPU_workarrays 0
 free_GPU_workarrays 2
 free_GPU_workarrays 3
 free_GPU_workarrays 4
 free_GPU_workarrays 1
 free_GPU_workarrays 2
 free_GPU_workarrays 3
 free_GPU_workarrays 4
 free_GPU_workarrays 0
 free_GPU_workarrays 1
 free_GPU_workarrays 2
 free_GPU_workarrays 3
 free_GPU_workarrays 4
 free_GPU_workarrays 5
 free_GPU_workarrays 3
 free_GPU_workarrays 4
 free_GPU_workarrays 0
 free_GPU_workarrays 5
 free_GPU_workarrays 1
 free_GPU_workarrays 2
 free_GPU_workarrays 3
 free_GPU_workarrays 4
 free_GPU_workarrays 1
 free_GPU_workarrays 2
 free_GPU_workarrays 3
 free_GPU_workarrays 4
 free_GPU_workarrays 5
 free_GPU_workarrays 0
 free_GPU_workarrays 1
 free_GPU_workarrays 2
 free_GPU_workarrays 3
 free_GPU_workarrays 4
 free_GPU_workarrays 5
 free_GPU_workarrays 1
 free_GPU_workarrays 2
 free_GPU_workarrays 3
 free_GPU_workarrays 4
 free_GPU_workarrays 5
 free_GPU_workarrays 0
 free_GPU_workarrays 1
 free_GPU_workarrays 2
 free_GPU_workarrays 5
 free_GPU_workarrays 1
 free_GPU_workarrays 2
 free_GPU_workarrays 3
 free_GPU_workarrays 4
 free_GPU_workarrays 5
 free_GPU_workarrays 5
 free_GPU_workarrays 0
 free_GPU_workarrays 1
 free_GPU_workarrays 2
 free_GPU_workarrays 3
 free_GPU_workarrays 4
 free_GPU_workarrays 5
 free_GPU_workarrays 1
 free_GPU_workarrays 2
 free_GPU_workarrays 3
 free_GPU_workarrays 4
 free_GPU_workarrays 6
 free_GPU_workarrays 0
 free_GPU_workarrays 1
 free_GPU_workarrays 2
 free_GPU_workarrays 3
 free_GPU_workarrays 4
 free_GPU_workarrays 5
 free_GPU_workarrays 1
 free_GPU_workarrays 2
 free_GPU_workarrays 3
 free_GPU_workarrays 4
 free_GPU_workarrays 5
 free_GPU_workarrays 6
 free_GPU_workarrays 0
 free_GPU_workarrays 1
 free_GPU_workarrays 2
 free_GPU_workarrays 3
 free_GPU_workarrays 4
 free_GPU_workarrays 5
 free_GPU_workarrays 5
 free_GPU_workarrays 1
 free_GPU_workarrays 2
 free_GPU_workarrays 3
 free_GPU_workarrays 4
 free_GPU_workarrays 6
 free_GPU_workarrays 0
 free_GPU_workarrays 1
 free_GPU_workarrays 2
 free_GPU_workarrays 3
 free_GPU_workarrays 4
 free_GPU_workarrays 5
 free_GPU_workarrays 1
 free_GPU_workarrays 2
 free_GPU_workarrays 3
 free_GPU_workarrays 4
 free_GPU_workarrays 5
 free_GPU_workarrays 5
 free_GPU_workarrays 1
 free_GPU_workarrays 2
 free_GPU_workarrays 3
 free_GPU_workarrays 4
 free_GPU_workarrays 5
 free_GPU_workarrays 5
 free_GPU_workarrays 5
 free_GPU_workarrays 6
 free_GPU_workarrays 1
 free_GPU_workarrays 2
 free_GPU_workarrays 3
 free_GPU_workarrays 4
 free_GPU_workarrays 5
 free_GPU_workarrays 5
 free_GPU_workarrays 5
 free_GPU_workarrays 6
 free_GPU_workarrays 5
 free_GPU_workarrays 6
 free_GPU_workarrays 5
 free_GPU_workarrays 7
 free_GPU_workarrays 8
 free_GPU_workarrays 9
 free_GPU_workarrays 10
 free_GPU_workarrays 3
 free_GPU_workarrays 4
 free_GPU_workarrays 5
 free_GPU_workarrays 6
 free_GPU_workarrays 5
 free_GPU_workarrays 7
 free_GPU_workarrays 8
 free_GPU_workarrays 9
 free_GPU_workarrays 10
 free_GPU_workarrays 5
 free_GPU_workarrays 6
 free_GPU_workarrays 5
 free_GPU_workarrays 7
 free_GPU_workarrays 8
 free_GPU_workarrays 9
 free_GPU_workarrays 10
 free_GPU_workarrays 5
 free_GPU_workarrays 6
 free_GPU_workarrays 6
 free_GPU_workarrays 6
 free_GPU_workarrays 5
 free_GPU_workarrays 6
 free_GPU_workarrays 6
 free_GPU_workarrays 6
 free_GPU_workarrays 7
 free_GPU_workarrays 8
 free_GPU_workarrays 6
 free_GPU_workarrays 7
 free_GPU_workarrays 8
 free_GPU_workarrays 9
 free_GPU_workarrays 10
 free_GPU_workarrays 6
 free_GPU_workarrays 6
 free_GPU_workarrays 6
 free_GPU_workarrays 6
 free_GPU_workarrays 6
 free_GPU_workarrays 7
 free_GPU_workarrays 8
 free_GPU_workarrays 9
 free_GPU_workarrays 10
 free_GPU_workarrays 9
 free_GPU_workarrays 10
 free_GPU_workarrays 6
 free_GPU_workarrays 7
 free_GPU_workarrays 8
 free_GPU_workarrays 9
 free_GPU_workarrays 10
 free_GPU_workarrays 6
 free_GPU_workarrays 7
 free_GPU_workarrays 8
 free_GPU_workarrays 9
 free_GPU_workarrays 10
 free_GPU_workarrays 7
 free_GPU_workarrays 8
 free_GPU_workarrays 9
 free_GPU_workarrays 10
 free_GPU_workarrays 6
 free_GPU_workarrays 7
 free_GPU_workarrays 8
 free_GPU_workarrays 9
 free_GPU_workarrays 10
 free_GPU_workarrays 6
 free_GPU_workarrays 7
 free_GPU_workarrays 8
 free_GPU_workarrays 9
 free_GPU_workarrays 10
 free_GPU_workarrays 7
 free_GPU_workarrays 8
 free_GPU_workarrays 9
 free_GPU_workarrays 6
 free_GPU_workarrays 7
 free_GPU_workarrays 8
 free_GPU_workarrays 9
 free_GPU_workarrays 10
 free_GPU_workarrays 6
 free_GPU_workarrays 7
 free_GPU_workarrays 8
 free_GPU_workarrays 9
 free_GPU_workarrays 10
 free_GPU_workarrays 6
 free_GPU_workarrays 7
 free_GPU_workarrays 8
 free_GPU_workarrays 7
 free_GPU_workarrays 8
 free_GPU_workarrays 9
 free_GPU_workarrays 10
 free_GPU_workarrays 7
 free_GPU_workarrays 8
 free_GPU_workarrays 9
 free_GPU_workarrays 10
 free_GPU_workarrays 10
 free_GPU_workarrays 6
 free_GPU_workarrays 6
 free_GPU_workarrays 7
 free_GPU_workarrays 8
 free_GPU_workarrays 9
 free_GPU_workarrays 10
 free_GPU_workarrays 7
 free_GPU_workarrays 8
 free_GPU_workarrays 9
 free_GPU_workarrays 10
 free_GPU_workarrays 7
 free_GPU_workarrays 8
 free_GPU_workarrays 9
 free_GPU_workarrays 10
 free_GPU_workarrays 6
 free_GPU_workarrays 7
 free_GPU_workarrays 8
 free_GPU_workarrays 9
 free_GPU_workarrays 10
 free_GPU_workarrays 6
 free_GPU_workarrays 7
 free_GPU_workarrays 8
 free_GPU_workarrays 9
 free_GPU_workarrays 10
 free_GPU_workarrays 6
 free_GPU_workarrays 7
 free_GPU_workarrays 8
 free_GPU_workarrays 9
 free_GPU_workarrays 10
 free_GPU_workarrays 7
 free_GPU_workarrays 8
 free_GPU_workarrays 9
 free_GPU_workarrays 10
 free_GPU_workarrays 9
 free_GPU_workarrays 10
 free_GPU_workarrays 7
 free_GPU_workarrays 8
 free_GPU_workarrays 9
 free_GPU_workarrays 10
 free_GPU_workarrays 7
 free_GPU_workarrays 8
 free_GPU_workarrays 9
 free_GPU_workarrays 10
 free_GPU_workarrays 7
 free_GPU_workarrays 8
 free_GPU_workarrays 7
 free_GPU_workarrays 8
 free_GPU_workarrays 9
 free_GPU_workarrays 10
 free_GPU_workarrays 9
 free_GPU_workarrays 10
 free_GPU_workarrays 7
 free_GPU_workarrays 8
 free_GPU_workarrays 9
 free_GPU_workarrays 10
 free_GPU_workarrays 7
 free_GPU_workarrays 8
 free_GPU_workarrays 9
 free_GPU_workarrays 10
 free_GPU_workarrays 7
 free_GPU_workarrays 8
 free_GPU_workarrays 9
 free_GPU_workarrays 10
 free_GPU_workarrays 7
 free_GPU_workarrays 8
 free_GPU_workarrays 9
 free_GPU_workarrays 10
 free_GPU_workarrays 11
 free_GPU_workarrays 12           2
 free_GPU_workarrays 13            2
 free_GPU_workarrays 11
 free_GPU_workarrays 12           2
 free_GPU_workarrays 13            2
 free_GPU_workarrays 11
 free_GPU_workarrays 12           2
 free_GPU_workarrays 13            2
 free_GPU_workarrays 11
 free_GPU_workarrays 12           2
 free_GPU_workarrays 13            2
 free_GPU_workarrays 11
 free_GPU_workarrays 12           2
 free_GPU_workarrays 13            2
 free_GPU_workarrays 11
 free_GPU_workarrays 12           2
 free_GPU_workarrays 13            2
 free_GPU_workarrays 11
 free_GPU_workarrays 12           2
 free_GPU_workarrays 13            2
 free_GPU_workarrays 11
 free_GPU_workarrays 12           2
 free_GPU_workarrays 13            2
 free_GPU_workarrays 11
 free_GPU_workarrays 12           2
 free_GPU_workarrays 13            2
 free_GPU_workarrays 11
 free_GPU_workarrays 12           2
 free_GPU_workarrays 13            2
 free_GPU_workarrays 11
 free_GPU_workarrays 12           2
 free_GPU_workarrays 13            2
 free_GPU_workarrays 11
 free_GPU_workarrays 12           2
 free_GPU_workarrays 13            2
 free_GPU_workarrays 11
 free_GPU_workarrays 12           2
 free_GPU_workarrays 13            2
 free_GPU_workarrays 11
 free_GPU_workarrays 12           2
 free_GPU_workarrays 13            2
 free_GPU_workarrays 11
 free_GPU_workarrays 12           2
 free_GPU_workarrays 13            2
 free_GPU_workarrays 11
 free_GPU_workarrays 12           2
 free_GPU_workarrays 13            2
 free_GPU_workarrays 11
 free_GPU_workarrays 12           2
 free_GPU_workarrays 13            2
 free_GPU_workarrays 11
 free_GPU_workarrays 12           2
 free_GPU_workarrays 13            2
 free_GPU_workarrays 11
 free_GPU_workarrays 12           2
 free_GPU_workarrays 13            2
 free_GPU_workarrays 11
 free_GPU_workarrays 12           2
 free_GPU_workarrays 13            2
 free_GPU_workarrays 11
 free_GPU_workarrays 12           2
 free_GPU_workarrays 13            2
 free_GPU_workarrays 11
 free_GPU_workarrays 12           2
 free_GPU_workarrays 13            2
 free_GPU_workarrays 11
 free_GPU_workarrays 12           2
 free_GPU_workarrays 13            2
 free_GPU_workarrays 11
 free_GPU_workarrays 12           2
 free_GPU_workarrays 13            2
 free_GPU_workarrays 11
 free_GPU_workarrays 12           2
 free_GPU_workarrays 13            2
 free_GPU_workarrays 11
 free_GPU_workarrays 12           2
 free_GPU_workarrays 13            2
 free_GPU_workarrays 11
 free_GPU_workarrays 12           2
 free_GPU_workarrays 13            2
 free_GPU_workarrays 11
 free_GPU_workarrays 12           2
 free_GPU_workarrays 13            2
 free_GPU_workarrays 11
 free_GPU_workarrays 12           2
 free_GPU_workarrays 13            2
 free_GPU_workarrays 11
 free_GPU_workarrays 12           2
 free_GPU_workarrays 13            2
 free_GPU_workarrays 11
 free_GPU_workarrays 12           2
 free_GPU_workarrays 13            2
 free_GPU_workarrays 11
 free_GPU_workarrays 12           2
 free_GPU_workarrays 13            2
 Memory Consumption Report:
   Tot. No. of Allocations             :  85
   Tot. No. of Deallocations           :  85
   Remaining Memory (B)                :  0
   Memory occupation:
     Peak Value (MB)                   :  898.727
     for the array                     : displ_res
     in the routine                    : null
     Memory Peak of process            : 1857.488 MB
 Walltime since initialization         :  00:00:20.271241760
 Max No. of dictionaries used          :  591 #( 241 still in use)
 Number of dictionary folders allocated:  1
